xof 0302txt 0032
template Header {
 <3D82AB43-62DA-11cf-AB39-0020AF71E433>
 WORD major;
 WORD minor;
 DWORD flags;
}

template Vector {
 <3D82AB5E-62DA-11cf-AB39-0020AF71E433>
 FLOAT x;
 FLOAT y;
 FLOAT z;
}

template Coords2d {
 <F6F23F44-7686-11cf-8F52-0040333594A3>
 FLOAT u;
 FLOAT v;
}

template Matrix4x4 {
 <F6F23F45-7686-11cf-8F52-0040333594A3>
 array FLOAT matrix[16];
}

template ColorRGBA {
 <35FF44E0-6C7C-11cf-8F52-0040333594A3>
 FLOAT red;
 FLOAT green;
 FLOAT blue;
 FLOAT alpha;
}

template ColorRGB {
 <D3E16E81-7835-11cf-8F52-0040333594A3>
 FLOAT red;
 FLOAT green;
 FLOAT blue;
}

template TextureFilename {
 <A42790E1-7810-11cf-8F52-0040333594A3>
 STRING filename;
}

template Material {
 <3D82AB4D-62DA-11cf-AB39-0020AF71E433>
 ColorRGBA faceColor;
 FLOAT power;
 ColorRGB specularColor;
 ColorRGB emissiveColor;
 [...]
}

template MeshFace {
 <3D82AB5F-62DA-11cf-AB39-0020AF71E433>
 DWORD nFaceVertexIndices;
 array DWORD faceVertexIndices[nFaceVertexIndices];
}

template MeshTextureCoords {
 <F6F23F40-7686-11cf-8F52-0040333594A3>
 DWORD nTextureCoords;
 array Coords2d textureCoords[nTextureCoords];
}

template MeshMaterialList {
 <F6F23F42-7686-11cf-8F52-0040333594A3>
 DWORD nMaterials;
 DWORD nFaceIndexes;
 array DWORD faceIndexes[nFaceIndexes];
 [Material]
}

template MeshNormals {
 <F6F23F43-7686-11cf-8F52-0040333594A3>
 DWORD nNormals;
 array Vector normals[nNormals];
 DWORD nFaceNormals;
 array MeshFace faceNormals[nFaceNormals];
}

template Mesh {
 <3D82AB44-62DA-11cf-AB39-0020AF71E433>
 DWORD nVertices;
 array Vector vertices[nVertices];
 DWORD nFaces;
 array MeshFace faces[nFaces];
 [...]
}

template FrameTransformMatrix {
 <F6F23F41-7686-11cf-8F52-0040333594A3>
 Matrix4x4 frameMatrix;
}

template Frame {
 <3D82AB46-62DA-11cf-AB39-0020AF71E433>
 [...]
}
template FloatKeys {
 <10DD46A9-775B-11cf-8F52-0040333594A3>
 DWORD nValues;
 array FLOAT values[nValues];
}

template TimedFloatKeys {
 <F406B180-7B3B-11cf-8F52-0040333594A3>
 DWORD time;
 FloatKeys tfkeys;
}

template AnimationKey {
 <10DD46A8-775B-11cf-8F52-0040333594A3>
 DWORD keyType;
 DWORD nKeys;
 array TimedFloatKeys keys[nKeys];
}

template AnimationOptions {
 <E2BF56C0-840F-11cf-8F52-0040333594A3>
 DWORD openclosed;
 DWORD positionquality;
}

template Animation {
 <3D82AB4F-62DA-11cf-AB39-0020AF71E433>
 [...]
}

template AnimationSet {
 <3D82AB50-62DA-11cf-AB39-0020AF71E433>
 [Animation]
}

Header {
 1;
 0;
 1;
}

Frame frm-Left_Elbow {
  FrameTransformMatrix {
1.000000,0.000000,0.000000,0.000000,
0.000000,1.000000,0.000000,0.000000,
0.000000,0.000000,1.000000,0.000000,
0.000000,0.000000,0.000000,1.000000;;
 }
Mesh Left_Elbow {
 583;
 -46.256298;-1.501346;55.518959;,
 -46.256298;-1.501346;55.518959;,
 -45.994099;-2.232537;56.966442;,
 -45.994099;-2.232537;56.966442;,
 -45.994099;-2.232537;56.966442;,
 -45.994099;-2.232537;56.966442;,
 -45.994099;-2.232537;56.966442;,
 -43.758915;-2.116694;55.602688;,
 -43.758915;-2.116694;55.602688;,
 -43.758915;-2.116694;55.602688;,
 -43.758915;-2.116694;55.602688;,
 -43.758915;-2.116694;55.602688;,
 -43.758915;-2.116694;55.602688;,
 -43.758915;-2.116694;55.602688;,
 -41.783566;-2.416752;56.007732;,
 -41.783566;-2.416752;56.007732;,
 -41.783566;-2.416752;56.007732;,
 -41.783566;-2.416752;56.007732;,
 -39.693851;-1.794114;56.341976;,
 -39.693851;-1.794114;56.341976;,
 -39.693851;-1.794114;56.341976;,
 -39.693851;-1.794114;56.341976;,
 -39.693851;-1.794114;56.341976;,
 -37.558788;-1.810629;56.545059;,
 -37.558788;-1.810629;56.545059;,
 -37.558788;-1.810629;56.545059;,
 -37.558788;-1.810629;56.545059;,
 -35.253506;-2.075396;56.550415;,
 -35.253506;-2.075396;56.550415;,
 -35.253506;-2.075396;56.550415;,
 -33.547138;-2.063438;56.155136;,
 -33.547138;-2.063438;56.155136;,
 -33.547138;-2.063438;56.155136;,
 -33.547138;-2.063438;56.155136;,
 -33.547138;-2.063438;56.155136;,
 -31.350985;-1.729530;55.087555;,
 -31.350985;-1.729530;55.087555;,
 -31.350985;-1.729530;55.087555;,
 -31.350985;-1.729530;55.087555;,
 -31.350985;-1.729530;55.087555;,
 -28.718311;-1.294288;54.139740;,
 -28.718311;-1.294288;54.139740;,
 -28.718311;-1.294288;54.139740;,
 -29.526674;-1.737488;56.104801;,
 -27.739573;-2.172101;55.233093;,
 -27.739573;-2.172101;55.233093;,
 -27.739573;-2.172101;55.233093;,
 -25.953959;-2.083912;54.683891;,
 -25.953959;-2.083912;54.683891;,
 -25.953959;-2.083912;54.683891;,
 -24.401125;-1.641701;54.680492;,
 -24.401125;-1.641701;54.680492;,
 -22.919125;-1.185573;54.215988;,
 -22.919125;-1.185573;54.215988;,
 -22.432262;-0.805062;51.640179;,
 -22.432262;-0.805062;51.640179;,
 -22.432262;-0.805062;51.640179;,
 -22.432262;-0.805062;51.640179;,
 -21.893452;-1.119840;53.027275;,
 -21.893452;-1.119840;53.027275;,
 -19.799343;-1.609681;51.180607;,
 -19.799343;-1.609681;51.180607;,
 -19.799343;-1.609681;51.180607;,
 -19.799343;-1.609681;51.180607;,
 -17.651241;-2.070858;51.505260;,
 -18.169399;-1.139065;49.047131;,
 -18.169399;-1.139065;49.047131;,
 -18.169399;-1.139065;49.047131;,
 -18.169399;-1.139065;49.047131;,
 -18.169399;-1.139065;49.047131;,
 -17.494759;-2.428608;49.873974;,
 -17.494759;-2.428608;49.873974;,
 -17.494759;-2.428608;49.873974;,
 -15.868854;-2.185983;50.067257;,
 -15.868854;-2.185983;50.067257;,
 -15.868854;-2.185983;50.067257;,
 -15.868854;-2.185983;50.067257;,
 -15.939812;-2.002294;48.128315;,
 -15.939812;-2.002294;48.128315;,
 -15.939812;-2.002294;48.128315;,
 -13.474697;-2.277330;47.388996;,
 -13.474697;-2.277330;47.388996;,
 -13.399390;-1.391236;44.755360;,
 -13.399390;-1.391236;44.755360;,
 -12.581809;-2.608619;45.489231;,
 -12.512603;-1.136870;43.227859;,
 -11.358420;-2.725419;44.131817;,
 -11.358420;-2.725419;44.131817;,
 -11.358420;-2.725419;44.131817;,
 -11.358420;-2.725419;44.131817;,
 -10.768912;-2.573330;42.610798;,
 -10.768912;-2.573330;42.610798;,
 -10.768912;-2.573330;42.610798;,
 -10.768912;-2.573330;42.610798;,
 -10.768912;-2.573330;42.610798;,
 -9.667846;-1.985919;41.431522;,
 -9.667846;-1.985919;41.431522;,
 -9.667846;-1.985919;41.431522;,
 -8.211638;-1.659544;41.721420;,
 -8.449926;-1.508842;40.251652;,
 -8.449926;-1.508842;40.251652;,
 -8.449926;-1.508842;40.251652;,
 -8.449926;-1.508842;40.251652;,
 -8.070288;-1.568040;38.595097;,
 -8.070288;-1.568040;38.595097;,
 -8.070288;-1.568040;38.595097;,
 -8.070288;-1.568040;38.595097;,
 -8.070288;-1.568040;38.595097;,
 -6.084090;-2.104425;37.747906;,
 -6.084090;-2.104425;37.747906;,
 -6.084090;-2.104425;37.747906;,
 -6.084090;-2.104425;37.747906;,
 -5.031004;-2.138321;36.359863;,
 -5.031004;-2.138321;36.359863;,
 -5.031004;-2.138321;36.359863;,
 -6.235777;-1.143015;34.886311;,
 -6.235777;-1.143015;34.886311;,
 -6.235777;-1.143015;34.886311;,
 -6.235777;-1.143015;34.886311;,
 -4.698596;-1.516751;33.964664;,
 -4.698596;-1.516751;33.964664;,
 -4.698596;-1.516751;33.964664;,
 -4.698596;-1.516751;33.964664;,
 -4.698596;-1.516751;33.964664;,
 -4.698596;-1.516751;33.964664;,
 -6.352698;-1.038025;33.189926;,
 -4.605799;-2.379799;31.474400;,
 -4.605799;-2.379799;31.474400;,
 -4.605799;-2.379799;31.474400;,
 -4.605799;-2.379799;31.474400;,
 -4.605799;-2.379799;31.474400;,
 -4.636942;-1.936688;28.734798;,
 -4.636942;-1.936688;28.734798;,
 -4.636942;-1.936688;28.734798;,
 -4.636942;-1.936688;28.734798;,
 -4.636942;-1.936688;28.734798;,
 -4.636942;-1.936688;28.734798;,
 -4.636942;-1.936688;28.734798;,
 -2.483560;-1.868443;28.920872;,
 -2.483560;-1.868443;28.920872;,
 -2.483560;-1.868443;28.920872;,
 -2.483560;-1.868443;28.920872;,
 -2.475290;-1.999992;26.924641;,
 -2.475290;-1.999992;26.924641;,
 -2.475290;-1.999992;26.924641;,
 -2.475290;-1.999992;26.924641;,
 -1.877836;-2.168836;24.246550;,
 -1.877836;-2.168836;24.246550;,
 -1.877836;-2.168836;24.246550;,
 -1.877836;-2.168836;24.246550;,
 -1.877836;-2.168836;24.246550;,
 -1.877836;-2.168836;24.246550;,
 -0.734220;-2.331529;21.201002;,
 -0.734220;-2.331529;21.201002;,
 -0.734220;-2.331529;21.201002;,
 -0.734220;-2.331529;21.201002;,
 -0.734220;-2.331529;21.201002;,
 -0.734220;-2.331529;21.201002;,
 -0.734220;-2.331529;21.201002;,
 -1.782083;-2.423767;19.160685;,
 -1.782083;-2.423767;19.160685;,
 -1.782083;-2.423767;19.160685;,
 -1.782083;-2.423767;19.160685;,
 -2.082563;-1.911608;17.517607;,
 -2.082563;-1.911608;17.517607;,
 -2.082563;-1.911608;17.517607;,
 -2.082563;-1.911608;17.517607;,
 -0.186986;-2.641109;16.974115;,
 -0.186986;-2.641109;16.974115;,
 -0.186986;-2.641109;16.974115;,
 -0.186986;-2.641109;16.974115;,
 -0.186986;-2.641109;16.974115;,
 0.420016;-2.272897;14.710624;,
 0.420016;-2.272897;14.710624;,
 0.420016;-2.272897;14.710624;,
 0.420016;-2.272897;14.710624;,
 0.420016;-2.272897;14.710624;,
 0.420016;-2.272897;14.710624;,
 -1.308125;-2.482981;13.649005;,
 -1.308125;-2.482981;13.649005;,
 -1.308125;-2.482981;13.649005;,
 0.044669;-2.589724;12.326560;,
 0.044669;-2.589724;12.326560;,
 0.044669;-2.589724;12.326560;,
 0.044669;-2.589724;12.326560;,
 0.044669;-2.589724;12.326560;,
 -0.303441;-2.381810;10.557654;,
 -0.303441;-2.381810;10.557654;,
 -0.303441;-2.381810;10.557654;,
 -0.945691;-1.509195;8.700933;,
 -0.945691;-1.509195;8.700933;,
 -0.945691;-1.509195;8.700933;,
 -0.945691;-1.509195;8.700933;,
 -0.945691;-1.509195;8.700933;,
 -0.945691;-1.509195;8.700933;,
 -0.945691;-1.509195;8.700933;,
 -0.093136;-2.401046;6.571136;,
 -0.093136;-2.401046;6.571136;,
 -0.093136;-2.401046;6.571136;,
 -0.093136;-2.401046;6.571136;,
 -0.757332;-1.661168;5.313881;,
 -0.757332;-1.661168;5.313881;,
 -0.757332;-1.661168;5.313881;,
 -0.831677;-1.832990;3.750660;,
 -0.831677;-1.832990;3.750660;,
 -0.831677;-1.832990;3.750660;,
 -0.831677;-1.832990;3.750660;,
 -0.831677;-1.832990;3.750660;,
 -0.514656;-2.060689;2.007378;,
 -0.514656;-2.060689;2.007378;,
 -0.514656;-2.060689;2.007378;,
 -0.514656;-2.060689;2.007378;,
 -0.514656;-2.060689;2.007378;,
 -0.374866;-2.667208;0.000004;,
 -0.374866;-2.667208;0.000004;,
 -47.490643;-2.297087;56.100014;,
 -47.490643;-1.879642;58.578136;,
 -47.490643;-2.297087;56.100014;,
 -47.490639;-0.300212;53.990639;,
 -1.646740;-1.879642;0.000004;,
 0.831383;-2.297087;0.000004;,
 2.012634;-1.509244;0.000004;,
 3.593880;1.273788;0.000000;,
 -5.061092;2.165764;-0.003826;,
 4.943878;2.190999;0.002289;,
 2.940758;-0.300212;0.000000;,
 -0.374866;-2.667208;0.000004;,
 -3.906116;1.458588;0.000004;,
 4.531380;2.181002;-0.003913;,
 -2.831116;-1.173311;0.000004;,
 -4.942871;1.990434;0.353012;,
 5.036301;1.920778;1.462876;,
 -1.919155;-1.072042;1.055809;,
 -4.978192;2.058909;1.979511;,
 2.099461;-1.298255;1.474785;,
 -0.514656;-2.060689;2.007378;,
 -3.189365;0.665183;1.727219;,
 -2.499218;-0.634391;2.840771;,
 -5.013504;2.175880;3.537388;,
 5.000984;2.007164;3.059700;,
 2.917042;-0.647274;3.135357;,
 1.434696;-1.680681;3.722347;,
 -3.493412;0.924229;3.581425;,
 -0.831677;-1.832990;3.750660;,
 -5.065815;2.452955;5.704681;,
 4.961109;2.509720;4.756714;,
 3.519989;0.926672;5.260796;,
 2.853401;-0.901006;5.240917;,
 -0.757332;-1.661168;5.313881;,
 -2.531170;-0.931943;4.899791;,
 0.994125;-2.119955;5.230198;,
 -3.570629;0.927415;5.403309;,
 1.979129;-1.743437;6.641224;,
 -0.093136;-2.401046;6.571136;,
 -1.820645;-1.326688;6.512687;,
 3.706676;1.288239;7.056465;,
 -5.138020;2.586065;8.366146;,
 4.891757;3.017339;7.459908;,
 3.110935;-0.368390;7.387245;,
 2.494514;-1.695336;8.068429;,
 0.673179;-2.426869;7.901878;,
 -3.226380;-0.257421;7.357140;,
 -3.875805;1.081914;8.118526;,
 4.823158;2.436793;9.568819;,
 -0.945691;-1.509195;8.700933;,
 3.676589;1.244555;9.486910;,
 1.381301;-2.186301;9.444928;,
 -5.259133;2.390182;10.630722;,
 2.903812;-0.562147;10.086328;,
 -0.303441;-2.381810;10.557654;,
 -1.666272;-1.066019;10.277661;,
 -3.268193;-0.331812;9.544006;,
 -4.568089;1.506800;9.604141;,
 4.707854;2.191728;11.425758;,
 1.683223;-1.801881;11.323688;,
 0.044669;-2.589724;12.326560;,
 3.043353;0.650893;11.964221;,
 -3.896710;0.755548;11.648920;,
 4.518756;3.078102;13.442608;,
 1.717246;-1.275276;13.271640;,
 -5.427945;2.339456;12.412567;,
 -1.891038;-1.605533;12.396735;,
 -3.106145;-0.427941;12.468951;,
 -1.308125;-2.482981;13.649005;,
 -5.583363;2.635973;13.896791;,
 4.341868;4.031240;15.112045;,
 2.747645;0.434247;14.141936;,
 -4.310200;1.359808;13.880627;,
 3.322158;2.299349;14.510715;,
 1.815238;-1.204256;15.141452;,
 0.420016;-2.272897;14.710624;,
 -3.509072;-0.444529;14.703787;,
 -5.779874;2.663670;15.383443;,
 4.115676;3.606533;16.812864;,
 -1.964902;-1.844994;15.730464;,
 2.790420;1.233701;16.563189;,
 -4.393483;1.328053;15.598339;,
 2.286746;-0.530997;16.958090;,
 1.250834;-2.117402;17.332346;,
 -0.186986;-2.641109;16.974115;,
 -2.082563;-1.911608;17.517607;,
 -3.630109;-0.045906;17.100454;,
 -6.102918;2.629073;17.410194;,
 3.803427;2.390155;18.755835;,
 1.804442;-1.201228;18.408415;,
 -1.782083;-2.423767;19.160685;,
 -3.212125;-1.136847;19.022013;,
 -6.340135;2.483959;19.313032;,
 2.214865;0.878209;19.423613;,
 0.372576;-2.279892;19.456163;,
 -6.438688;2.178168;20.798807;,
 3.548449;1.916355;21.121431;,
 1.987830;0.699593;21.597521;,
 1.459178;-1.049383;20.711126;,
 -4.052045;0.655548;20.040026;,
 -4.837705;2.363018;19.533989;,
 -3.426412;-1.136479;21.182894;,
 -0.734220;-2.331529;21.201002;,
 -5.058752;1.917232;21.747101;,
 3.340464;2.268450;23.764883;,
 1.069807;-0.783451;23.398100;,
 -2.946203;-2.021022;22.708990;,
 -6.649755;2.104295;23.092459;,
 -0.425031;-1.615742;23.831106;,
 -4.538244;0.295248;22.814484;,
 1.537783;0.419270;24.907663;,
 -1.877836;-2.168836;24.246550;,
 -4.097574;-1.382113;24.315790;,
 2.919588;2.386238;26.278908;,
 0.830725;-0.406932;25.918772;,
 -5.320112;0.493655;24.595207;,
 -0.388159;-1.496059;26.078381;,
 1.172941;1.007627;27.171970;,
 0.421320;-0.380372;27.809540;,
 -2.475290;-1.999992;26.924641;,
 -7.259283;2.260880;25.827452;,
 2.306483;2.737440;28.769524;,
 -4.349706;-1.503199;26.482235;,
 0.898108;1.855374;29.607994;,
 -0.719358;-1.480649;28.697254;,
 -2.483560;-1.868443;28.920872;,
 -5.616468;0.227378;26.843948;,
 -7.704988;2.149972;27.598742;,
 0.181314;0.327472;29.939438;,
 -5.494257;-0.518625;28.556702;,
 -8.093550;2.418654;29.290577;,
 1.716482;2.769287;31.219501;,
 -1.394835;-1.433335;30.543854;,
 -3.800680;-2.686602;29.807138;,
 -4.636942;-1.936688;28.734798;,
 -6.462774;1.308811;29.164022;,
 0.214414;1.368699;31.541199;,
 -0.576658;-0.544582;31.531013;,
 -2.776915;-1.870443;30.938717;,
 -6.188513;0.203766;30.317993;,
 1.142496;2.314754;33.344604;,
 -2.305636;-1.367473;32.477776;,
 -4.605799;-2.379799;31.474400;,
 -5.841124;-1.364499;31.348534;,
 -7.182074;2.090927;30.653109;,
 -8.691931;2.891164;31.232012;,
 -1.638926;-0.605950;33.584103;,
 -0.901495;0.754553;34.070011;,
 -6.352698;-1.038025;33.189926;,
 -9.397619;2.616933;32.944656;,
 0.239095;1.813180;35.793999;,
 -6.853483;0.484785;32.544827;,
 -4.698596;-1.516751;33.964664;,
 -7.954611;1.861732;33.123642;,
 -1.684638;1.495698;36.776890;,
 -3.267637;-1.561041;35.245152;,
 -6.235777;-1.143015;34.886311;,
 -0.557333;1.954305;37.694828;,
 -2.606860;-0.166978;36.583244;,
 -5.031004;-2.138321;36.359863;,
 -7.920878;-0.002230;34.770420;,
 -10.080091;1.868295;34.512035;,
 -3.813437;-1.585984;37.518852;,
 -3.246962;-0.161119;38.314255;,
 -9.253860;0.973311;36.052776;,
 -1.524432;2.054352;39.811924;,
 -2.576239;1.511245;38.669842;,
 -6.084090;-2.104425;37.747906;,
 -7.718664;-1.248994;36.229855;,
 -10.932105;1.777410;36.286419;,
 -3.634375;1.226898;40.704594;,
 -4.465972;-1.033840;39.792332;,
 -6.204108;-1.918706;39.693871;,
 -9.477401;0.030321;37.574902;,
 -2.598151;1.978975;41.895760;,
 -8.070288;-1.568040;38.595097;,
 -4.509402;0.649418;41.955223;,
 -11.759818;2.160749;37.791660;,
 -5.397753;-0.890718;41.837189;,
 -6.768378;-1.563877;41.265247;,
 -8.449926;-1.508842;40.251652;,
 -12.654463;2.400172;39.225506;,
 -3.678515;2.488661;43.740082;,
 -5.087607;0.830329;43.510750;,
 -8.211638;-1.659544;41.721420;,
 -10.504324;-0.718270;39.521225;,
 -9.667846;-1.985919;41.431522;,
 -11.552626;0.993861;39.867016;,
 -6.749991;-1.001855;43.101673;,
 -4.856315;2.648381;45.552231;,
 -6.693503;0.427355;44.962101;,
 -7.938437;-0.773489;44.670135;,
 -8.966895;-2.102201;43.401154;,
 -10.768912;-2.573330;42.610798;,
 -11.543387;-1.014998;41.412769;,
 -13.787008;2.634420;40.896809;,
 -7.381408;0.776204;46.756508;,
 -6.201629;2.814018;47.467918;,
 -10.088195;-2.076953;45.105118;,
 -11.358420;-2.725419;44.131817;,
 -12.512603;-1.136870;43.227859;,
 -12.992293;0.495338;42.167458;,
 -8.469867;-0.298976;46.677479;,
 -10.141608;-1.377093;46.424618;,
 -15.138144;2.949470;42.698330;,
 -8.254997;1.448012;48.254890;,
 -7.958412;3.012639;49.644501;,
 -9.698456;-0.467443;47.815300;,
 -11.515052;-2.212818;46.446762;,
 -12.581809;-2.608619;45.489231;,
 -13.399390;-1.391236;44.755360;,
 -13.854491;0.015369;44.044678;,
 -16.216011;2.860989;43.821812;,
 -14.757384;1.319104;43.874001;,
 -9.580794;2.631658;51.285328;,
 -10.586593;0.741371;49.666992;,
 -11.333817;-1.047286;48.507343;,
 -13.474697;-2.277330;47.388996;,
 -14.671363;-0.575544;45.745640;,
 -15.879739;1.577685;45.046581;,
 -12.741050;-1.482546;49.604717;,
 -14.425541;-2.190519;48.949295;,
 -11.231757;2.271961;52.730953;,
 -12.629836;0.150149;51.010902;,
 -16.043522;0.550838;46.555264;,
 -17.684441;2.387763;45.105103;,
 -16.407310;-0.735486;47.502514;,
 -13.797042;1.161088;52.583698;,
 -14.391456;-0.594865;51.957508;,
 -14.041629;-1.594255;50.869663;,
 -15.939812;-2.002294;48.128315;,
 -19.389645;1.818960;46.442730;,
 -15.868854;-2.185983;50.067257;,
 -13.331573;2.619819;54.388062;,
 -15.162860;0.319349;53.025059;,
 -15.580663;-1.458356;52.462704;,
 -17.494759;-2.428608;49.873974;,
 -20.949333;2.015129;47.613281;,
 -15.565863;1.690321;54.371990;,
 -18.169399;-1.139065;49.047131;,
 -18.868557;0.937223;48.151905;,
 -16.535473;0.401119;54.232685;,
 -17.428703;-1.416434;53.213551;,
 -17.651241;-2.070858;51.505260;,
 -15.511152;2.420132;55.969189;,
 -20.135509;0.416456;49.190151;,
 -17.392883;1.989036;57.105137;,
 -18.106119;0.150399;55.111607;,
 -19.799343;-1.609681;51.180607;,
 -22.546642;2.733640;48.533752;,
 -18.726309;1.091871;56.218807;,
 -19.330578;-1.110540;53.324238;,
 -21.036705;-0.321754;50.177952;,
 -19.479103;2.130498;58.038013;,
 -20.184132;1.208394;56.891232;,
 -21.069456;-0.425366;55.160416;,
 -21.893452;-1.119840;53.027275;,
 -22.432262;-0.805062;51.640179;,
 -22.549282;1.191537;49.879440;,
 -21.318653;2.407269;58.718082;,
 -22.919125;-1.185573;54.215988;,
 -24.683079;2.922823;49.321133;,
 -22.178616;1.391046;57.561150;,
 -22.898584;-0.391186;56.403831;,
 -24.421520;0.266267;51.593941;,
 -22.966793;2.612673;59.244972;,
 -24.401125;-1.641701;54.680492;,
 -24.709850;-0.918904;52.762989;,
 -26.785275;2.510978;49.951370;,
 -24.109409;1.579415;58.308624;,
 -24.519650;2.714966;59.698845;,
 -24.920330;-0.085494;57.575291;,
 -25.064074;-1.307549;56.408943;,
 -25.953959;-2.083912;54.683891;,
 -25.509022;1.852015;58.871933;,
 -26.703632;-1.312931;53.570984;,
 -26.803822;-0.240578;52.280647;,
 -26.172047;1.353386;50.859497;,
 -29.132435;2.199791;50.591476;,
 -28.649067;1.141906;51.732086;,
 -26.479130;2.633336;60.233223;,
 -26.906551;0.371293;58.527168;,
 -27.739573;-2.172101;55.233093;,
 -27.392803;-1.474681;57.080368;,
 -29.111935;-0.068989;52.727936;,
 -28.566799;2.495055;60.733658;,
 -29.526674;-1.737488;56.104801;,
 -28.718311;-1.294288;54.139740;,
 -31.953098;2.263137;51.186943;,
 -29.603832;-1.241771;57.782387;,
 -29.191952;0.933629;59.181343;,
 -30.754688;1.309365;52.379845;,
 -30.321209;2.685417;61.056717;,
 -30.566120;-0.283454;58.760025;,
 -31.351871;-1.699481;57.229595;,
 -31.350985;-1.729530;55.087555;,
 -31.961536;-0.500304;53.822708;,
 -32.024395;3.031887;61.301136;,
 -31.886913;1.344653;59.815002;,
 -32.934971;-1.987964;57.812271;,
 -33.385509;-1.352064;54.475948;,
 -33.323978;1.133628;53.083832;,
 -32.792484;-0.890954;59.278915;,
 -34.108624;2.540591;51.486912;,
 -33.547138;-2.063438;56.155136;,
 -34.235081;-0.262266;53.835846;,
 -33.792171;3.042147;61.517784;,
 -34.445393;-0.465554;59.686234;,
 -35.794308;2.636152;51.671715;,
 -33.779850;0.851461;59.995567;,
 -35.233105;-1.303183;54.651382;,
 -35.174641;1.521264;53.174557;,
 -34.921223;-1.760811;58.632435;,
 -35.253506;-2.075396;56.550415;,
 -35.589664;2.980089;61.694733;,
 -35.887112;0.655441;60.296215;,
 -36.134190;-2.393950;57.877151;,
 -36.341419;0.370154;53.772285;,
 -36.849323;-0.885721;54.560982;,
 -38.279728;2.037992;51.940563;,
 -36.935749;-1.438353;59.236176;,
 -37.403866;2.755888;61.896290;,
 -38.280537;1.725919;61.044464;,
 -37.351650;0.205415;60.266815;,
 -38.128338;-2.166639;58.464672;,
 -37.558788;-1.810629;56.545059;,
 -38.723118;-0.722987;59.403568;,
 -38.450550;0.981455;53.854755;,
 -39.334057;2.385460;62.036404;,
 -39.708622;-1.792691;58.122829;,
 -39.693851;-1.794114;56.341976;,
 -40.325657;0.548428;59.988403;,
 -39.416386;-0.264929;54.771008;,
 -40.810955;-0.726572;58.974289;,
 -40.333363;2.628462;52.021267;,
 -42.353794;2.904552;51.926334;,
 -41.322552;-2.128923;57.403782;,
 -41.016506;0.927432;53.889042;,
 -41.397816;2.292518;61.948460;,
 -41.783566;-2.416752;56.007732;,
 -41.738842;-0.976388;55.018673;,
 -42.174519;-1.206060;58.638416;,
 -42.572819;1.801192;52.959454;,
 -43.157169;-2.363154;57.676464;,
 -43.084995;0.136253;54.079639;,
 -44.682117;2.902601;51.972881;,
 -43.297489;2.057353;61.907215;,
 -42.997601;0.664369;59.859196;,
 -43.867016;-1.174454;58.885517;,
 -43.758915;-2.116694;55.602688;,
 -44.902683;1.463109;53.222340;,
 -44.963818;-1.987673;58.302395;,
 -47.492928;2.190999;51.987518;,
 -44.894894;1.883967;62.017216;,
 -45.994099;-2.232537;56.966442;,
 -45.801243;-0.571583;54.375984;,
 -45.448391;-0.313658;59.697330;,
 -46.256298;-1.501346;55.518959;,
 -46.482220;1.727817;53.055523;,
 -3.306118;0.222136;0.000004;,
 -47.486813;2.165764;61.992489;,
 -47.490643;0.222136;60.237514;,
 -47.490643;-1.173311;59.762512;,
 -47.490643;-2.667208;57.306263;,
 -47.490643;-1.509244;54.918762;,
 -47.490643;1.458588;60.837513;,
 -47.490639;1.273788;53.337517;,
 -47.486725;2.181002;52.400017;;

 605;
 4;567,573,565,560;,
 4;560,565,557,550;,
 4;555,17,22,547;,
 4;29,527,514,34;,
 4;524,521,512,513;,
 4;504,505,496,498;,
 4;494,499,491,492;,
 4;499,42,490,491;,
 4;46,498,487,49;,
 4;457,456,449,450;,
 4;441,79,81,433;,
 4;433,80,84,83;,
 4;82,424,89,85;,
 4;424,423,413,88;,
 4;292,296,287,284;,
 4;244,251,242,238;,
 4;250,247,240,241;,
 4;238,242,236,233;,
 4;207,241,234,212;,
 3;376,368,364;,
 3;360,359,345;,
 3;452,455,446;,
 3;310,315,307;,
 3;405,398,403;,
 3;368,359,360;,
 3;518,516,503;,
 3;430,437,429;,
 3;557,552,549;,
 3;465,461,462;,
 3;396,402,392;,
 3;438,437,430;,
 3;403,398,393;,
 3;503,516,506;,
 3;409,94,400;,
 3;400,102,107;,
 3;391,397,385;,
 3;568,561,562;,
 3;491,482,492;,
 3;456,453,449;,
 3;298,304,297;,
 3;384,379,376;,
 3;355,346,351;,
 3;380,372,381;,
 3;397,389,385;,
 3;271,195,261;,
 3;525,33,515;,
 3;398,391,393;,
 3;527,517,514;,
 3;453,459,448;,
 3;356,361,352;,
 3;506,511,499;,
 3;430,429,421;,
 3;358,124,130;,
 3;266,259,260;,
 3;356,352,347;,
 3;318,315,310;,
 3;276,278,273;,
 3;361,362,352;,
 3;39,43,41;,
 3;469,468,465;,
 3;32,38,515;,
 3;393,386,387;,
 3;477,474,469;,
 3;517,513,508;,
 3;566,558,13;,
 3;294,177,180;,
 3;337,145,151;,
 3;369,372,365;,
 3;482,53,59;,
 3;489,485,484;,
 3;31,509,37;,
 3;353,347,339;,
 3;261,194,254;,
 3;256,262,244;,
 3;158,309,162;,
 3;453,448,449;,
 3;353,339,141;,
 3;501,504,498;,
 3;444,435,436;,
 3;501,498,45;,
 3;144,339,331;,
 3;51,52,482;,
 3;436,435,432;,
 3;322,318,310;,
 3;337,150,327;,
 3;30,514,509;,
 3;403,393,394;,
 3;483,492,476;,
 3;353,356,347;,
 3;93,97,400;,
 3;206,211,237;,
 3;291,281,282;,
 3;331,329,323;,
 3;63,64,69;,
 3;40,501,44;,
 3;347,352,339;,
 3;101,387,106;,
 3;482,58,57;,
 3;166,171,294;,
 3;431,430,422;,
 3;394,393,387;,
 3;215,578,6;,
 3;462,456,457;,
 3;466,457,458;,
 3;302,296,292;,
 3;509,504,501;,
 3;484,480,477;,
 3;398,397,391;,
 3;485,480,484;,
 3;473,467,460;,
 3;111,114,383;,
 3;28,531,527;,
 3;558,551,16;,
 3;551,544,21;,
 3;118,123,125;,
 3;26,531,27;,
 3;479,482,56;,
 3;427,434,428;,
 3;558,556,551;,
 3;55,62,467;,
 3;405,404,398;,
 3;475,478,470;,
 3;410,402,396;,
 3;246,245,239;,
 3;351,346,338;,
 3;306,161,165;,
 3;484,477,478;,
 3;149,331,323;,
 3;511,502,499;,
 3;188,274,266;,
 3;474,468,469;,
 3;255,257,245;,
 3;279,286,276;,
 3;412,404,405;,
 3;400,105,388;,
 3;339,333,331;,
 3;282,281,270;,
 3;466,462,457;,
 3;352,343,339;,
 3;210,229,232;,
 3;525,515,520;,
 3;576,568,571;,
 3;492,482,479;,
 3;298,289,176;,
 3;301,164,294;,
 3;129,356,353;,
 3;511,36,502;,
 3;418,417,413;,
 3;580,575,568;,
 3;387,386,110;,
 3;551,548,544;,
 3;302,301,296;,
 3;514,517,509;,
 3;376,375,368;,
 3;333,329,331;,
 3;1,579,5;,
 3;413,417,407;,
 3;471,470,466;,
 3;515,35,511;,
 3;384,388,379;,
 3;113,377,370;,
 3;266,268,259;,
 3;411,412,405;,
 3;237,209,232;,
 3;87,413,407;,
 3;526,516,518;,
 3;249,205,237;,
 3;368,366,359;,
 3;516,511,506;,
 3;365,355,362;,
 3;417,406,407;,
 3;327,321,324;,
 3;348,353,140;,
 3;415,92,409;,
 3;541,538,535;,
 3;513,512,507;,
 3;230,236,227;,
 3;546,537,538;,
 3;386,378,377;,
 3;352,351,343;,
 3;416,415,409;,
 3;438,430,431;,
 3;109,386,377;,
 3;286,288,276;,
 3;535,527,531;,
 3;404,397,398;,
 3;509,517,508;,
 3;255,245,246;,
 3;54,471,61;,
 3;330,324,322;,
 3;452,460,455;,
 3;244,261,251;,
 3;542,533,532;,
 3;546,543,537;,
 3;537,536,538;,
 3;570,12,559;,
 3;503,506,493;,
 3;467,68,460;,
 3;76,444,436;,
 3;122,356,128;,
 3;78,75,436;,
 3;287,282,277;,
 3;330,327,324;,
 3;351,338,343;,
 3;386,391,385;,
 3;362,351,352;,
 3;581,570,565;,
 3;486,484,478;,
 3;291,294,281;,
 3;571,568,562;,
 3;294,179,281;,
 3;392,400,388;,
 3;427,428,419;,
 3;362,355,351;,
 3;419,428,410;,
 3;566,563,558;,
 3;20,544,539;,
 3;467,60,67;,
 3;552,547,542;,
 3;377,378,373;,
 3;143,331,148;,
 3;329,325,320;,
 3;280,287,277;,
 3;520,515,511;,
 3;559,11,555;,
 3;428,426,416;,
 3;486,489,484;,
 3;268,258,259;,
 3;258,255,246;,
 3;428,416,410;,
 3;258,246,247;,
 3;410,416,402;,
 3;246,239,240;,
 3;315,301,302;,
 3;289,286,279;,
 3;324,314,318;,
 3;552,555,547;,
 3;274,276,268;,
 3;381,369,373;,
 3;297,286,289;,
 3;375,366,368;,
 3;247,246,240;,
 3;400,96,100;,
 3;444,438,435;,
 3;524,513,517;,
 3;520,511,516;,
 3;430,420,422;,
 3;185,279,274;,
 3;377,373,370;,
 3;422,420,417;,
 3;379,375,376;,
 3;426,415,416;,
 3;539,535,531;,
 3;527,522,517;,
 3;392,388,384;,
 3;402,400,392;,
 3;460,66,455;,
 3;276,288,278;,
 3;513,507,505;,
 3;469,465,470;,
 3;295,293,288;,
 3;320,313,157;,
 3;296,291,287;,
 3;475,470,471;,
 3;313,304,309;,
 3;563,556,558;,
 3;199,250,202;,
 3;170,298,175;,
 3;323,329,320;,
 3;553,543,546;,
 3;477,469,470;,
 3;544,548,541;,
 3;409,400,402;,
 3;416,409,402;,
 3;428,433,426;,
 3;563,571,562;,
 3;193,198,254;,
 3;95,98,99;,
 3;315,314,301;,
 3;524,529,521;,
 3;375,117,363;,
 3;77,436,432;,
 3;471,466,463;,
 3;91,407,401;,
 3;464,460,452;,
 3;530,529,524;,
 3;147,156,321;,
 3;401,407,399;,
 3;127,353,348;,
 3;333,332,329;,
 3;25,539,531;,
 3;10,558,15;,
 3;192,260,197;,
 3;562,561,553;,
 3;295,303,293;,
 3;464,473,460;,
 3;523,526,518;,
 3;306,163,301;,
 3;233,236,230;,
 3;327,146,321;,
 3;86,407,90;,
 3;388,104,383;,
 3;462,459,456;,
 3;541,546,538;,
 3;534,526,523;,
 3;470,462,466;,
 3;139,339,142;,
 3;415,414,408;,
 3;417,405,406;,
 3;254,201,249;,
 3;563,562,556;,
 3;566,571,563;,
 3;348,138,137;,
 3;378,381,373;,
 3;548,546,541;,
 3;364,368,360;,
 3;440,434,427;,
 3;434,433,428;,
 3;375,363,366;,
 3;478,477,470;,
 3;277,282,271;,
 3;14,551,19;,
 3;324,321,316;,
 3;557,559,552;,
 3;407,406,403;,
 3;187,266,191;,
 3;383,103,108;,
 3;505,500,496;,
 3;390,387,382;,
 3;458,457,450;,
 3;314,306,301;,
 3;383,112,116;,
 3;393,391,386;,
 3;320,319,312;,
 3;309,298,169;,
 3;65,458,72;,
 3;434,439,433;,
 3;332,328,325;,
 3;308,303,295;,
 3;399,403,394;,
 3;0,4,9;,
 3;321,155,316;,
 3;121,370,356;,
 3;272,277,271;,
 3;417,420,411;,
 3;430,421,420;,
 3;386,381,378;,
 3;184,274,186;,
 3;446,455,440;,
 3;578,571,566;,
 3;556,562,548;,
 3;496,500,495;,
 3;312,311,308;,
 3;407,403,399;,
 3;200,250,204;,
 3;330,337,327;,
 3;160,168,300;,
 3;440,439,434;,
 3;411,420,412;,
 3;48,50,482;,
 3;47,487,481;,
 3;420,421,412;,
 3;159,309,167;,
 3;386,385,381;,
 3;208,234,214;,
 3;336,328,332;,
 3;490,488,482;,
 3;463,466,458;,
 3;557,549,550;,
 3;281,269,270;,
 3;498,496,486;,
 3;493,494,492;,
 3;455,454,441;,
 3;454,71,445;,
 3;385,389,380;,
 3;455,441,439;,
 3;322,324,318;,
 3;454,445,441;,
 3;354,358,136;,
 3;382,377,374;,
 4;218,579,572,570;,
 3;536,529,530;,
 3;565,559,557;,
 3;542,547,533;,
 3;174,289,279;,
 3;538,536,530;,
 3;329,332,325;,
 3;276,273,265;,
 3;74,458,444;,
 3;350,354,344;,
 3;493,506,494;,
 3;502,497,490;,
 3;366,358,354;,
 3;326,323,154;,
 3;543,536,537;,
 3;341,337,330;,
 3;370,373,362;,
 3;370,361,356;,
 3;308,311,303;,
 3;449,448,442;,
 3;535,530,527;,
 3;431,422,418;,
 3;385,380,381;,
 3;313,308,304;,
 3;268,276,265;,
 3;350,344,341;,
 3;236,232,227;,
 3;541,535,539;,
 3;354,135,344;,
 3;325,328,319;,
 3;272,271,262;,
 3;216,577,571;,
 3;344,134,337;,
 3;369,365,362;,
 3;308,295,297;,
 3;508,513,505;,
 3;559,555,552;,
 3;476,473,464;,
 3;271,270,190;,
 3;297,295,286;,
 3;381,372,369;,
 3;570,572,8;,
 3;370,362,361;,
 3;325,319,320;,
 3;262,271,261;,
 3;265,273,263;,
 3;490,497,488;,
 3;496,495,489;,
 3;323,320,153;,
 3;309,304,298;,
 3;333,338,332;,
 3;341,344,337;,
 3;438,442,437;,
 3;281,183,269;,
 3;307,315,302;,
 3;324,316,314;,
 3;313,312,308;,
 3;343,338,333;,
 3;3,578,566;,
 3;473,472,467;,
 3;456,459,453;,
 3;442,448,437;,
 3;379,383,375;,
 3;320,312,313;,
 3;565,570,559;,
 3;509,501,510;,
 3;491,490,482;,
 3;312,319,311;,
 3;262,261,244;,
 3;562,546,548;,
 3;395,394,387;,
 3;549,542,534;,
 3;268,265,258;,
 3;251,249,242;,
 3;265,263,257;,
 3;196,260,250;,
 3;489,495,485;,
 3;258,265,255;,
 3;479,472,473;,
 3;562,553,546;,
 3;260,252,250;,
 3;417,411,405;,
 3;251,261,249;,
 3;133,340,334;,
 3;462,461,459;,
 3;530,524,522;,
 3;476,479,473;,
 3;455,439,440;,
 3;295,288,286;,
 3;350,341,342;,
 3;7,554,555;,
 3;232,229,574;,
 3;498,486,487;,
 3;492,479,476;,
 3;265,257,255;,
 3;505,507,500;,
 3;577,576,571;,
 3;549,552,542;,
 3;435,438,431;,
 3;556,548,551;,
 3;287,291,282;,
 3;242,249,237;,
 3;470,465,462;,
 3;465,468,461;,
 3;173,279,182;,
 3;359,366,354;,
 3;522,524,517;,
 3;527,530,522;,
 3;296,301,291;,
 3;189,266,260;,
 3;237,232,236;,
 3;242,237,236;,
 3;267,277,272;,
 3;239,231,228;,
 3;132,334,337;,
 3;240,228,222;,
 3;272,262,256;,
 3;2,566,564;,
 3;24,528,525;,
 3;228,231,224;,
 3;509,508,504;,
 3;443,438,444;,
 3;450,449,443;,
 3;481,487,478;,
 3;481,478,475;,
 3;443,442,438;,
 3;254,253,248;,
 3;526,520,516;,
 3;439,441,433;,
 3;534,542,532;,
 3;230,227,223;,
 3;570,581,218;,
 3;477,480,474;,
 3;423,418,413;,
 3;418,422,417;,
 3;383,115,375;,
 3;493,492,483;,
 3;450,443,444;,
 3;279,276,274;,
 3;282,270,271;,
 3;496,489,486;,
 3;371,374,120;,
 3;526,532,520;,
 3;358,126,131;,
 3;249,248,203;,
 3;544,541,539;,
 3;240,239,228;,
 3;18,539,23;,
 3;532,533,525;,
 3;532,525,520;,
 3;535,538,530;,
 3;338,336,332;,
 3;573,567,582;,
 3;342,341,335;,
 3;525,528,519;,
 3;533,540,525;,
 3;423,431,418;,
 3;304,308,297;,
 3;234,225,221;,
 3;270,269,264;,
 3;373,369,362;,
 3;316,152,305;,
 3;399,394,395;,
 3;363,119,358;,
 3;314,316,306;,
 3;508,505,504;,
 3;335,330,322;,
 3;338,346,336;,
 3;426,425,415;,
 3;458,450,444;,
 3;374,370,367;,
 3;359,354,350;,
 3;178,181,281;,
 3;432,431,423;,
 3;406,405,403;,
 3;345,350,342;,
 3;250,241,243;,
 3;318,314,315;,
 3;284,287,280;,
 3;280,277,267;,
 3;335,341,330;,
 3;359,350,345;,
 3;432,435,431;,
 3;70,458,73;,
 3;267,272,256;,
 3;252,247,250;,
 3;260,259,252;,
 3;298,297,289;,
 3;317,313,309;,
 3;241,240,234;,
 3;283,172,275;,
 3;433,425,426;,
 3;449,442,443;,
 3;357,348,349;,
 3;451,447,445;,
 3;261,254,249;,
 3;534,532,526;,
 3;252,258,247;,
 3;366,363,358;,
 3;388,383,379;,
 3;301,294,291;,
 3;294,299,290;,
 3;274,268,266;,
 3;582,581,573;,
 3;573,581,565;,
 3;316,305,306;,
 3;288,285,278;,
 3;293,285,288;,
 3;547,540,533;,
 3;339,343,333;,
 3;487,486,478;,
 3;506,499,494;,
 3;259,258,252;,
 3;432,423,424;,
 3;547,545,540;,
 3;219,229,235;,
 3;225,234,240;,
 3;220,213,234;,
 3;234,221,220;,
 3;235,226,219;,
 3;240,222,225;,
 3;574,227,232;,
 3;569,579,217;,
 3;571,578,216;,
 3;568,576,580;;

 MeshMaterialList {
  2;
  605;
  0,
  0,
  0,
  1,
  1,
  1,
  0,
  0,
  1,
  1,
  0,
  0,
  1,
  1,
  0,
  0,
  1,
  0,
  1,
  0,
  0,
  0,
  0,
  1,
  0,
  0,
  1,
  0,
  1,
  0,
  1,
  1,
  0,
  0,
  0,
  1,
  1,
  0,
  1,
  1,
  0,
  1,
  1,
  1,
  0,
  0,
  1,
  1,
  1,
  1,
  0,
  1,
  0,
  1,
  1,
  0,
  1,
  1,
  0,
  1,
  0,
  1,
  1,
  1,
  1,
  0,
  0,
  1,
  0,
  1,
  1,
  1,
  0,
  0,
  1,
  1,
  1,
  1,
  1,
  1,
  1,
  0,
  1,
  0,
  0,
  1,
  1,
  0,
  1,
  0,
  0,
  0,
  1,
  0,
  1,
  1,
  1,
  0,
  0,
  1,
  1,
  1,
  1,
  1,
  0,
  1,
  1,
  1,
  1,
  0,
  0,
  1,
  1,
  1,
  1,
  1,
  0,
  0,
  1,
  0,
  1,
  1,
  0,
  1,
  1,
  0,
  1,
  1,
  0,
  1,
  1,
  1,
  1,
  1,
  0,
  1,
  0,
  1,
  1,
  0,
  0,
  1,
  0,
  1,
  0,
  1,
  0,
  1,
  1,
  1,
  1,
  0,
  1,
  0,
  1,
  0,
  1,
  1,
  0,
  0,
  1,
  1,
  1,
  0,
  1,
  0,
  0,
  0,
  0,
  1,
  1,
  0,
  1,
  0,
  1,
  1,
  0,
  1,
  1,
  1,
  0,
  1,
  1,
  1,
  1,
  1,
  1,
  1,
  1,
  0,
  0,
  0,
  0,
  1,
  1,
  0,
  0,
  0,
  1,
  1,
  1,
  0,
  0,
  1,
  1,
  1,
  0,
  1,
  0,
  1,
  0,
  0,
  0,
  1,
  0,
  1,
  1,
  0,
  0,
  1,
  1,
  1,
  0,
  0,
  0,
  0,
  1,
  1,
  1,
  0,
  1,
  0,
  1,
  0,
  1,
  0,
  0,
  1,
  1,
  1,
  0,
  1,
  0,
  1,
  1,
  0,
  1,
  1,
  1,
  1,
  0,
  0,
  1,
  1,
  0,
  0,
  0,
  1,
  1,
  1,
  1,
  1,
  0,
  1,
  1,
  1,
  1,
  1,
  1,
  1,
  1,
  1,
  0,
  0,
  0,
  1,
  0,
  0,
  0,
  1,
  0,
  1,
  1,
  1,
  0,
  1,
  0,
  1,
  1,
  1,
  1,
  1,
  1,
  1,
  1,
  0,
  0,
  0,
  0,
  0,
  1,
  0,
  1,
  1,
  0,
  1,
  1,
  0,
  1,
  0,
  1,
  1,
  1,
  1,
  1,
  0,
  0,
  0,
  0,
  1,
  0,
  1,
  0,
  0,
  1,
  1,
  0,
  1,
  1,
  1,
  0,
  0,
  1,
  1,
  1,
  1,
  0,
  1,
  1,
  1,
  1,
  0,
  1,
  0,
  1,
  1,
  1,
  1,
  0,
  1,
  1,
  1,
  1,
  1,
  1,
  0,
  1,
  0,
  1,
  0,
  1,
  1,
  1,
  1,
  1,
  1,
  0,
  1,
  0,
  0,
  1,
  0,
  0,
  0,
  1,
  0,
  0,
  0,
  0,
  1,
  0,
  1,
  0,
  0,
  1,
  1,
  1,
  1,
  1,
  0,
  0,
  0,
  0,
  1,
  1,
  0,
  1,
  1,
  1,
  1,
  1,
  1,
  1,
  1,
  1,
  0,
  0,
  1,
  0,
  1,
  0,
  1,
  0,
  1,
  1,
  1,
  0,
  0,
  0,
  1,
  1,
  0,
  1,
  1,
  0,
  1,
  0,
  1,
  1,
  1,
  1,
  0,
  1,
  0,
  0,
  0,
  1,
  1,
  1,
  0,
  1,
  1,
  0,
  1,
  0,
  1,
  0,
  1,
  0,
  1,
  1,
  0,
  1,
  0,
  1,
  1,
  1,
  1,
  0,
  1,
  1,
  1,
  0,
  0,
  1,
  1,
  0,
  0,
  1,
  0,
  0,
  0,
  1,
  0,
  1,
  1,
  1,
  0,
  1,
  1,
  0,
  0,
  1,
  1,
  1,
  0,
  1,
  1,
  0,
  1,
  0,
  0,
  0,
  1,
  0,
  1,
  0,
  1,
  0,
  1,
  1,
  1,
  1,
  1,
  1,
  1,
  0,
  0,
  0,
  0,
  0,
  0,
  1,
  1,
  1,
  0,
  0,
  1,
  1,
  0,
  1,
  1,
  0,
  0,
  0,
  1,
  1,
  1,
  0,
  0,
  1,
  1,
  0,
  0,
  0,
  0,
  1,
  1,
  1,
  0,
  1,
  0,
  1,
  0,
  0,
  1,
  0,
  1,
  0,
  1,
  1,
  0,
  0,
  1,
  1,
  0,
  1,
  0,
  0,
  0,
  0,
  0,
  1,
  1,
  0,
  1,
  1,
  1,
  1,
  1,
  1,
  0,
  1,
  1,
  0,
  0,
  0,
  1,
  0,
  0,
  0,
  0,
  1,
  0,
  0,
  0,
  1,
  1,
  0,
  1,
  1,
  0,
  1,
  1,
  0,
  0,
  1,
  1,
  1,
  0,
  1,
  0,
  0,
  1,
  1;
Material {
 1.000000;1.000000;1.000000;1.000000;;
 50.000000;
 1.000000;1.000000;1.000000;;
 0.0; 0.0; 0.0;;
 TextureFilename {
  "rock.ppm";
 }
 }
Material {
 1.000000;1.000000;1.000000;1.000000;;
 50.000000;
 1.000000;1.000000;1.000000;;
 0.0; 0.0; 0.0;;
 TextureFilename {
  "rock.ppm";
 }
 }
}
 MeshNormals {
  583;
  -0.010355;0.817941;0.575210;,
  -0.010355;0.817941;0.575210;,
  -0.166644;0.944076;0.284519;,
  -0.166644;0.944076;0.284519;,
  -0.166644;0.944076;0.284519;,
  -0.166644;0.944076;0.284519;,
  -0.166644;0.944076;0.284519;,
  0.051956;0.869165;0.491786;,
  0.051956;0.869165;0.491786;,
  0.051956;0.869165;0.491786;,
  0.051956;0.869165;0.491786;,
  0.051956;0.869165;0.491786;,
  0.051956;0.869165;0.491786;,
  0.051956;0.869165;0.491786;,
  -0.130731;0.941477;0.310693;,
  -0.130731;0.941477;0.310693;,
  -0.130731;0.941477;0.310693;,
  -0.130731;0.941477;0.310693;,
  -0.094878;0.957920;0.270900;,
  -0.094878;0.957920;0.270900;,
  -0.094878;0.957920;0.270900;,
  -0.094878;0.957920;0.270900;,
  -0.094878;0.957920;0.270900;,
  0.110911;0.910547;0.398250;,
  0.110911;0.910547;0.398250;,
  0.110911;0.910547;0.398250;,
  0.110911;0.910547;0.398250;,
  -0.023577;0.982774;0.183301;,
  -0.023577;0.982774;0.183301;,
  -0.023577;0.982774;0.183301;,
  -0.019440;0.983092;0.182078;,
  -0.019440;0.983092;0.182078;,
  -0.019440;0.983092;0.182078;,
  -0.019440;0.983092;0.182078;,
  -0.019440;0.983092;0.182078;,
  -0.028220;0.939890;0.340308;,
  -0.028220;0.939890;0.340308;,
  -0.028220;0.939890;0.340308;,
  -0.028220;0.939890;0.340308;,
  -0.028220;0.939890;0.340308;,
  0.147616;0.847709;0.509509;,
  0.147616;0.847709;0.509509;,
  0.147616;0.847709;0.509509;,
  0.034971;0.996732;-0.072820;,
  0.121492;0.980329;0.155547;,
  0.121492;0.980329;0.155547;,
  0.121492;0.980329;0.155547;,
  -0.110650;0.977199;0.181215;,
  -0.110650;0.977199;0.181215;,
  -0.110650;0.977199;0.181215;,
  -0.302139;0.952674;-0.033529;,
  -0.302139;0.952674;-0.033529;,
  -0.203386;0.976116;-0.076371;,
  -0.203386;0.976116;-0.076371;,
  0.316872;0.797586;0.513272;,
  0.316872;0.797586;0.513272;,
  0.316872;0.797586;0.513272;,
  0.316872;0.797586;0.513272;,
  0.032613;0.997718;-0.059119;,
  0.032613;0.997718;-0.059119;,
  0.261447;0.949658;0.172613;,
  0.261447;0.949658;0.172613;,
  0.261447;0.949658;0.172613;,
  0.261447;0.949658;0.172613;,
  0.114632;0.973390;-0.198424;,
  0.510531;0.637036;0.577532;,
  0.510531;0.637036;0.577532;,
  0.510531;0.637036;0.577532;,
  0.510531;0.637036;0.577532;,
  0.510531;0.637036;0.577532;,
  0.337953;0.930860;0.138877;,
  0.337953;0.930860;0.138877;,
  0.337953;0.930860;0.138877;,
  -0.116898;0.986026;-0.118692;,
  -0.116898;0.986026;-0.118692;,
  -0.116898;0.986026;-0.118692;,
  -0.116898;0.986026;-0.118692;,
  0.256732;0.885232;0.387883;,
  0.256732;0.885232;0.387883;,
  0.256732;0.885232;0.387883;,
  0.013668;0.999164;-0.038534;,
  0.013668;0.999164;-0.038534;,
  0.682956;0.588078;0.433284;,
  0.682956;0.588078;0.433284;,
  0.264212;0.961698;0.072994;,
  0.687921;0.583432;0.431708;,
  0.106140;0.991127;0.080014;,
  0.106140;0.991127;0.080014;,
  0.106140;0.991127;0.080014;,
  0.106140;0.991127;0.080014;,
  0.281520;0.892931;0.351312;,
  0.281520;0.892931;0.351312;,
  0.281520;0.892931;0.351312;,
  0.281520;0.892931;0.351312;,
  0.281520;0.892931;0.351312;,
  -0.114412;0.945541;0.304734;,
  -0.114412;0.945541;0.304734;,
  -0.114412;0.945541;0.304734;,
  -0.227571;0.973346;0.028442;,
  0.093156;0.989726;0.108466;,
  0.093156;0.989726;0.108466;,
  0.093156;0.989726;0.108466;,
  0.093156;0.989726;0.108466;,
  0.381419;0.912284;0.149190;,
  0.381419;0.912284;0.149190;,
  0.381419;0.912284;0.149190;,
  0.381419;0.912284;0.149190;,
  0.381419;0.912284;0.149190;,
  -0.012784;0.998384;-0.055369;,
  -0.012784;0.998384;-0.055369;,
  -0.012784;0.998384;-0.055369;,
  -0.012784;0.998384;-0.055369;,
  0.034794;0.988979;0.143910;,
  0.034794;0.988979;0.143910;,
  0.034794;0.988979;0.143910;,
  0.396300;0.880850;0.258941;,
  0.396300;0.880850;0.258941;,
  0.396300;0.880850;0.258941;,
  0.396300;0.880850;0.258941;,
  0.174153;0.984708;-0.004476;,
  0.174153;0.984708;-0.004476;,
  0.174153;0.984708;-0.004476;,
  0.174153;0.984708;-0.004476;,
  0.174153;0.984708;-0.004476;,
  0.174153;0.984708;-0.004476;,
  0.612366;0.778769;0.136114;,
  0.174454;0.971066;-0.163086;,
  0.174454;0.971066;-0.163086;,
  0.174454;0.971066;-0.163086;,
  0.174454;0.971066;-0.163086;,
  0.174454;0.971066;-0.163086;,
  0.537595;0.811349;0.229576;,
  0.537595;0.811349;0.229576;,
  0.537595;0.811349;0.229576;,
  0.537595;0.811349;0.229576;,
  0.537595;0.811349;0.229576;,
  0.537595;0.811349;0.229576;,
  0.537595;0.811349;0.229576;,
  -0.235841;0.968627;0.078359;,
  -0.235841;0.968627;0.078359;,
  -0.235841;0.968627;0.078359;,
  -0.235841;0.968627;0.078359;,
  -0.054184;0.998427;-0.014430;,
  -0.054184;0.998427;-0.014430;,
  -0.054184;0.998427;-0.014430;,
  -0.054184;0.998427;-0.014430;,
  0.002150;0.998045;-0.062468;,
  0.002150;0.998045;-0.062468;,
  0.002150;0.998045;-0.062468;,
  0.002150;0.998045;-0.062468;,
  0.002150;0.998045;-0.062468;,
  0.002150;0.998045;-0.062468;,
  -0.156245;0.982677;-0.099670;,
  -0.156245;0.982677;-0.099670;,
  -0.156245;0.982677;-0.099670;,
  -0.156245;0.982677;-0.099670;,
  -0.156245;0.982677;-0.099670;,
  -0.156245;0.982677;-0.099670;,
  -0.156245;0.982677;-0.099670;,
  0.356769;0.934192;-0.001081;,
  0.356769;0.934192;-0.001081;,
  0.356769;0.934192;-0.001081;,
  0.356769;0.934192;-0.001081;,
  0.597992;0.790015;0.135215;,
  0.597992;0.790015;0.135215;,
  0.597992;0.790015;0.135215;,
  0.597992;0.790015;0.135215;,
  0.054890;0.996592;0.061571;,
  0.054890;0.996592;0.061571;,
  0.054890;0.996592;0.061571;,
  0.054890;0.996592;0.061571;,
  0.054890;0.996592;0.061571;,
  -0.299373;0.954127;0.004146;,
  -0.299373;0.954127;0.004146;,
  -0.299373;0.954127;0.004146;,
  -0.299373;0.954127;0.004146;,
  -0.299373;0.954127;0.004146;,
  -0.299373;0.954127;0.004146;,
  0.341559;0.939813;0.009461;,
  0.341559;0.939813;0.009461;,
  0.341559;0.939813;0.009461;,
  -0.120800;0.991810;0.041478;,
  -0.120800;0.991810;0.041478;,
  -0.120800;0.991810;0.041478;,
  -0.120800;0.991810;0.041478;,
  -0.120800;0.991810;0.041478;,
  0.254267;0.956550;0.142688;,
  0.254267;0.956550;0.142688;,
  0.254267;0.956550;0.142688;,
  0.458215;0.887818;-0.042640;,
  0.458215;0.887818;-0.042640;,
  0.458215;0.887818;-0.042640;,
  0.458215;0.887818;-0.042640;,
  0.458215;0.887818;-0.042640;,
  0.458215;0.887818;-0.042640;,
  0.458215;0.887818;-0.042640;,
  0.329378;0.941226;0.074866;,
  0.329378;0.941226;0.074866;,
  0.329378;0.941226;0.074866;,
  0.329378;0.941226;0.074866;,
  0.364157;0.926975;0.090045;,
  0.364157;0.926975;0.090045;,
  0.364157;0.926975;0.090045;,
  0.267203;0.963287;0.026104;,
  0.267203;0.963287;0.026104;,
  0.267203;0.963287;0.026104;,
  0.267203;0.963287;0.026104;,
  0.267203;0.963287;0.026104;,
  0.381398;0.897765;-0.220348;,
  0.381398;0.897765;-0.220348;,
  0.381398;0.897765;-0.220348;,
  0.381398;0.897765;-0.220348;,
  0.381398;0.897765;-0.220348;,
  -0.029325;0.947849;-0.317366;,
  -0.029325;0.947849;-0.317366;,
  -0.274714;0.869875;0.409695;,
  -0.347538;0.801284;-0.486992;,
  -0.274714;0.869875;0.409695;,
  -0.161468;0.552398;0.817792;,
  0.507655;0.835334;-0.210960;,
  -0.421389;0.876828;-0.231525;,
  -0.681978;0.728560;-0.064079;,
  -0.817869;0.552194;0.161778;,
  0.506436;0.828421;0.239252;,
  -0.026573;0.982664;0.183482;,
  -0.819221;0.573023;0.022834;,
  -0.029325;0.947849;-0.317366;,
  0.693935;0.718483;-0.047291;,
  -0.268409;0.947534;0.173596;,
  0.676590;0.516131;-0.525200;,
  0.543130;0.828690;0.135210;,
  0.266658;0.960579;0.078624;,
  0.786179;0.531567;-0.315214;,
  0.618047;0.785832;-0.022046;,
  -0.508777;0.853482;-0.112755;,
  0.381398;0.897765;-0.220348;,
  0.716599;0.695775;0.048822;,
  0.722176;0.688232;0.069271;,
  0.649954;0.759494;-0.026984;,
  -0.551533;0.828695;-0.095267;,
  -0.763946;0.643414;0.049043;,
  -0.356107;0.931087;0.079146;,
  0.789767;0.612772;0.027912;,
  0.267203;0.963287;0.026104;,
  0.766376;0.642033;0.021493;,
  -0.770718;0.623859;-0.129589;,
  -0.865864;0.495315;-0.070308;,
  -0.777479;0.627386;0.043733;,
  0.364157;0.926975;0.090045;,
  0.673267;0.738341;0.039553;,
  -0.185112;0.972464;0.141586;,
  0.800455;0.590854;0.100809;,
  -0.601182;0.791846;0.107522;,
  0.329378;0.941226;0.074866;,
  0.511946;0.858932;-0.012126;,
  -0.862696;0.504648;-0.032957;,
  0.792244;0.603847;0.087848;,
  -0.789237;0.613985;0.011298;,
  -0.901403;0.432295;0.024355;,
  -0.667990;0.743874;0.020974;,
  -0.100454;0.994078;-0.041454;,
  0.735892;0.676886;0.016991;,
  0.830458;0.554293;0.055669;,
  -0.720386;0.685576;0.105026;,
  0.458215;0.887818;-0.042640;,
  -0.838116;0.545491;0.001300;,
  -0.276260;0.958833;-0.065728;,
  0.784517;0.617839;0.052992;,
  -0.842846;0.520206;-0.137828;,
  0.254267;0.956550;0.142688;,
  0.582612;0.804689;0.114192;,
  0.698007;0.715723;0.022957;,
  0.803516;0.589542;0.082478;,
  -0.710243;0.696873;-0.099619;,
  -0.613263;0.782183;-0.109990;,
  -0.120800;0.991810;0.041478;,
  -0.824194;0.538167;-0.176297;,
  0.786748;0.617143;-0.012719;,
  -0.708188;0.608805;-0.357528;,
  -0.735067;0.674951;-0.064171;,
  0.717293;0.696645;-0.013315;,
  0.631389;0.757176;0.167429;,
  0.743240;0.663052;0.089193;,
  0.341559;0.939813;0.009461;,
  0.702926;0.711259;-0.002598;,
  -0.812867;0.547552;-0.198580;,
  -0.911453;0.409214;-0.042389;,
  0.796756;0.603779;0.025118;,
  -0.864858;0.479212;-0.149585;,
  -0.771748;0.634208;0.046746;,
  -0.299373;0.954127;0.004146;,
  0.799175;0.598968;0.050562;,
  0.688313;0.719656;0.091218;,
  -0.870805;0.487475;0.063767;,
  0.542028;0.840141;0.019218;,
  -0.906144;0.421730;-0.032365;,
  0.792302;0.603984;0.086382;,
  -0.913350;0.401540;-0.067505;,
  -0.639711;0.768422;-0.017257;,
  0.054890;0.996592;0.061571;,
  0.597992;0.790015;0.135215;,
  0.806723;0.590675;0.017330;,
  0.578963;0.814847;0.028756;,
  -0.757950;0.649547;0.060004;,
  -0.841814;0.516884;-0.155501;,
  0.356769;0.934192;-0.001081;,
  0.794061;0.598711;0.104942;,
  0.058244;0.987772;0.144618;,
  -0.862843;0.498579;-0.083191;,
  -0.406240;0.900049;-0.157736;,
  0.083667;0.984934;0.151341;,
  -0.643643;0.764916;-0.025030;,
  -0.809803;0.583058;-0.065296;,
  -0.794291;0.580562;-0.179025;,
  0.897525;0.422681;0.125660;,
  0.502053;0.861801;0.072402;,
  0.720198;0.686447;0.100527;,
  -0.156245;0.982677;-0.099670;,
  0.571299;0.772275;0.277866;,
  -0.748083;0.652844;-0.119024;,
  -0.720796;0.677519;-0.146361;,
  0.529610;0.836279;0.141949;,
  0.553589;0.792668;0.255374;,
  -0.498174;0.858230;-0.123546;,
  0.788757;0.545396;0.283558;,
  -0.785977;0.577939;-0.219605;,
  0.002150;0.998045;-0.062468;,
  0.664276;0.730567;0.158143;,
  -0.705145;0.668809;-0.235511;,
  -0.762151;0.625888;-0.165499;,
  0.765058;0.616710;0.185349;,
  -0.507977;0.857376;-0.082863;,
  -0.788589;0.555788;-0.263109;,
  -0.824036;0.529607;-0.201197;,
  -0.054184;0.998427;-0.014430;,
  0.711619;0.681502;0.170746;,
  -0.634932;0.732590;-0.245303;,
  0.623345;0.767256;0.150861;,
  -0.790805;0.575516;-0.208345;,
  -0.520876;0.843185;-0.133143;,
  -0.235841;0.968627;0.078359;,
  0.776737;0.616476;0.128984;,
  0.647044;0.761638;0.035236;,
  -0.869571;0.443687;-0.216768;,
  0.855566;0.491230;0.163402;,
  0.519062;0.850604;-0.083946;,
  -0.655507;0.750831;-0.081017;,
  -0.451529;0.866133;-0.214325;,
  -0.124092;0.987409;0.098104;,
  0.537595;0.811349;0.229576;,
  0.769056;0.637981;0.039164;,
  -0.803400;0.573841;-0.158916;,
  -0.740460;0.618731;-0.262472;,
  -0.358004;0.918841;-0.166027;,
  0.881122;0.424347;0.208695;,
  -0.643785;0.762716;-0.061685;,
  -0.384569;0.901632;-0.197904;,
  0.174454;0.971066;-0.163086;,
  0.760931;0.641906;0.094555;,
  0.716961;0.686164;0.123072;,
  0.466958;0.870092;0.157769;,
  -0.668155;0.679948;-0.302058;,
  -0.707321;0.646454;-0.285997;,
  0.612366;0.778769;0.136114;,
  0.380121;0.825294;0.417610;,
  -0.403630;0.893488;-0.196882;,
  0.848349;0.428129;0.311462;,
  0.174153;0.984708;-0.004476;,
  0.573114;0.694516;0.434957;,
  -0.518028;0.802573;-0.295844;,
  -0.534517;0.835551;-0.127067;,
  0.396300;0.880850;0.258941;,
  -0.271277;0.948575;-0.163138;,
  -0.804067;0.510180;-0.305275;,
  0.034794;0.988979;0.143910;,
  0.655332;0.646026;0.391394;,
  0.486195;0.776662;0.400513;,
  -0.576314;0.777698;-0.251094;,
  -0.818064;0.457347;-0.348719;,
  0.616514;0.707775;0.344913;,
  -0.371209;0.916763;-0.147478;,
  -0.651138;0.702295;-0.287751;,
  -0.012784;0.998384;-0.055369;,
  0.519606;0.783056;0.341807;,
  0.527407;0.782789;0.330278;,
  -0.606951;0.740927;-0.287468;,
  -0.675612;0.656158;-0.336163;,
  -0.111969;0.980335;-0.162499;,
  0.604479;0.683075;0.409895;,
  -0.326166;0.901237;-0.285284;,
  0.381419;0.912284;0.149190;,
  -0.774686;0.532177;-0.341540;,
  0.715357;0.624250;0.313969;,
  -0.558190;0.742396;-0.370504;,
  -0.141993;0.970789;-0.193407;,
  0.093156;0.989726;0.108466;,
  0.664544;0.670832;0.329189;,
  -0.599277;0.708899;-0.371928;,
  -0.653059;0.610581;-0.448001;,
  -0.227571;0.973346;0.028442;,
  0.523464;0.732787;0.434752;,
  -0.114412;0.945541;0.304734;,
  0.736109;0.539931;0.408190;,
  -0.453075;0.811008;-0.370120;,
  -0.616863;0.622940;-0.481067;,
  -0.620406;0.650530;-0.438071;,
  -0.543583;0.734666;-0.405935;,
  -0.400929;0.906931;-0.129349;,
  0.281520;0.892931;0.351312;,
  0.714406;0.522251;0.465702;,
  0.686895;0.568822;0.452346;,
  -0.632586;0.599887;-0.489868;,
  -0.635989;0.585665;-0.502508;,
  -0.400484;0.852744;-0.335322;,
  0.106140;0.991127;0.080014;,
  0.687921;0.583432;0.431708;,
  0.709126;0.513308;0.483379;,
  -0.553119;0.718107;-0.422352;,
  -0.461510;0.789314;-0.404960;,
  0.656415;0.536067;0.530802;,
  -0.570303;0.581542;-0.580141;,
  -0.578311;0.631588;-0.516384;,
  -0.514270;0.680051;-0.522549;,
  -0.323023;0.876991;-0.355727;,
  0.264212;0.961698;0.072994;,
  0.682956;0.588078;0.433284;,
  0.705646;0.513118;0.488645;,
  0.519697;0.632235;0.574625;,
  0.670299;0.549815;0.498400;,
  -0.574401;0.686861;-0.445293;,
  -0.543052;0.642568;-0.540556;,
  -0.475479;0.744049;-0.469372;,
  0.013668;0.999164;-0.038534;,
  0.655712;0.552292;0.514797;,
  0.549703;0.641783;0.534734;,
  -0.468862;0.799250;-0.375990;,
  -0.124335;0.984289;-0.125364;,
  -0.415914;0.732027;-0.539585;,
  -0.534023;0.587322;-0.608171;,
  0.539939;0.578139;0.611736;,
  0.288078;0.787144;0.545358;,
  0.514155;0.492150;0.702448;,
  -0.454906;0.629490;-0.629923;,
  -0.566449;0.446499;-0.692657;,
  -0.399709;0.805007;-0.438403;,
  0.256732;0.885232;0.387883;,
  0.209833;0.893520;0.396979;,
  -0.116898;0.986026;-0.118692;,
  -0.379630;0.758513;-0.529660;,
  -0.495210;0.531764;-0.687018;,
  -0.414642;0.696936;-0.585109;,
  0.337953;0.930860;0.138877;,
  0.389530;0.788025;0.476742;,
  -0.507625;0.678703;-0.530734;,
  0.510531;0.637036;0.577532;,
  0.366892;0.691540;0.622223;,
  -0.544488;0.592225;-0.593972;,
  -0.171088;0.794049;-0.583280;,
  0.114632;0.973390;-0.198424;,
  -0.515478;0.738928;-0.433898;,
  0.412233;0.601336;0.684441;,
  -0.243007;0.776675;-0.581140;,
  -0.242636;0.751751;-0.613187;,
  0.261447;0.949658;0.172613;,
  0.431285;0.654769;0.620702;,
  -0.160820;0.773930;-0.612510;,
  0.057815;0.919339;-0.389196;,
  0.412729;0.637595;0.650482;,
  -0.156742;0.814094;-0.559180;,
  -0.155296;0.787568;-0.596338;,
  -0.204730;0.837544;-0.506563;,
  0.032613;0.997718;-0.059119;,
  0.316872;0.797586;0.513272;,
  0.371579;0.606309;0.703077;,
  -0.107903;0.792561;-0.600170;,
  -0.203386;0.976116;-0.076371;,
  0.210905;0.643028;0.736230;,
  -0.205762;0.723139;-0.659342;,
  -0.337943;0.750676;-0.567697;,
  0.238741;0.649586;0.721831;,
  -0.136641;0.762842;-0.631982;,
  -0.302139;0.952674;-0.033529;,
  0.038697;0.856256;0.515100;,
  0.109172;0.648696;0.753176;,
  -0.215391;0.651642;-0.727303;,
  -0.149729;0.762077;-0.629937;,
  -0.276619;0.583536;-0.763523;,
  -0.272293;0.840283;-0.468808;,
  -0.110650;0.977199;0.181215;,
  -0.265744;0.629682;-0.729986;,
  0.122316;0.813698;0.568273;,
  0.134006;0.700507;0.700951;,
  0.119954;0.664284;0.737792;,
  0.164607;0.755454;0.634187;,
  0.227358;0.668314;0.708283;,
  -0.295600;0.671432;-0.679558;,
  -0.226981;0.609745;-0.759401;,
  0.121492;0.980329;0.155547;,
  -0.119089;0.822853;-0.555635;,
  0.211493;0.640081;0.738625;,
  -0.100512;0.682904;-0.723560;,
  0.034971;0.996732;-0.072820;,
  0.147616;0.847709;0.509509;,
  0.137670;0.813601;0.564889;,
  -0.105986;0.794787;-0.597561;,
  -0.110273;0.630283;-0.768495;,
  0.203228;0.679178;0.705277;,
  -0.026558;0.697231;-0.716355;,
  -0.205637;0.587935;-0.782334;,
  -0.169813;0.934761;-0.312066;,
  -0.028220;0.939890;0.340308;,
  0.102047;0.612681;0.783715;,
  -0.068846;0.634619;-0.769752;,
  -0.135482;0.521734;-0.842282;,
  -0.168164;0.932519;-0.319577;,
  0.037709;0.752538;0.657468;,
  0.144703;0.645586;0.749853;,
  -0.220520;0.584643;-0.780746;,
  0.161680;0.794496;0.585351;,
  -0.019440;0.983092;0.182078;,
  0.093227;0.479066;0.872814;,
  -0.132204;0.584496;-0.800554;,
  -0.054793;0.469687;-0.881131;,
  -0.005332;0.802065;0.597213;,
  -0.154349;0.436234;-0.886497;,
  0.112304;0.778182;0.617917;,
  0.033777;0.652800;0.756777;,
  -0.103692;0.808305;-0.579560;,
  -0.023577;0.982774;0.183301;,
  -0.141986;0.538725;-0.830431;,
  -0.117159;0.503450;-0.856044;,
  -0.063001;0.984190;-0.165533;,
  0.091515;0.573867;0.813819;,
  0.182407;0.656633;0.731820;,
  0.051013;0.789926;0.611076;,
  -0.024381;0.637667;-0.769926;,
  -0.079224;0.585387;-0.806874;,
  0.004112;0.647663;-0.761916;,
  0.053657;0.536446;-0.842227;,
  0.146769;0.932516;-0.329959;,
  0.110911;0.910547;0.398250;,
  0.176004;0.597776;-0.782104;,
  0.149632;0.681455;0.716401;,
  -0.102464;0.744881;-0.659283;,
  0.138417;0.873533;-0.466669;,
  -0.094878;0.957920;0.270900;,
  0.065389;0.655177;-0.752640;,
  0.014589;0.655136;0.755370;,
  0.072659;0.657424;-0.750010;,
  0.081235;0.756297;0.649166;,
  0.029300;0.672352;0.739652;,
  -0.135033;0.905857;-0.401483;,
  -0.058828;0.626090;0.777529;,
  -0.009972;0.777847;-0.628374;,
  -0.130731;0.941477;0.310693;,
  -0.117690;0.574646;0.809896;,
  -0.100276;0.650199;-0.753118;,
  -0.013509;0.648015;0.761508;,
  -0.034796;0.918785;-0.393221;,
  -0.075950;0.556741;0.827207;,
  -0.049393;0.712371;0.700062;,
  -0.108120;0.814584;-0.569880;,
  -0.075464;0.676654;-0.732423;,
  -0.105854;0.605101;-0.789081;,
  0.051956;0.869165;0.491786;,
  -0.020355;0.588659;0.808125;,
  -0.039207;0.906784;-0.419767;,
  0.166485;0.915422;0.366449;,
  0.009834;0.734120;-0.678949;,
  -0.166644;0.944076;0.284519;,
  -0.042828;0.574720;0.817229;,
  -0.154094;0.671368;-0.724928;,
  -0.010355;0.817941;0.575210;,
  0.047634;0.796029;0.603382;,
  0.741091;0.307165;-0.597020;,
  0.097227;0.848651;-0.519940;,
  0.057033;0.506358;-0.860435;,
  -0.275559;0.597542;-0.753001;,
  -0.198000;0.945219;-0.259534;,
  -0.248878;0.785782;0.566221;,
  0.218174;0.660661;-0.718280;,
  -0.069405;0.535495;0.841681;,
  0.152707;0.906807;0.392914;;

  605;
  4;567,573,565,560;,
  4;560,565,557,550;,
  4;555,17,22,547;,
  4;29,527,514,34;,
  4;524,521,512,513;,
  4;504,505,496,498;,
  4;494,499,491,492;,
  4;499,42,490,491;,
  4;46,498,487,49;,
  4;457,456,449,450;,
  4;441,79,81,433;,
  4;433,80,84,83;,
  4;82,424,89,85;,
  4;424,423,413,88;,
  4;292,296,287,284;,
  4;244,251,242,238;,
  4;250,247,240,241;,
  4;238,242,236,233;,
  4;207,241,234,212;,
  3;376,368,364;,
  3;360,359,345;,
  3;452,455,446;,
  3;310,315,307;,
  3;405,398,403;,
  3;368,359,360;,
  3;518,516,503;,
  3;430,437,429;,
  3;557,552,549;,
  3;465,461,462;,
  3;396,402,392;,
  3;438,437,430;,
  3;403,398,393;,
  3;503,516,506;,
  3;409,94,400;,
  3;400,102,107;,
  3;391,397,385;,
  3;568,561,562;,
  3;491,482,492;,
  3;456,453,449;,
  3;298,304,297;,
  3;384,379,376;,
  3;355,346,351;,
  3;380,372,381;,
  3;397,389,385;,
  3;271,195,261;,
  3;525,33,515;,
  3;398,391,393;,
  3;527,517,514;,
  3;453,459,448;,
  3;356,361,352;,
  3;506,511,499;,
  3;430,429,421;,
  3;358,124,130;,
  3;266,259,260;,
  3;356,352,347;,
  3;318,315,310;,
  3;276,278,273;,
  3;361,362,352;,
  3;39,43,41;,
  3;469,468,465;,
  3;32,38,515;,
  3;393,386,387;,
  3;477,474,469;,
  3;517,513,508;,
  3;566,558,13;,
  3;294,177,180;,
  3;337,145,151;,
  3;369,372,365;,
  3;482,53,59;,
  3;489,485,484;,
  3;31,509,37;,
  3;353,347,339;,
  3;261,194,254;,
  3;256,262,244;,
  3;158,309,162;,
  3;453,448,449;,
  3;353,339,141;,
  3;501,504,498;,
  3;444,435,436;,
  3;501,498,45;,
  3;144,339,331;,
  3;51,52,482;,
  3;436,435,432;,
  3;322,318,310;,
  3;337,150,327;,
  3;30,514,509;,
  3;403,393,394;,
  3;483,492,476;,
  3;353,356,347;,
  3;93,97,400;,
  3;206,211,237;,
  3;291,281,282;,
  3;331,329,323;,
  3;63,64,69;,
  3;40,501,44;,
  3;347,352,339;,
  3;101,387,106;,
  3;482,58,57;,
  3;166,171,294;,
  3;431,430,422;,
  3;394,393,387;,
  3;215,578,6;,
  3;462,456,457;,
  3;466,457,458;,
  3;302,296,292;,
  3;509,504,501;,
  3;484,480,477;,
  3;398,397,391;,
  3;485,480,484;,
  3;473,467,460;,
  3;111,114,383;,
  3;28,531,527;,
  3;558,551,16;,
  3;551,544,21;,
  3;118,123,125;,
  3;26,531,27;,
  3;479,482,56;,
  3;427,434,428;,
  3;558,556,551;,
  3;55,62,467;,
  3;405,404,398;,
  3;475,478,470;,
  3;410,402,396;,
  3;246,245,239;,
  3;351,346,338;,
  3;306,161,165;,
  3;484,477,478;,
  3;149,331,323;,
  3;511,502,499;,
  3;188,274,266;,
  3;474,468,469;,
  3;255,257,245;,
  3;279,286,276;,
  3;412,404,405;,
  3;400,105,388;,
  3;339,333,331;,
  3;282,281,270;,
  3;466,462,457;,
  3;352,343,339;,
  3;210,229,232;,
  3;525,515,520;,
  3;576,568,571;,
  3;492,482,479;,
  3;298,289,176;,
  3;301,164,294;,
  3;129,356,353;,
  3;511,36,502;,
  3;418,417,413;,
  3;580,575,568;,
  3;387,386,110;,
  3;551,548,544;,
  3;302,301,296;,
  3;514,517,509;,
  3;376,375,368;,
  3;333,329,331;,
  3;1,579,5;,
  3;413,417,407;,
  3;471,470,466;,
  3;515,35,511;,
  3;384,388,379;,
  3;113,377,370;,
  3;266,268,259;,
  3;411,412,405;,
  3;237,209,232;,
  3;87,413,407;,
  3;526,516,518;,
  3;249,205,237;,
  3;368,366,359;,
  3;516,511,506;,
  3;365,355,362;,
  3;417,406,407;,
  3;327,321,324;,
  3;348,353,140;,
  3;415,92,409;,
  3;541,538,535;,
  3;513,512,507;,
  3;230,236,227;,
  3;546,537,538;,
  3;386,378,377;,
  3;352,351,343;,
  3;416,415,409;,
  3;438,430,431;,
  3;109,386,377;,
  3;286,288,276;,
  3;535,527,531;,
  3;404,397,398;,
  3;509,517,508;,
  3;255,245,246;,
  3;54,471,61;,
  3;330,324,322;,
  3;452,460,455;,
  3;244,261,251;,
  3;542,533,532;,
  3;546,543,537;,
  3;537,536,538;,
  3;570,12,559;,
  3;503,506,493;,
  3;467,68,460;,
  3;76,444,436;,
  3;122,356,128;,
  3;78,75,436;,
  3;287,282,277;,
  3;330,327,324;,
  3;351,338,343;,
  3;386,391,385;,
  3;362,351,352;,
  3;581,570,565;,
  3;486,484,478;,
  3;291,294,281;,
  3;571,568,562;,
  3;294,179,281;,
  3;392,400,388;,
  3;427,428,419;,
  3;362,355,351;,
  3;419,428,410;,
  3;566,563,558;,
  3;20,544,539;,
  3;467,60,67;,
  3;552,547,542;,
  3;377,378,373;,
  3;143,331,148;,
  3;329,325,320;,
  3;280,287,277;,
  3;520,515,511;,
  3;559,11,555;,
  3;428,426,416;,
  3;486,489,484;,
  3;268,258,259;,
  3;258,255,246;,
  3;428,416,410;,
  3;258,246,247;,
  3;410,416,402;,
  3;246,239,240;,
  3;315,301,302;,
  3;289,286,279;,
  3;324,314,318;,
  3;552,555,547;,
  3;274,276,268;,
  3;381,369,373;,
  3;297,286,289;,
  3;375,366,368;,
  3;247,246,240;,
  3;400,96,100;,
  3;444,438,435;,
  3;524,513,517;,
  3;520,511,516;,
  3;430,420,422;,
  3;185,279,274;,
  3;377,373,370;,
  3;422,420,417;,
  3;379,375,376;,
  3;426,415,416;,
  3;539,535,531;,
  3;527,522,517;,
  3;392,388,384;,
  3;402,400,392;,
  3;460,66,455;,
  3;276,288,278;,
  3;513,507,505;,
  3;469,465,470;,
  3;295,293,288;,
  3;320,313,157;,
  3;296,291,287;,
  3;475,470,471;,
  3;313,304,309;,
  3;563,556,558;,
  3;199,250,202;,
  3;170,298,175;,
  3;323,329,320;,
  3;553,543,546;,
  3;477,469,470;,
  3;544,548,541;,
  3;409,400,402;,
  3;416,409,402;,
  3;428,433,426;,
  3;563,571,562;,
  3;193,198,254;,
  3;95,98,99;,
  3;315,314,301;,
  3;524,529,521;,
  3;375,117,363;,
  3;77,436,432;,
  3;471,466,463;,
  3;91,407,401;,
  3;464,460,452;,
  3;530,529,524;,
  3;147,156,321;,
  3;401,407,399;,
  3;127,353,348;,
  3;333,332,329;,
  3;25,539,531;,
  3;10,558,15;,
  3;192,260,197;,
  3;562,561,553;,
  3;295,303,293;,
  3;464,473,460;,
  3;523,526,518;,
  3;306,163,301;,
  3;233,236,230;,
  3;327,146,321;,
  3;86,407,90;,
  3;388,104,383;,
  3;462,459,456;,
  3;541,546,538;,
  3;534,526,523;,
  3;470,462,466;,
  3;139,339,142;,
  3;415,414,408;,
  3;417,405,406;,
  3;254,201,249;,
  3;563,562,556;,
  3;566,571,563;,
  3;348,138,137;,
  3;378,381,373;,
  3;548,546,541;,
  3;364,368,360;,
  3;440,434,427;,
  3;434,433,428;,
  3;375,363,366;,
  3;478,477,470;,
  3;277,282,271;,
  3;14,551,19;,
  3;324,321,316;,
  3;557,559,552;,
  3;407,406,403;,
  3;187,266,191;,
  3;383,103,108;,
  3;505,500,496;,
  3;390,387,382;,
  3;458,457,450;,
  3;314,306,301;,
  3;383,112,116;,
  3;393,391,386;,
  3;320,319,312;,
  3;309,298,169;,
  3;65,458,72;,
  3;434,439,433;,
  3;332,328,325;,
  3;308,303,295;,
  3;399,403,394;,
  3;0,4,9;,
  3;321,155,316;,
  3;121,370,356;,
  3;272,277,271;,
  3;417,420,411;,
  3;430,421,420;,
  3;386,381,378;,
  3;184,274,186;,
  3;446,455,440;,
  3;578,571,566;,
  3;556,562,548;,
  3;496,500,495;,
  3;312,311,308;,
  3;407,403,399;,
  3;200,250,204;,
  3;330,337,327;,
  3;160,168,300;,
  3;440,439,434;,
  3;411,420,412;,
  3;48,50,482;,
  3;47,487,481;,
  3;420,421,412;,
  3;159,309,167;,
  3;386,385,381;,
  3;208,234,214;,
  3;336,328,332;,
  3;490,488,482;,
  3;463,466,458;,
  3;557,549,550;,
  3;281,269,270;,
  3;498,496,486;,
  3;493,494,492;,
  3;455,454,441;,
  3;454,71,445;,
  3;385,389,380;,
  3;455,441,439;,
  3;322,324,318;,
  3;454,445,441;,
  3;354,358,136;,
  3;382,377,374;,
  4;218,579,572,570;,
  3;536,529,530;,
  3;565,559,557;,
  3;542,547,533;,
  3;174,289,279;,
  3;538,536,530;,
  3;329,332,325;,
  3;276,273,265;,
  3;74,458,444;,
  3;350,354,344;,
  3;493,506,494;,
  3;502,497,490;,
  3;366,358,354;,
  3;326,323,154;,
  3;543,536,537;,
  3;341,337,330;,
  3;370,373,362;,
  3;370,361,356;,
  3;308,311,303;,
  3;449,448,442;,
  3;535,530,527;,
  3;431,422,418;,
  3;385,380,381;,
  3;313,308,304;,
  3;268,276,265;,
  3;350,344,341;,
  3;236,232,227;,
  3;541,535,539;,
  3;354,135,344;,
  3;325,328,319;,
  3;272,271,262;,
  3;216,577,571;,
  3;344,134,337;,
  3;369,365,362;,
  3;308,295,297;,
  3;508,513,505;,
  3;559,555,552;,
  3;476,473,464;,
  3;271,270,190;,
  3;297,295,286;,
  3;381,372,369;,
  3;570,572,8;,
  3;370,362,361;,
  3;325,319,320;,
  3;262,271,261;,
  3;265,273,263;,
  3;490,497,488;,
  3;496,495,489;,
  3;323,320,153;,
  3;309,304,298;,
  3;333,338,332;,
  3;341,344,337;,
  3;438,442,437;,
  3;281,183,269;,
  3;307,315,302;,
  3;324,316,314;,
  3;313,312,308;,
  3;343,338,333;,
  3;3,578,566;,
  3;473,472,467;,
  3;456,459,453;,
  3;442,448,437;,
  3;379,383,375;,
  3;320,312,313;,
  3;565,570,559;,
  3;509,501,510;,
  3;491,490,482;,
  3;312,319,311;,
  3;262,261,244;,
  3;562,546,548;,
  3;395,394,387;,
  3;549,542,534;,
  3;268,265,258;,
  3;251,249,242;,
  3;265,263,257;,
  3;196,260,250;,
  3;489,495,485;,
  3;258,265,255;,
  3;479,472,473;,
  3;562,553,546;,
  3;260,252,250;,
  3;417,411,405;,
  3;251,261,249;,
  3;133,340,334;,
  3;462,461,459;,
  3;530,524,522;,
  3;476,479,473;,
  3;455,439,440;,
  3;295,288,286;,
  3;350,341,342;,
  3;7,554,555;,
  3;232,229,574;,
  3;498,486,487;,
  3;492,479,476;,
  3;265,257,255;,
  3;505,507,500;,
  3;577,576,571;,
  3;549,552,542;,
  3;435,438,431;,
  3;556,548,551;,
  3;287,291,282;,
  3;242,249,237;,
  3;470,465,462;,
  3;465,468,461;,
  3;173,279,182;,
  3;359,366,354;,
  3;522,524,517;,
  3;527,530,522;,
  3;296,301,291;,
  3;189,266,260;,
  3;237,232,236;,
  3;242,237,236;,
  3;267,277,272;,
  3;239,231,228;,
  3;132,334,337;,
  3;240,228,222;,
  3;272,262,256;,
  3;2,566,564;,
  3;24,528,525;,
  3;228,231,224;,
  3;509,508,504;,
  3;443,438,444;,
  3;450,449,443;,
  3;481,487,478;,
  3;481,478,475;,
  3;443,442,438;,
  3;254,253,248;,
  3;526,520,516;,
  3;439,441,433;,
  3;534,542,532;,
  3;230,227,223;,
  3;570,581,218;,
  3;477,480,474;,
  3;423,418,413;,
  3;418,422,417;,
  3;383,115,375;,
  3;493,492,483;,
  3;450,443,444;,
  3;279,276,274;,
  3;282,270,271;,
  3;496,489,486;,
  3;371,374,120;,
  3;526,532,520;,
  3;358,126,131;,
  3;249,248,203;,
  3;544,541,539;,
  3;240,239,228;,
  3;18,539,23;,
  3;532,533,525;,
  3;532,525,520;,
  3;535,538,530;,
  3;338,336,332;,
  3;573,567,582;,
  3;342,341,335;,
  3;525,528,519;,
  3;533,540,525;,
  3;423,431,418;,
  3;304,308,297;,
  3;234,225,221;,
  3;270,269,264;,
  3;373,369,362;,
  3;316,152,305;,
  3;399,394,395;,
  3;363,119,358;,
  3;314,316,306;,
  3;508,505,504;,
  3;335,330,322;,
  3;338,346,336;,
  3;426,425,415;,
  3;458,450,444;,
  3;374,370,367;,
  3;359,354,350;,
  3;178,181,281;,
  3;432,431,423;,
  3;406,405,403;,
  3;345,350,342;,
  3;250,241,243;,
  3;318,314,315;,
  3;284,287,280;,
  3;280,277,267;,
  3;335,341,330;,
  3;359,350,345;,
  3;432,435,431;,
  3;70,458,73;,
  3;267,272,256;,
  3;252,247,250;,
  3;260,259,252;,
  3;298,297,289;,
  3;317,313,309;,
  3;241,240,234;,
  3;283,172,275;,
  3;433,425,426;,
  3;449,442,443;,
  3;357,348,349;,
  3;451,447,445;,
  3;261,254,249;,
  3;534,532,526;,
  3;252,258,247;,
  3;366,363,358;,
  3;388,383,379;,
  3;301,294,291;,
  3;294,299,290;,
  3;274,268,266;,
  3;582,581,573;,
  3;573,581,565;,
  3;316,305,306;,
  3;288,285,278;,
  3;293,285,288;,
  3;547,540,533;,
  3;339,343,333;,
  3;487,486,478;,
  3;506,499,494;,
  3;259,258,252;,
  3;432,423,424;,
  3;547,545,540;,
  3;219,229,235;,
  3;225,234,240;,
  3;220,213,234;,
  3;234,221,220;,
  3;235,226,219;,
  3;240,222,225;,
  3;574,227,232;,
  3;569,579,217;,
  3;571,578,216;,
  3;568,576,580;;
 }
 MeshTextureCoords { 
 583;
 0.071449;0.948050;,
 3.905493;0.623889;,
 0.067742;0.725402;,
 0.067742;0.725402;,
 0.067742;0.725402;,
 3.905493;0.866955;,
 0.067742;0.725402;,
 3.783184;0.674528;,
 3.783184;0.674528;,
 0.163874;0.901281;,
 0.163874;0.901281;,
 3.783184;0.674528;,
 3.783184;0.674528;,
 0.163874;0.901281;,
 0.218557;0.826834;,
 0.218557;0.826834;,
 0.218557;0.826834;,
 3.709799;0.755550;,
 0.292497;0.789418;,
 0.292497;0.789418;,
 0.292497;0.789418;,
 0.292497;0.789418;,
 3.611952;0.796061;,
 0.366128;0.733449;,
 3.514105;0.856827;,
 0.366128;0.733449;,
 0.366128;0.733449;,
 0.440068;0.696033;,
 0.440068;0.696033;,
 0.440068;0.696033;,
 0.496605;0.732910;,
 0.496605;0.732910;,
 3.342873;0.856827;,
 3.342873;0.856827;,
 0.496605;0.732910;,
 3.220564;0.725166;,
 3.220564;0.725166;,
 0.591810;0.853127;,
 3.220564;0.725166;,
 3.220564;0.725166;,
 0.685780;0.899128;,
 3.098255;0.674528;,
 3.098255;0.674528;,
 3.171640;0.978360;,
 0.701021;0.694957;,
 0.701021;0.694957;,
 0.701021;0.694957;,
 0.756940;0.694726;,
 3.000408;0.897338;,
 0.756940;0.694726;,
 2.934835;0.975178;,
 2.934835;0.975178;,
 2.853638;1.000064;,
 2.853638;1.000064;,
 0.911153;1.000253;,
 2.804714;0.563123;,
 2.804714;0.563123;,
 2.804714;0.563123;,
 2.804714;0.947977;,
 2.804714;0.947977;,
 2.682405;0.796061;,
 1.000798;0.786497;,
 2.682405;0.796061;,
 2.682405;0.796061;,
 2.609020;0.998615;,
 1.085675;0.962863;,
 2.560097;0.573250;,
 2.560097;0.573250;,
 2.560097;0.573250;,
 2.560097;0.573250;,
 1.093686;0.767558;,
 2.560097;0.816316;,
 1.093686;0.767558;,
 1.128494;0.618972;,
 1.128494;0.618972;,
 1.128494;0.618972;,
 1.128494;0.618972;,
 1.169480;0.841467;,
 1.169480;0.841467;,
 2.462250;0.735294;,
 2.339941;0.897338;,
 2.339941;0.897338;,
 1.315208;0.958034;,
 2.266556;0.573250;,
 2.266556;0.816316;,
 1.413667;0.977745;,
 1.391918;0.766328;,
 1.391918;0.766328;,
 1.391918;0.766328;,
 1.391918;0.766328;,
 1.449227;0.849591;,
 1.449227;0.849591;,
 2.095324;0.725166;,
 2.095324;0.725166;,
 2.095324;0.725166;,
 2.021938;0.704911;,
 2.021938;0.704911;,
 2.021938;0.704911;,
 2.009707;0.958104;,
 1.960784;0.765677;,
 1.960784;0.765677;,
 1.551126;0.812060;,
 1.960784;0.765677;,
 1.875168;0.674528;,
 1.875168;0.674528;,
 1.875168;0.674528;,
 1.617755;0.895284;,
 1.875168;0.674528;,
 1.801783;0.897338;,
 1.670275;0.690959;,
 1.670275;0.690959;,
 1.801783;0.897338;,
 1.728397;0.947977;,
 1.725421;0.644343;,
 1.728397;0.947977;,
 1.691705;0.613761;,
 1.691705;0.613761;,
 1.691705;0.613761;,
 1.758478;0.950370;,
 1.630550;0.836571;,
 1.801678;0.746083;,
 1.801678;0.746083;,
 1.801678;0.746083;,
 1.801678;0.746083;,
 1.630550;0.836571;,
 1.859356;0.980448;,
 1.532703;0.725166;,
 1.877935;0.847823;,
 1.877935;0.847823;,
 1.877935;0.847823;,
 1.532703;0.725166;,
 1.410395;0.613761;,
 1.410395;0.613761;,
 1.410395;0.613761;,
 1.410395;0.613761;,
 1.410395;0.613761;,
 1.410395;0.613761;,
 1.972832;0.949486;,
 1.987147;0.689652;,
 1.987147;0.689652;,
 1.987147;0.689652;,
 1.987147;0.689652;,
 2.062940;0.763561;,
 2.062940;0.763561;,
 2.062940;0.763561;,
 1.288086;0.816316;,
 1.165777;0.816316;,
 1.165777;0.816316;,
 2.156138;0.763176;,
 2.156138;0.763176;,
 1.165777;0.816316;,
 1.165777;0.816316;,
 1.019007;0.897338;,
 2.266739;0.688499;,
 2.266739;0.688499;,
 1.019007;0.897338;,
 1.019007;0.897338;,
 2.266739;0.688499;,
 2.266739;0.688499;,
 2.325747;0.873809;,
 2.325747;0.873809;,
 0.945622;0.694783;,
 2.325747;0.873809;,
 0.872236;0.634017;,
 0.872236;0.634017;,
 0.872236;0.634017;,
 0.872236;0.634017;,
 2.397679;0.715792;,
 2.397679;0.715792;,
 2.397679;0.715792;,
 2.397679;0.715792;,
 0.847775;0.866955;,
 2.489641;0.641191;,
 2.489641;0.641191;,
 2.489641;0.641191;,
 2.489641;0.641191;,
 2.489641;0.641191;,
 0.725466;0.947977;,
 0.701004;0.694783;,
 0.701004;0.694783;,
 0.701004;0.694783;,
 0.627619;0.856827;,
 2.565589;0.724377;,
 0.627619;0.856827;,
 2.565589;0.724377;,
 2.565589;0.724377;,
 2.622125;0.761254;,
 2.622125;0.761254;,
 2.622125;0.761254;,
 2.698846;0.890825;,
 0.456387;0.674528;,
 2.698846;0.890825;,
 2.698846;0.890825;,
 0.456387;0.674528;,
 0.456387;0.674528;,
 0.456387;0.674528;,
 2.752602;0.760716;,
 2.752602;0.760716;,
 0.383001;0.816316;,
 2.752602;0.760716;,
 2.809910;0.843979;,
 0.309616;0.725166;,
 2.809910;0.843979;,
 0.236231;0.725166;,
 2.865829;0.843748;,
 0.236231;0.725166;,
 0.236231;0.725166;,
 2.865829;0.843748;,
 2.920666;0.778578;,
 0.162846;0.796061;,
 0.162846;0.796061;,
 0.162846;0.796061;,
 2.920666;0.778578;,
 2.994915;0.759717;,
 2.994915;0.759717;,
 0.032316;0.836880;,
 0.027219;0.530738;,
 3.954416;0.745422;,
 3.954416;0.390951;,
 0.064999;0.634017;,
 2.973804;0.611361;,
 2.971333;0.462929;,
 2.966544;0.175341;,
 0.064999;0.036480;,
 2.963918;0.017632;,
 2.969170;0.333050;,
 0.064999;0.816316;,
 0.064999;0.198524;,
 2.963918;0.017632;,
 0.064999;0.471973;,
 0.089460;0.056736;,
 2.908000;0.017862;,
 0.113922;0.542867;,
 0.162846;0.046608;,
 2.933899;0.453805;,
 0.162846;0.796061;,
 0.138384;0.309929;,
 0.211769;0.451718;,
 0.236231;0.026353;,
 2.870721;0.018016;,
 2.876436;0.361266;,
 2.860731;0.537606;,
 0.236231;0.249163;,
 2.865829;0.843748;,
 0.334078;0.006097;,
 2.814802;0.018247;,
 2.799407;0.213141;,
 2.802341;0.389404;,
 0.309616;0.725166;,
 0.285154;0.461845;,
 2.806049;0.612053;,
 0.309616;0.249163;,
 2.748122;0.491682;,
 0.383001;0.816316;,
 0.358540;0.552995;,
 2.742870;0.176264;,
 0.456387;0.006097;,
 2.721605;0.018631;,
 2.727011;0.343327;,
 2.710380;0.464005;,
 2.713469;0.649546;,
 0.407463;0.360568;,
 0.431925;0.208652;,
 2.647047;0.018939;,
 0.456387;0.674528;,
 2.649827;0.185925;,
 2.656469;0.584837;,
 0.554234;0.006097;,
 2.634123;0.362265;,
 0.554234;0.816316;,
 0.529772;0.552995;,
 0.505310;0.370696;,
 0.517541;0.117502;,
 2.591128;0.019169;,
 2.599469;0.520128;,
 2.565589;0.724377;,
 2.576505;0.260449;,
 0.603157;0.249163;,
 2.516570;0.019477;,
 2.523985;0.464774;,
 0.652081;0.006097;,
 0.627619;0.573250;,
 0.652081;0.401079;,
 2.512142;0.873040;,
 0.725466;0.006097;,
 2.460652;0.019707;,
 2.502410;0.288587;,
 0.725466;0.178269;,
 2.480990;0.121678;,
 2.467912;0.455727;,
 0.725466;0.947977;,
 0.749928;0.380823;,
 0.798851;0.006097;,
 2.423373;0.019861;,
 0.786620;0.613761;,
 2.416988;0.196163;,
 0.798851;0.178269;,
 2.410294;0.353911;,
 2.394898;0.548805;,
 0.847775;0.866955;,
 2.382592;0.929240;,
 0.872236;0.350440;,
 0.896698;0.006097;,
 2.348969;0.029446;,
 2.355766;0.437635;,
 0.945622;0.694783;,
 0.945622;0.482101;,
 0.970083;0.006097;,
 2.334037;0.252171;,
 2.321422;0.614052;,
 1.043468;0.006097;,
 2.274720;0.048307;,
 2.259633;0.261756;,
 2.281053;0.428665;,
 0.994545;0.299802;,
 0.970083;0.117502;,
 1.043468;0.492229;,
 2.266739;0.688499;,
 1.092392;0.168141;,
 2.181059;0.020860;,
 2.187392;0.401218;,
 1.116854;0.644145;,
 1.165777;0.006097;,
 2.171688;0.577559;,
 1.141315;0.330185;,
 2.147951;0.271494;,
 2.156138;0.763176;,
 1.190239;0.492229;,
 2.106501;0.021168;,
 2.112062;0.355141;,
 1.214701;0.289674;,
 2.104905;0.485058;,
 2.062838;0.197624;,
 2.046824;0.355410;,
 1.288086;0.816316;,
 1.312548;0.006097;,
 2.031943;0.021476;,
 1.288086;0.532739;,
 1.996518;0.132954;,
 2.011553;0.476165;,
 1.385933;0.897338;,
 1.337009;0.330185;,
 1.385933;0.016225;,
 1.980350;0.281463;,
 1.410395;0.411207;,
 1.483780;0.016225;,
 1.957385;0.021783;,
 1.946315;0.476434;,
 1.952339;0.838238;,
 1.972832;0.949486;,
 1.459318;0.228907;,
 1.922578;0.170369;,
 1.925822;0.365187;,
 1.930147;0.624943;,
 1.483780;0.360568;,
 1.882827;0.022091;,
 1.872220;0.504573;,
 1.877935;0.847823;,
 1.532703;0.532739;,
 1.532703;0.168141;,
 1.581627;0.006097;,
 1.851727;0.393325;,
 1.839781;0.235654;,
 1.630550;0.512484;,
 1.679474;0.006097;,
 1.789630;0.022475;,
 1.606089;0.340313;,
 1.801678;0.746083;,
 1.655012;0.178269;,
 1.754668;0.161784;,
 1.778714;0.486403;,
 1.758478;0.950370;,
 1.733711;0.022706;,
 1.738963;0.338124;,
 1.725421;0.644343;,
 1.728397;0.370696;,
 1.752859;0.076991;,
 1.703847;0.468157;,
 1.682890;0.329078;,
 1.801783;0.249163;,
 1.659154;0.023013;,
 1.679955;0.152815;,
 1.670275;0.690959;,
 1.777321;0.552995;,
 1.850706;0.087119;,
 1.624191;0.162322;,
 1.628208;0.403525;,
 1.612503;0.579865;,
 1.875168;0.380823;,
 1.603235;0.023244;,
 1.617755;0.895284;,
 1.569200;0.218215;,
 1.948553;0.066864;,
 1.553495;0.394555;,
 1.555967;0.542988;,
 1.551126;0.812060;,
 2.021938;0.046608;,
 1.528677;0.023551;,
 1.512663;0.181338;,
 1.510913;0.635950;,
 1.985246;0.461845;,
 1.505455;0.867914;,
 2.021938;0.299802;,
 1.498195;0.431894;,
 1.472759;0.023782;,
 1.457826;0.246507;,
 1.441813;0.404294;,
 1.464005;0.617588;,
 2.095324;0.725166;,
 2.083093;0.482101;,
 2.144247;0.046608;,
 1.400363;0.153968;,
 1.398201;0.024089;,
 1.388983;0.590065;,
 2.168709;0.816316;,
 2.168709;0.542867;,
 2.144247;0.330185;,
 1.384349;0.311754;,
 1.349696;0.469617;,
 2.242094;0.066864;,
 1.343518;0.098536;,
 1.323643;0.024397;,
 1.328740;0.330539;,
 1.314734;0.608926;,
 1.317360;0.766636;,
 2.266556;0.573250;,
 2.266556;0.411207;,
 2.339941;0.066864;,
 2.291018;0.249163;,
 1.249085;0.024704;,
 1.270659;0.200891;,
 1.274212;0.414263;,
 1.260206;0.692650;,
 2.339941;0.512484;,
 2.364403;0.228907;,
 1.219065;0.460878;,
 1.193887;0.627980;,
 1.193166;0.024935;,
 1.197337;0.275415;,
 2.413326;0.370696;,
 2.413326;0.087119;,
 2.437788;0.532739;,
 1.139256;0.145767;,
 1.133334;0.349900;,
 1.163147;0.461109;,
 2.462250;0.735294;,
 2.535635;0.147886;,
 2.511173;0.978360;,
 1.118608;0.025243;,
 1.085036;0.248045;,
 1.087971;0.424308;,
 2.560097;0.816316;,
 2.633482;0.158013;,
 1.063925;0.099689;,
 2.560097;0.573250;,
 2.560097;0.330185;,
 1.029118;0.248276;,
 1.032362;0.443093;,
 1.053627;0.600726;,
 1.025411;0.025627;,
 2.633482;0.380823;,
 0.969492;0.025858;,
 0.973199;0.248506;,
 1.000798;0.786497;,
 2.731329;0.087119;,
 0.952397;0.118705;,
 0.976906;0.471155;,
 2.706867;0.461845;,
 0.894934;0.026165;,
 0.896633;0.128212;,
 0.900340;0.350861;,
 0.905283;0.647726;,
 2.804714;0.563123;,
 2.755791;0.309929;,
 0.839016;0.026396;,
 0.866614;0.564386;,
 2.829176;0.036480;,
 0.840869;0.137720;,
 0.835102;0.351130;,
 2.878099;0.401079;,
 0.801737;0.026550;,
 0.811314;0.601725;,
 2.902561;0.603634;,
 2.951485;0.066864;,
 0.765693;0.100919;,
 0.745818;0.026780;,
 0.750298;0.295814;,
 0.771563;0.453446;,
 3.000408;0.897338;,
 0.728414;0.101073;,
 3.000408;0.684655;,
 3.000408;0.411207;,
 2.927023;0.228907;,
 3.073793;0.076991;,
 3.073793;0.249163;,
 0.689900;0.027011;,
 0.693607;0.249659;,
 3.073793;0.897338;,
 0.697314;0.472308;,
 3.098255;0.401079;,
 0.615342;0.027318;,
 0.625228;0.621048;,
 3.098255;0.674528;,
 3.220564;0.046608;,
 0.622602;0.463338;,
 0.608802;0.194343;,
 3.171640;0.239035;,
 0.559423;0.027549;,
 0.573995;0.342929;,
 0.568228;0.556339;,
 0.591810;0.853127;,
 3.245026;0.471973;,
 0.522144;0.027703;,
 0.524307;0.157581;,
 0.512155;0.547293;,
 3.318411;0.573250;,
 3.306180;0.279546;,
 0.509374;0.380307;,
 3.342873;0.026353;,
 3.342873;0.856827;,
 3.342873;0.411207;,
 0.466226;0.027933;,
 0.452684;0.334152;,
 3.416258;0.026353;,
 0.469161;0.204197;,
 3.416258;0.573250;,
 3.391796;0.239035;,
 0.436361;0.473384;,
 3.416258;0.897338;,
 0.391668;0.028241;,
 0.394757;0.213781;,
 0.401090;0.594139;,
 3.440720;0.350440;,
 3.489643;0.512484;,
 3.538567;0.066864;,
 0.379979;0.445784;,
 0.335749;0.028471;,
 0.318036;0.084211;,
 0.358250;0.260320;,
 0.344399;0.547985;,
 3.514105;0.856827;,
 0.322670;0.362521;,
 3.538567;0.299802;,
 0.279831;0.028702;,
 0.288635;0.557493;,
 3.611952;0.796061;,
 0.265207;0.269982;,
 3.587490;0.461845;,
 0.249194;0.427768;,
 3.636414;0.016225;,
 3.734261;0.006097;,
 0.233798;0.622662;,
 3.660875;0.299802;,
 0.223912;0.028933;,
 3.709799;0.755550;,
 3.709799;0.542867;,
 0.194048;0.474384;,
 3.734261;0.168141;,
 0.177880;0.622893;,
 3.758722;0.370696;,
 3.832108;0.006097;,
 0.149354;0.029240;,
 0.172010;0.270366;,
 0.137975;0.465337;,
 0.163874;0.901281;,
 3.856569;0.208652;,
 0.102395;0.567538;,
 3.954416;0.036480;,
 0.093436;0.029471;,
 3.905493;0.866955;,
 3.881031;0.441590;,
 0.080203;0.354244;,
 3.905493;0.623889;,
 3.905493;0.168141;,
 0.064999;0.340313;,
 0.018878;0.029778;,
 0.023048;0.280258;,
 0.025365;0.419414;,
 0.029845;0.688447;,
 3.954416;0.563123;,
 0.020731;0.141103;,
 3.954416;0.228907;,
 3.954416;0.087119;;
 }
}
Frame frm-Path1 {
  FrameTransformMatrix {
1.000000,0.000000,0.000000,0.000000,
0.000000,1.000000,0.000000,0.000000,
0.000000,0.000000,1.000000,0.000000,
0.000000,0.000000,0.000000,1.000000;;
 }
Mesh Path1 {
 8;
 0.603889;0.660000;0.660012;,
 0.603889;0.660000;-0.659988;,
 0.603889;-0.660000;0.660012;,
 0.603889;-0.660000;-0.659988;,
 -0.716110;0.660000;0.660012;,
 -0.716110;0.660000;-0.659988;,
 -0.716110;-0.660000;0.660012;,
 -0.716110;-0.660000;-0.659988;;

 6;
 4;7,6,4,5;,
 4;6,2,0,4;,
 4;2,3,1,0;,
 4;3,7,5,1;,
 4;3,2,6,7;,
 4;5,4,0,1;;

 MeshMaterialList {
  1;
  6;
  0,
  0,
  0,
  0,
  0,
  0;
Material {
 0.000000;0.004000;1.000000;1.000000;;
 50.000000;
 0.000000;0.004000;1.000000;;
 0.0; 0.0; 0.0;;
 }
}
 MeshNormals {
  8;
  0.577350;0.577350;0.577350;,
  0.577350;0.577350;-0.577350;,
  0.577350;-0.577350;0.577350;,
  0.577350;-0.577350;-0.577350;,
  -0.577350;0.577350;0.577350;,
  -0.577350;0.577350;-0.577350;,
  -0.577350;-0.577350;0.577350;,
  -0.577350;-0.577350;-0.577350;;

  6;
  4;7,6,4,5;,
  4;6,2,0,4;,
  4;2,3,1,0;,
  4;3,7,5,1;,
  4;3,2,6,7;,
  4;5,4,0,1;;
 }
 MeshTextureCoords { 
 8;
 0.000000;0.000000;,
 0.000000;0.000000;,
 0.000000;0.000000;,
 0.000000;0.000000;,
 0.000000;0.000000;,
 0.000000;0.000000;,
 0.000000;0.000000;,
 0.000000;0.000000;;
 }
}
Frame frm-Path2 {
  FrameTransformMatrix {
0.999391,0.000000,-0.034900,0.000000,
0.000000,1.000000,0.000000,0.000000,
0.034900,0.000000,0.999391,0.000000,
-1.286608,0.000000,22.471775,1.000000;;
 }
Mesh Path2 {
 8;
 0.603889;0.660000;0.660012;,
 0.603889;0.660000;-0.659988;,
 0.603889;-0.660000;0.660012;,
 0.603889;-0.660000;-0.659988;,
 -0.716110;0.660000;0.660012;,
 -0.716110;0.660000;-0.659988;,
 -0.716110;-0.660000;0.660012;,
 -0.716110;-0.660000;-0.659988;;

 6;
 4;7,6,4,5;,
 4;6,2,0,4;,
 4;2,3,1,0;,
 4;3,7,5,1;,
 4;3,2,6,7;,
 4;5,4,0,1;;

 MeshMaterialList {
  1;
  6;
  0,
  0,
  0,
  0,
  0,
  0;
Material {
 0.000000;0.004000;1.000000;1.000000;;
 50.000000;
 0.000000;0.004000;1.000000;;
 0.0; 0.0; 0.0;;
 }
}
 MeshNormals {
  8;
  0.577350;0.577350;0.577350;,
  0.577350;0.577350;-0.577350;,
  0.577350;-0.577350;0.577350;,
  0.577350;-0.577350;-0.577350;,
  -0.577350;0.577350;0.577350;,
  -0.577350;0.577350;-0.577350;,
  -0.577350;-0.577350;0.577350;,
  -0.577350;-0.577350;-0.577350;;

  6;
  4;7,6,4,5;,
  4;6,2,0,4;,
  4;2,3,1,0;,
  4;3,7,5,1;,
  4;3,2,6,7;,
  4;5,4,0,1;;
 }
 MeshTextureCoords { 
 8;
 0.000000;0.000000;,
 0.000000;0.000000;,
 0.000000;0.000000;,
 0.000000;0.000000;,
 0.000000;0.000000;,
 0.000000;0.000000;,
 0.000000;0.000000;,
 0.000000;0.000000;;
 }
}
Frame frm-Path3 {
  FrameTransformMatrix {
0.962410,0.000000,-0.271600,0.000000,
0.000000,1.000000,0.000000,0.000000,
0.271600,0.000000,0.962410,0.000000,
-5.923522,0.000000,17.461445,1.000000;;
 }
Mesh Path3 {
 8;
 0.603889;0.660000;0.660012;,
 0.603889;0.660000;-0.659988;,
 0.603889;-0.660000;0.660012;,
 0.603889;-0.660000;-0.659988;,
 -0.716110;0.660000;0.660012;,
 -0.716110;0.660000;-0.659988;,
 -0.716110;-0.660000;0.660012;,
 -0.716110;-0.660000;-0.659988;;

 6;
 4;7,6,4,5;,
 4;6,2,0,4;,
 4;2,3,1,0;,
 4;3,7,5,1;,
 4;3,2,6,7;,
 4;5,4,0,1;;

 MeshMaterialList {
  1;
  6;
  0,
  0,
  0,
  0,
  0,
  0;
Material {
 0.000000;0.004000;1.000000;1.000000;;
 50.000000;
 0.000000;0.004000;1.000000;;
 0.0; 0.0; 0.0;;
 }
}
 MeshNormals {
  8;
  0.577350;0.577350;0.577350;,
  0.577350;0.577350;-0.577350;,
  0.577350;-0.577350;0.577350;,
  0.577350;-0.577350;-0.577350;,
  -0.577350;0.577350;0.577350;,
  -0.577350;0.577350;-0.577350;,
  -0.577350;-0.577350;0.577350;,
  -0.577350;-0.577350;-0.577350;;

  6;
  4;7,6,4,5;,
  4;6,2,0,4;,
  4;2,3,1,0;,
  4;3,7,5,1;,
  4;3,2,6,7;,
  4;5,4,0,1;;
 }
 MeshTextureCoords { 
 8;
 0.000000;0.000000;,
 0.000000;0.000000;,
 0.000000;0.000000;,
 0.000000;0.000000;,
 0.000000;0.000000;,
 0.000000;0.000000;,
 0.000000;0.000000;,
 0.000000;0.000000;;
 }
}
Frame frm-Path4 {
  FrameTransformMatrix {
0.897802,0.000000,-0.440400,0.000000,
0.000000,1.000000,0.000000,0.000000,
0.440400,0.000000,0.897802,0.000000,
-9.748278,0.000000,17.532841,1.000000;;
 }
Mesh Path4 {
 8;
 0.603889;0.660000;0.660012;,
 0.603889;0.660000;-0.659988;,
 0.603889;-0.660000;0.660012;,
 0.603889;-0.660000;-0.659988;,
 -0.716110;0.660000;0.660012;,
 -0.716110;0.660000;-0.659988;,
 -0.716110;-0.660000;0.660012;,
 -0.716110;-0.660000;-0.659988;;

 6;
 4;7,6,4,5;,
 4;6,2,0,4;,
 4;2,3,1,0;,
 4;3,7,5,1;,
 4;3,2,6,7;,
 4;5,4,0,1;;

 MeshMaterialList {
  1;
  6;
  0,
  0,
  0,
  0,
  0,
  0;
Material {
 0.000000;0.004000;1.000000;1.000000;;
 50.000000;
 0.000000;0.004000;1.000000;;
 0.0; 0.0; 0.0;;
 }
}
 MeshNormals {
  8;
  0.577350;0.577350;0.577350;,
  0.577350;0.577350;-0.577350;,
  0.577350;-0.577350;0.577350;,
  0.577350;-0.577350;-0.577350;,
  -0.577350;0.577350;0.577350;,
  -0.577350;0.577350;-0.577350;,
  -0.577350;-0.577350;0.577350;,
  -0.577350;-0.577350;-0.577350;;

  6;
  4;7,6,4,5;,
  4;6,2,0,4;,
  4;2,3,1,0;,
  4;3,7,5,1;,
  4;3,2,6,7;,
  4;5,4,0,1;;
 }
 MeshTextureCoords { 
 8;
 0.000000;0.000000;,
 0.000000;0.000000;,
 0.000000;0.000000;,
 0.000000;0.000000;,
 0.000000;0.000000;,
 0.000000;0.000000;,
 0.000000;0.000000;,
 0.000000;0.000000;;
 }
}
Frame frm-Path5 {
  FrameTransformMatrix {
0.693247,0.000000,-0.720700,0.000000,
0.000000,1.000000,0.000000,0.000000,
0.720700,0.000000,0.693247,0.000000,
-15.626872,0.000000,19.877771,1.000000;;
 }
Mesh Path5 {
 8;
 0.603889;0.660000;0.660012;,
 0.603889;0.660000;-0.659988;,
 0.603889;-0.660000;0.660012;,
 0.603889;-0.660000;-0.659988;,
 -0.716110;0.660000;0.660012;,
 -0.716110;0.660000;-0.659988;,
 -0.716110;-0.660000;0.660012;,
 -0.716110;-0.660000;-0.659988;;

 6;
 4;7,6,4,5;,
 4;6,2,0,4;,
 4;2,3,1,0;,
 4;3,7,5,1;,
 4;3,2,6,7;,
 4;5,4,0,1;;

 MeshMaterialList {
  1;
  6;
  0,
  0,
  0,
  0,
  0,
  0;
Material {
 0.000000;0.004000;1.000000;1.000000;;
 50.000000;
 0.000000;0.004000;1.000000;;
 0.0; 0.0; 0.0;;
 }
}
 MeshNormals {
  8;
  0.577350;0.577350;0.577350;,
  0.577350;0.577350;-0.577350;,
  0.577350;-0.577350;0.577350;,
  0.577350;-0.577350;-0.577350;,
  -0.577350;0.577350;0.577350;,
  -0.577350;0.577350;-0.577350;,
  -0.577350;-0.577350;0.577350;,
  -0.577350;-0.577350;-0.577350;;

  6;
  4;7,6,4,5;,
  4;6,2,0,4;,
  4;2,3,1,0;,
  4;3,7,5,1;,
  4;3,2,6,7;,
  4;5,4,0,1;;
 }
 MeshTextureCoords { 
 8;
 0.000000;0.000000;,
 0.000000;0.000000;,
 0.000000;0.000000;,
 0.000000;0.000000;,
 0.000000;0.000000;,
 0.000000;0.000000;,
 0.000000;0.000000;,
 0.000000;0.000000;;
 }
}
}
}
}
}
}
}
AnimationSet {
 Animation anim-Path2 {
  {frm-Path2}
  AnimationKey {
  0;
  2;
  1; 4; 0.999848, 0.000000, 0.017453, 0.000000;;,
  100; 4; 0.999848, 0.000000, 0.017453, 0.000000;;;
  }
  AnimationKey {
  2;
  2;
  1; 3; -1.286608, 0.000000, 22.471776;;,
  100; 3; -1.286608, 0.000000, 22.471776;;;
  }
 }
 Animation anim-Path3 {
  {frm-Path3}
  AnimationKey {
  0;
  2;
  1; 4; 0.990558, 0.000000, 0.137094, 0.000000;;,
  100; 4; 0.990558, 0.000000, 0.137094, 0.000000;;;
  }
  AnimationKey {
  2;
  2;
  1; 3; -5.923522, 0.000000, 17.461444;;,
  100; 3; -5.923522, 0.000000, 17.461444;;;
  }
 }
 Animation anim-Path4 {
  {frm-Path4}
  AnimationKey {
  0;
  2;
  1; 4; 0.974115, 0.000000, 0.226051, 0.000000;;,
  100; 4; 0.974115, 0.000000, 0.226051, 0.000000;;;
  }
  AnimationKey {
  2;
  2;
  1; 3; -9.748278, 0.000000, 17.532841;;,
  100; 3; -9.748278, 0.000000, 17.532841;;;
  }
 }
 Animation anim-Path5 {
  {frm-Path5}
  AnimationKey {
  0;
  2;
  1; 4; 0.920121, 0.000000, 0.391633, 0.000000;;,
  100; 4; 0.920121, 0.000000, 0.391633, 0.000000;;;
  }
  AnimationKey {
  2;
  2;
  1; 3; -15.626872, 0.000000, 19.877771;;,
  100; 3; -15.626872, 0.000000, 19.877771;;;
  }
 }
}
