xof 0302txt 0032
template Header {
 <3D82AB43-62DA-11cf-AB39-0020AF71E433>
 WORD major;
 WORD minor;
 DWORD flags;
}

template Vector {
 <3D82AB5E-62DA-11cf-AB39-0020AF71E433>
 FLOAT x;
 FLOAT y;
 FLOAT z;
}

template Coords2d {
 <F6F23F44-7686-11cf-8F52-0040333594A3>
 FLOAT u;
 FLOAT v;
}

template Matrix4x4 {
 <F6F23F45-7686-11cf-8F52-0040333594A3>
 array FLOAT matrix[16];
}

template ColorRGBA {
 <35FF44E0-6C7C-11cf-8F52-0040333594A3>
 FLOAT red;
 FLOAT green;
 FLOAT blue;
 FLOAT alpha;
}

template ColorRGB {
 <D3E16E81-7835-11cf-8F52-0040333594A3>
 FLOAT red;
 FLOAT green;
 FLOAT blue;
}

template TextureFilename {
 <A42790E1-7810-11cf-8F52-0040333594A3>
 STRING filename;
}

template Material {
 <3D82AB4D-62DA-11cf-AB39-0020AF71E433>
 ColorRGBA faceColor;
 FLOAT power;
 ColorRGB specularColor;
 ColorRGB emissiveColor;
 [...]
}

template MeshFace {
 <3D82AB5F-62DA-11cf-AB39-0020AF71E433>
 DWORD nFaceVertexIndices;
 array DWORD faceVertexIndices[nFaceVertexIndices];
}

template MeshTextureCoords {
 <F6F23F40-7686-11cf-8F52-0040333594A3>
 DWORD nTextureCoords;
 array Coords2d textureCoords[nTextureCoords];
}

template MeshMaterialList {
 <F6F23F42-7686-11cf-8F52-0040333594A3>
 DWORD nMaterials;
 DWORD nFaceIndexes;
 array DWORD faceIndexes[nFaceIndexes];
 [Material]
}

template MeshNormals {
 <F6F23F43-7686-11cf-8F52-0040333594A3>
 DWORD nNormals;
 array Vector normals[nNormals];
 DWORD nFaceNormals;
 array MeshFace faceNormals[nFaceNormals];
}

template Mesh {
 <3D82AB44-62DA-11cf-AB39-0020AF71E433>
 DWORD nVertices;
 array Vector vertices[nVertices];
 DWORD nFaces;
 array MeshFace faces[nFaces];
 [...]
}

template FrameTransformMatrix {
 <F6F23F41-7686-11cf-8F52-0040333594A3>
 Matrix4x4 frameMatrix;
}

template Frame {
 <3D82AB46-62DA-11cf-AB39-0020AF71E433>
 [...]
}
template FloatKeys {
 <10DD46A9-775B-11cf-8F52-0040333594A3>
 DWORD nValues;
 array FLOAT values[nValues];
}

template TimedFloatKeys {
 <F406B180-7B3B-11cf-8F52-0040333594A3>
 DWORD time;
 FloatKeys tfkeys;
}

template AnimationKey {
 <10DD46A8-775B-11cf-8F52-0040333594A3>
 DWORD keyType;
 DWORD nKeys;
 array TimedFloatKeys keys[nKeys];
}

template AnimationOptions {
 <E2BF56C0-840F-11cf-8F52-0040333594A3>
 DWORD openclosed;
 DWORD positionquality;
}

template Animation {
 <3D82AB4F-62DA-11cf-AB39-0020AF71E433>
 [...]
}

template AnimationSet {
 <3D82AB50-62DA-11cf-AB39-0020AF71E433>
 [Animation]
}

Header {
 1;
 0;
 1;
}

Frame frm-Right_Elbow {
  FrameTransformMatrix {
1.000000,0.000000,0.000000,0.000000,
0.000000,1.000000,0.000000,0.000000,
0.000000,0.000000,1.000000,0.000000,
0.000000,0.000000,0.000000,1.000000;;
 }
Mesh Right_Elbow {
 583;
 46.256302;-1.501346;55.518955;,
 46.256302;-1.501346;55.518955;,
 45.994102;-2.232537;56.966438;,
 45.994102;-2.232537;56.966438;,
 45.994102;-2.232537;56.966438;,
 45.994102;-2.232537;56.966438;,
 45.994102;-2.232537;56.966438;,
 43.758919;-2.116694;55.602684;,
 43.758919;-2.116694;55.602684;,
 43.758919;-2.116694;55.602684;,
 43.758919;-2.116694;55.602684;,
 43.758919;-2.116694;55.602684;,
 43.758919;-2.116694;55.602684;,
 43.758919;-2.116694;55.602684;,
 41.783569;-2.416752;56.007729;,
 41.783569;-2.416752;56.007729;,
 41.783569;-2.416752;56.007729;,
 41.783569;-2.416752;56.007729;,
 39.693855;-1.794114;56.341972;,
 39.693855;-1.794114;56.341972;,
 39.693855;-1.794114;56.341972;,
 39.693855;-1.794114;56.341972;,
 39.693855;-1.794114;56.341972;,
 37.558792;-1.810629;56.545055;,
 37.558792;-1.810629;56.545055;,
 37.558792;-1.810629;56.545055;,
 37.558792;-1.810629;56.545055;,
 35.253510;-2.075396;56.550411;,
 35.253510;-2.075396;56.550411;,
 35.253510;-2.075396;56.550411;,
 33.547142;-2.063438;56.155132;,
 33.547142;-2.063438;56.155132;,
 33.547142;-2.063438;56.155132;,
 33.547142;-2.063438;56.155132;,
 33.547142;-2.063438;56.155132;,
 31.350990;-1.729530;55.087551;,
 31.350990;-1.729530;55.087551;,
 31.350990;-1.729530;55.087551;,
 31.350990;-1.729530;55.087551;,
 31.350990;-1.729530;55.087551;,
 28.718315;-1.294288;54.139736;,
 28.718315;-1.294288;54.139736;,
 28.718315;-1.294288;54.139736;,
 29.526680;-1.737488;56.104797;,
 27.739578;-2.172101;55.233089;,
 27.739578;-2.172101;55.233089;,
 27.739578;-2.172101;55.233089;,
 25.953964;-2.083912;54.683887;,
 25.953964;-2.083912;54.683887;,
 25.953964;-2.083912;54.683887;,
 24.401131;-1.641701;54.680489;,
 24.401131;-1.641701;54.680489;,
 22.919128;-1.185573;54.215984;,
 22.919128;-1.185573;54.215984;,
 22.432266;-0.805062;51.640175;,
 22.432266;-0.805062;51.640175;,
 22.432266;-0.805062;51.640175;,
 22.432266;-0.805062;51.640175;,
 21.893456;-1.119840;53.027271;,
 21.893456;-1.119840;53.027271;,
 19.799347;-1.609681;51.180607;,
 19.799347;-1.609681;51.180607;,
 19.799347;-1.609681;51.180607;,
 19.799347;-1.609681;51.180607;,
 17.651245;-2.070858;51.505260;,
 18.169403;-1.139065;49.047131;,
 18.169403;-1.139065;49.047131;,
 18.169403;-1.139065;49.047131;,
 18.169403;-1.139065;49.047131;,
 18.169403;-1.139065;49.047131;,
 17.494762;-2.428608;49.873974;,
 17.494762;-2.428608;49.873974;,
 17.494762;-2.428608;49.873974;,
 15.868858;-2.185983;50.067257;,
 15.868858;-2.185983;50.067257;,
 15.868858;-2.185983;50.067257;,
 15.868858;-2.185983;50.067257;,
 15.939816;-2.002294;48.128315;,
 15.939816;-2.002294;48.128315;,
 15.939816;-2.002294;48.128315;,
 13.474701;-2.277330;47.388996;,
 13.474701;-2.277330;47.388996;,
 13.399394;-1.391236;44.755360;,
 13.399394;-1.391236;44.755360;,
 12.581813;-2.608619;45.489231;,
 12.512607;-1.136870;43.227859;,
 11.358424;-2.725419;44.131817;,
 11.358424;-2.725419;44.131817;,
 11.358424;-2.725419;44.131817;,
 11.358424;-2.725419;44.131817;,
 10.768916;-2.573330;42.610798;,
 10.768916;-2.573330;42.610798;,
 10.768916;-2.573330;42.610798;,
 10.768916;-2.573330;42.610798;,
 10.768916;-2.573330;42.610798;,
 9.667850;-1.985919;41.431522;,
 9.667850;-1.985919;41.431522;,
 9.667850;-1.985919;41.431522;,
 8.211642;-1.659544;41.721420;,
 8.449930;-1.508842;40.251652;,
 8.449930;-1.508842;40.251652;,
 8.449930;-1.508842;40.251652;,
 8.449930;-1.508842;40.251652;,
 8.070292;-1.568040;38.595097;,
 8.070292;-1.568040;38.595097;,
 8.070292;-1.568040;38.595097;,
 8.070292;-1.568040;38.595097;,
 8.070292;-1.568040;38.595097;,
 6.084093;-2.104425;37.747906;,
 6.084093;-2.104425;37.747906;,
 6.084093;-2.104425;37.747906;,
 6.084093;-2.104425;37.747906;,
 5.031008;-2.138321;36.359863;,
 5.031008;-2.138321;36.359863;,
 5.031008;-2.138321;36.359863;,
 6.235780;-1.143015;34.886311;,
 6.235780;-1.143015;34.886311;,
 6.235780;-1.143015;34.886311;,
 6.235780;-1.143015;34.886311;,
 4.698598;-1.516751;33.964664;,
 4.698598;-1.516751;33.964664;,
 4.698598;-1.516751;33.964664;,
 4.698598;-1.516751;33.964664;,
 4.698598;-1.516751;33.964664;,
 4.698598;-1.516751;33.964664;,
 6.352701;-1.038025;33.189926;,
 4.605802;-2.379799;31.474400;,
 4.605802;-2.379799;31.474400;,
 4.605802;-2.379799;31.474400;,
 4.605802;-2.379799;31.474400;,
 4.605802;-2.379799;31.474400;,
 4.636944;-1.936688;28.734798;,
 4.636944;-1.936688;28.734798;,
 4.636944;-1.936688;28.734798;,
 4.636944;-1.936688;28.734798;,
 4.636944;-1.936688;28.734798;,
 4.636944;-1.936688;28.734798;,
 4.636944;-1.936688;28.734798;,
 2.483563;-1.868443;28.920872;,
 2.483563;-1.868443;28.920872;,
 2.483563;-1.868443;28.920872;,
 2.483563;-1.868443;28.920872;,
 2.475292;-1.999992;26.924641;,
 2.475292;-1.999992;26.924641;,
 2.475292;-1.999992;26.924641;,
 2.475292;-1.999992;26.924641;,
 1.877838;-2.168836;24.246550;,
 1.877838;-2.168836;24.246550;,
 1.877838;-2.168836;24.246550;,
 1.877838;-2.168836;24.246550;,
 1.877838;-2.168836;24.246550;,
 1.877838;-2.168836;24.246550;,
 0.734222;-2.331529;21.201002;,
 0.734222;-2.331529;21.201002;,
 0.734222;-2.331529;21.201002;,
 0.734222;-2.331529;21.201002;,
 0.734222;-2.331529;21.201002;,
 0.734222;-2.331529;21.201002;,
 0.734222;-2.331529;21.201002;,
 1.782084;-2.423767;19.160685;,
 1.782084;-2.423767;19.160685;,
 1.782084;-2.423767;19.160685;,
 1.782084;-2.423767;19.160685;,
 2.082564;-1.911608;17.517607;,
 2.082564;-1.911608;17.517607;,
 2.082564;-1.911608;17.517607;,
 2.082564;-1.911608;17.517607;,
 0.186988;-2.641109;16.974115;,
 0.186988;-2.641109;16.974115;,
 0.186988;-2.641109;16.974115;,
 0.186988;-2.641109;16.974115;,
 0.186988;-2.641109;16.974115;,
 -0.420015;-2.272897;14.710624;,
 -0.420015;-2.272897;14.710624;,
 -0.420015;-2.272897;14.710624;,
 -0.420015;-2.272897;14.710624;,
 -0.420015;-2.272897;14.710624;,
 -0.420015;-2.272897;14.710624;,
 1.308127;-2.482981;13.649005;,
 1.308127;-2.482981;13.649005;,
 1.308127;-2.482981;13.649005;,
 -0.044668;-2.589724;12.326560;,
 -0.044668;-2.589724;12.326560;,
 -0.044668;-2.589724;12.326560;,
 -0.044668;-2.589724;12.326560;,
 -0.044668;-2.589724;12.326560;,
 0.303442;-2.381810;10.557654;,
 0.303442;-2.381810;10.557654;,
 0.303442;-2.381810;10.557654;,
 0.945691;-1.509195;8.700933;,
 0.945691;-1.509195;8.700933;,
 0.945691;-1.509195;8.700933;,
 0.945691;-1.509195;8.700933;,
 0.945691;-1.509195;8.700933;,
 0.945691;-1.509195;8.700933;,
 0.945691;-1.509195;8.700933;,
 0.093137;-2.401046;6.571136;,
 0.093137;-2.401046;6.571136;,
 0.093137;-2.401046;6.571136;,
 0.093137;-2.401046;6.571136;,
 0.757333;-1.661168;5.313881;,
 0.757333;-1.661168;5.313881;,
 0.757333;-1.661168;5.313881;,
 0.831677;-1.832990;3.750660;,
 0.831677;-1.832990;3.750660;,
 0.831677;-1.832990;3.750660;,
 0.831677;-1.832990;3.750660;,
 0.831677;-1.832990;3.750660;,
 0.514656;-2.060689;2.007378;,
 0.514656;-2.060689;2.007378;,
 0.514656;-2.060689;2.007378;,
 0.514656;-2.060689;2.007378;,
 0.514656;-2.060689;2.007378;,
 0.374866;-2.667208;0.000004;,
 0.374866;-2.667208;0.000004;,
 47.490646;-2.297087;56.100010;,
 47.490646;-1.879642;58.578133;,
 47.490646;-2.297087;56.100010;,
 47.490643;-0.300212;53.990635;,
 1.646740;-1.879642;0.000004;,
 -0.831383;-2.297087;0.000004;,
 -2.012634;-1.509244;0.000004;,
 -3.593880;1.273788;0.000001;,
 5.061092;2.165764;-0.003827;,
 -4.943878;2.190999;0.002290;,
 -2.940758;-0.300212;0.000001;,
 0.374866;-2.667208;0.000004;,
 3.906116;1.458588;0.000003;,
 -4.531380;2.181002;-0.003913;,
 2.831116;-1.173311;0.000004;,
 4.942871;1.990434;0.353012;,
 -5.036301;1.920778;1.462876;,
 1.919155;-1.072042;1.055809;,
 4.978192;2.058909;1.979511;,
 -2.099460;-1.298255;1.474785;,
 0.514656;-2.060689;2.007378;,
 3.189366;0.665183;1.727218;,
 2.499218;-0.634391;2.840770;,
 5.013505;2.175880;3.537387;,
 -5.000984;2.007164;3.059701;,
 -2.917041;-0.647274;3.135358;,
 -1.434696;-1.680681;3.722348;,
 3.493412;0.924229;3.581424;,
 0.831677;-1.832990;3.750660;,
 5.065816;2.452955;5.704680;,
 -4.961108;2.509720;4.756715;,
 -3.519988;0.926672;5.260796;,
 -2.853400;-0.901006;5.240918;,
 0.757333;-1.661168;5.313881;,
 2.531171;-0.931943;4.899791;,
 -0.994125;-2.119955;5.230198;,
 3.570630;0.927415;5.403308;,
 -1.979129;-1.743437;6.641224;,
 0.093137;-2.401046;6.571136;,
 1.820645;-1.326688;6.512687;,
 -3.706676;1.288239;7.056466;,
 5.138021;2.586065;8.366146;,
 -4.891757;3.017339;7.459908;,
 -3.110934;-0.368390;7.387246;,
 -2.494513;-1.695336;8.068429;,
 -0.673178;-2.426869;7.901878;,
 3.226381;-0.257421;7.357139;,
 3.875806;1.081914;8.118526;,
 -4.823157;2.436793;9.568819;,
 0.945691;-1.509195;8.700933;,
 -3.676589;1.244555;9.486910;,
 -1.381300;-2.186301;9.444928;,
 5.259134;2.390182;10.630722;,
 -2.903811;-0.562147;10.086328;,
 0.303442;-2.381810;10.557654;,
 1.666273;-1.066019;10.277661;,
 3.268194;-0.331812;9.544006;,
 4.568090;1.506800;9.604141;,
 -4.707853;2.191728;11.425758;,
 -1.683222;-1.801881;11.323688;,
 -0.044668;-2.589724;12.326560;,
 -3.043352;0.650893;11.964221;,
 3.896711;0.755548;11.648920;,
 -4.518755;3.078102;13.442608;,
 -1.717245;-1.275276;13.271640;,
 5.427946;2.339456;12.412567;,
 1.891039;-1.605533;12.396735;,
 3.106146;-0.427941;12.468951;,
 1.308127;-2.482981;13.649005;,
 5.583364;2.635973;13.896790;,
 -4.341867;4.031240;15.112045;,
 -2.747644;0.434247;14.141936;,
 4.310202;1.359808;13.880627;,
 -3.322157;2.299349;14.510715;,
 -1.815237;-1.204256;15.141452;,
 -0.420015;-2.272897;14.710624;,
 3.509073;-0.444529;14.703787;,
 5.779875;2.663670;15.383442;,
 -4.115674;3.606533;16.812864;,
 1.964903;-1.844994;15.730464;,
 -2.790418;1.233701;16.563189;,
 4.393485;1.328053;15.598339;,
 -2.286744;-0.530997;16.958090;,
 -1.250833;-2.117402;17.332346;,
 0.186988;-2.641109;16.974115;,
 2.082564;-1.911608;17.517607;,
 3.630111;-0.045906;17.100454;,
 6.102920;2.629073;17.410194;,
 -3.803426;2.390155;18.755835;,
 -1.804441;-1.201228;18.408415;,
 1.782084;-2.423767;19.160685;,
 3.212127;-1.136847;19.022013;,
 6.340137;2.483959;19.313032;,
 -2.214864;0.878209;19.423613;,
 -0.372575;-2.279892;19.456163;,
 6.438690;2.178168;20.798807;,
 -3.548447;1.916355;21.121431;,
 -1.987828;0.699593;21.597521;,
 -1.459176;-1.049383;20.711126;,
 4.052047;0.655548;20.040026;,
 4.837707;2.363018;19.533989;,
 3.426414;-1.136479;21.182894;,
 0.734222;-2.331529;21.201002;,
 5.058753;1.917232;21.747101;,
 -3.340462;2.268450;23.764883;,
 -1.069805;-0.783451;23.398100;,
 2.946205;-2.021022;22.708990;,
 6.649757;2.104295;23.092459;,
 0.425033;-1.615742;23.831106;,
 4.538246;0.295248;22.814484;,
 -1.537781;0.419270;24.907663;,
 1.877838;-2.168836;24.246550;,
 4.097576;-1.382113;24.315790;,
 -2.919586;2.386238;26.278908;,
 -0.830723;-0.406932;25.918772;,
 5.320114;0.493655;24.595207;,
 0.388161;-1.496059;26.078381;,
 -1.172939;1.007627;27.171970;,
 -0.421318;-0.380372;27.809540;,
 2.475292;-1.999992;26.924641;,
 7.259285;2.260880;25.827452;,
 -2.306480;2.737440;28.769524;,
 4.349709;-1.503199;26.482235;,
 -0.898105;1.855374;29.607994;,
 0.719361;-1.480649;28.697254;,
 2.483563;-1.868443;28.920872;,
 5.616471;0.227378;26.843948;,
 7.704991;2.149972;27.598742;,
 -0.181312;0.327472;29.939438;,
 5.494259;-0.518625;28.556702;,
 8.093553;2.418654;29.290577;,
 -1.716479;2.769287;31.219501;,
 1.394837;-1.433335;30.543854;,
 3.800683;-2.686602;29.807138;,
 4.636944;-1.936688;28.734798;,
 6.462777;1.308811;29.164022;,
 -0.214412;1.368699;31.541199;,
 0.576661;-0.544582;31.531013;,
 2.776917;-1.870443;30.938717;,
 6.188516;0.203766;30.317993;,
 -1.142493;2.314754;33.344604;,
 2.305639;-1.367473;32.477776;,
 4.605802;-2.379799;31.474400;,
 5.841126;-1.364499;31.348534;,
 7.182076;2.090927;30.653109;,
 8.691934;2.891164;31.232012;,
 1.638929;-0.605950;33.584103;,
 0.901498;0.754553;34.070011;,
 6.352701;-1.038025;33.189926;,
 9.397622;2.616933;32.944656;,
 -0.239092;1.813180;35.793999;,
 6.853486;0.484785;32.544827;,
 4.698598;-1.516751;33.964664;,
 7.954614;1.861732;33.123642;,
 1.684641;1.495698;36.776890;,
 3.267641;-1.561041;35.245152;,
 6.235780;-1.143015;34.886311;,
 0.557337;1.954305;37.694828;,
 2.606863;-0.166978;36.583244;,
 5.031008;-2.138321;36.359863;,
 7.920881;-0.002230;34.770420;,
 10.080094;1.868295;34.512035;,
 3.813440;-1.585984;37.518852;,
 3.246965;-0.161119;38.314255;,
 9.253862;0.973311;36.052776;,
 1.524435;2.054352;39.811924;,
 2.576242;1.511245;38.669842;,
 6.084093;-2.104425;37.747906;,
 7.718668;-1.248994;36.229855;,
 10.932108;1.777410;36.286419;,
 3.634379;1.226898;40.704594;,
 4.465975;-1.033840;39.792332;,
 6.204112;-1.918706;39.693871;,
 9.477404;0.030321;37.574902;,
 2.598155;1.978975;41.895760;,
 8.070292;-1.568040;38.595097;,
 4.509406;0.649418;41.955223;,
 11.759821;2.160749;37.791660;,
 5.397757;-0.890718;41.837189;,
 6.768382;-1.563877;41.265247;,
 8.449930;-1.508842;40.251652;,
 12.654467;2.400172;39.225506;,
 3.678519;2.488661;43.740082;,
 5.087611;0.830329;43.510750;,
 8.211642;-1.659544;41.721420;,
 10.504328;-0.718270;39.521225;,
 9.667850;-1.985919;41.431522;,
 11.552629;0.993861;39.867016;,
 6.749995;-1.001855;43.101673;,
 4.856318;2.648381;45.552231;,
 6.693507;0.427355;44.962101;,
 7.938441;-0.773489;44.670135;,
 8.966899;-2.102201;43.401154;,
 10.768916;-2.573330;42.610798;,
 11.543391;-1.014998;41.412769;,
 13.787012;2.634420;40.896809;,
 7.381412;0.776204;46.756508;,
 6.201633;2.814018;47.467918;,
 10.088199;-2.076953;45.105118;,
 11.358424;-2.725419;44.131817;,
 12.512607;-1.136870;43.227859;,
 12.992297;0.495338;42.167458;,
 8.469871;-0.298976;46.677479;,
 10.141612;-1.377093;46.424618;,
 15.138148;2.949470;42.698330;,
 8.255001;1.448012;48.254890;,
 7.958416;3.012639;49.644501;,
 9.698460;-0.467443;47.815300;,
 11.515056;-2.212818;46.446762;,
 12.581813;-2.608619;45.489231;,
 13.399394;-1.391236;44.755360;,
 13.854495;0.015369;44.044678;,
 16.216015;2.860989;43.821812;,
 14.757388;1.319104;43.874001;,
 9.580799;2.631658;51.285328;,
 10.586597;0.741371;49.666992;,
 11.333820;-1.047286;48.507343;,
 13.474701;-2.277330;47.388996;,
 14.671367;-0.575544;45.745640;,
 15.879743;1.577685;45.046581;,
 12.741055;-1.482546;49.604717;,
 14.425545;-2.190519;48.949295;,
 11.231762;2.271961;52.730953;,
 12.629841;0.150149;51.010902;,
 16.043526;0.550838;46.555264;,
 17.684444;2.387763;45.105103;,
 16.407314;-0.735486;47.502514;,
 13.797047;1.161088;52.583698;,
 14.391460;-0.594865;51.957508;,
 14.041634;-1.594255;50.869663;,
 15.939816;-2.002294;48.128315;,
 19.389648;1.818960;46.442730;,
 15.868858;-2.185983;50.067257;,
 13.331578;2.619819;54.388062;,
 15.162865;0.319349;53.025059;,
 15.580667;-1.458356;52.462704;,
 17.494762;-2.428608;49.873974;,
 20.949337;2.015129;47.613281;,
 15.565867;1.690321;54.371990;,
 18.169403;-1.139065;49.047131;,
 18.868561;0.937223;48.151905;,
 16.535477;0.401119;54.232685;,
 17.428707;-1.416434;53.213551;,
 17.651245;-2.070858;51.505260;,
 15.511157;2.420132;55.969189;,
 20.135513;0.416456;49.190151;,
 17.392889;1.989036;57.105137;,
 18.106125;0.150399;55.111607;,
 19.799347;-1.609681;51.180607;,
 22.546646;2.733640;48.533749;,
 18.726315;1.091871;56.218807;,
 19.330582;-1.110540;53.324238;,
 21.036709;-0.321754;50.177952;,
 19.479109;2.130498;58.038013;,
 20.184137;1.208394;56.891232;,
 21.069462;-0.425366;55.160416;,
 21.893456;-1.119840;53.027271;,
 22.432266;-0.805062;51.640175;,
 22.549286;1.191537;49.879436;,
 21.318659;2.407269;58.718082;,
 22.919128;-1.185573;54.215984;,
 24.683083;2.922823;49.321129;,
 22.178621;1.391046;57.561146;,
 22.898590;-0.391186;56.403828;,
 24.421524;0.266267;51.593937;,
 22.966799;2.612673;59.244968;,
 24.401131;-1.641701;54.680489;,
 24.709854;-0.918904;52.762985;,
 26.785278;2.510978;49.951366;,
 24.109415;1.579415;58.308620;,
 24.519655;2.714966;59.698841;,
 24.920336;-0.085494;57.575287;,
 25.064079;-1.307549;56.408939;,
 25.953964;-2.083912;54.683887;,
 25.509027;1.852015;58.871929;,
 26.703636;-1.312931;53.570980;,
 26.803825;-0.240578;52.280643;,
 26.172050;1.353386;50.859493;,
 29.132439;2.199791;50.591473;,
 28.649071;1.141906;51.732082;,
 26.479136;2.633336;60.233219;,
 26.906557;0.371293;58.527164;,
 27.739578;-2.172101;55.233089;,
 27.392809;-1.474681;57.080364;,
 29.111938;-0.068989;52.727932;,
 28.566805;2.495055;60.733654;,
 29.526680;-1.737488;56.104797;,
 28.718315;-1.294288;54.139736;,
 31.953102;2.263137;51.186939;,
 29.603838;-1.241771;57.782383;,
 29.191957;0.933629;59.181339;,
 30.754692;1.309365;52.379841;,
 30.321215;2.685417;61.056713;,
 30.566126;-0.283454;58.760021;,
 31.351877;-1.699481;57.229591;,
 31.350990;-1.729530;55.087551;,
 31.961540;-0.500304;53.822704;,
 32.024399;3.031887;61.301132;,
 31.886919;1.344653;59.814999;,
 32.934975;-1.987964;57.812267;,
 33.385513;-1.352064;54.475945;,
 33.323982;1.133628;53.083828;,
 32.792488;-0.890954;59.278912;,
 34.108627;2.540591;51.486908;,
 33.547142;-2.063438;56.155132;,
 34.235085;-0.262266;53.835842;,
 33.792175;3.042147;61.517780;,
 34.445396;-0.465554;59.686230;,
 35.794312;2.636152;51.671711;,
 33.779854;0.851461;59.995564;,
 35.233109;-1.303183;54.651379;,
 35.174644;1.521264;53.174553;,
 34.921227;-1.760811;58.632431;,
 35.253510;-2.075396;56.550411;,
 35.589668;2.980089;61.694729;,
 35.887115;0.655441;60.296211;,
 36.134193;-2.393950;57.877148;,
 36.341423;0.370154;53.772282;,
 36.849327;-0.885721;54.560978;,
 38.279732;2.037992;51.940559;,
 36.935753;-1.438353;59.236172;,
 37.403870;2.755888;61.896286;,
 38.280540;1.725919;61.044460;,
 37.351654;0.205415;60.266811;,
 38.128342;-2.166639;58.464668;,
 37.558792;-1.810629;56.545055;,
 38.723122;-0.722987;59.403564;,
 38.450554;0.981455;53.854752;,
 39.334061;2.385460;62.036400;,
 39.708626;-1.792691;58.122826;,
 39.693855;-1.794114;56.341972;,
 40.325661;0.548428;59.988400;,
 39.416389;-0.264929;54.771004;,
 40.810959;-0.726572;58.974285;,
 40.333366;2.628462;52.021263;,
 42.353798;2.904552;51.926331;,
 41.322556;-2.128923;57.403778;,
 41.016510;0.927432;53.889038;,
 41.397820;2.292518;61.948456;,
 41.783569;-2.416752;56.007729;,
 41.738846;-0.976388;55.018669;,
 42.174522;-1.206060;58.638412;,
 42.572823;1.801192;52.959450;,
 43.157173;-2.363154;57.676460;,
 43.084999;0.136253;54.079636;,
 44.682121;2.902601;51.972878;,
 43.297493;2.057353;61.907211;,
 42.997604;0.664369;59.859192;,
 43.867020;-1.174454;58.885513;,
 43.758919;-2.116694;55.602684;,
 44.902687;1.463109;53.222336;,
 44.963821;-1.987673;58.302391;,
 47.492931;2.190999;51.987514;,
 44.894897;1.883967;62.017212;,
 45.994102;-2.232537;56.966438;,
 45.801247;-0.571583;54.375980;,
 45.448395;-0.313658;59.697327;,
 46.256302;-1.501346;55.518955;,
 46.482224;1.727817;53.055519;,
 3.306118;0.222136;0.000004;,
 47.486816;2.165764;61.992485;,
 47.490646;0.222136;60.237511;,
 47.490646;-1.173311;59.762508;,
 47.490646;-2.667208;57.306259;,
 47.490646;-1.509244;54.918758;,
 47.490646;1.458588;60.837509;,
 47.490643;1.273788;53.337513;,
 47.486729;2.181002;52.400013;;

 605;
 4;560,565,573,567;,
 4;550,557,565,560;,
 4;547,22,17,555;,
 4;34,514,527,29;,
 4;513,512,521,524;,
 4;498,496,505,504;,
 4;492,491,499,494;,
 4;491,490,42,499;,
 4;49,487,498,46;,
 4;450,449,456,457;,
 4;433,81,79,441;,
 4;83,84,80,433;,
 4;85,89,424,82;,
 4;88,413,423,424;,
 4;284,287,296,292;,
 4;238,242,251,244;,
 4;241,240,247,250;,
 4;233,236,242,238;,
 4;212,234,241,207;,
 3;364,368,376;,
 3;345,359,360;,
 3;446,455,452;,
 3;307,315,310;,
 3;403,398,405;,
 3;360,359,368;,
 3;503,516,518;,
 3;429,437,430;,
 3;549,552,557;,
 3;462,461,465;,
 3;392,402,396;,
 3;430,437,438;,
 3;393,398,403;,
 3;506,516,503;,
 3;400,94,409;,
 3;107,102,400;,
 3;385,397,391;,
 3;562,561,568;,
 3;492,482,491;,
 3;449,453,456;,
 3;297,304,298;,
 3;376,379,384;,
 3;351,346,355;,
 3;381,372,380;,
 3;385,389,397;,
 3;261,195,271;,
 3;515,33,525;,
 3;393,391,398;,
 3;514,517,527;,
 3;448,459,453;,
 3;352,361,356;,
 3;499,511,506;,
 3;421,429,430;,
 3;130,124,358;,
 3;260,259,266;,
 3;347,352,356;,
 3;310,315,318;,
 3;273,278,276;,
 3;352,362,361;,
 3;41,43,39;,
 3;465,468,469;,
 3;515,38,32;,
 3;387,386,393;,
 3;469,474,477;,
 3;508,513,517;,
 3;13,558,566;,
 3;180,177,294;,
 3;151,145,337;,
 3;365,372,369;,
 3;59,53,482;,
 3;484,485,489;,
 3;37,509,31;,
 3;339,347,353;,
 3;254,194,261;,
 3;244,262,256;,
 3;162,309,158;,
 3;449,448,453;,
 3;141,339,353;,
 3;498,504,501;,
 3;436,435,444;,
 3;45,498,501;,
 3;331,339,144;,
 3;482,52,51;,
 3;432,435,436;,
 3;310,318,322;,
 3;327,150,337;,
 3;509,514,30;,
 3;394,393,403;,
 3;476,492,483;,
 3;347,356,353;,
 3;400,97,93;,
 3;237,211,206;,
 3;282,281,291;,
 3;323,329,331;,
 3;69,64,63;,
 3;44,501,40;,
 3;339,352,347;,
 3;106,387,101;,
 3;57,58,482;,
 3;294,171,166;,
 3;422,430,431;,
 3;387,393,394;,
 3;6,578,215;,
 3;457,456,462;,
 3;458,457,466;,
 3;292,296,302;,
 3;501,504,509;,
 3;477,480,484;,
 3;391,397,398;,
 3;484,480,485;,
 3;460,467,473;,
 3;383,114,111;,
 3;527,531,28;,
 3;16,551,558;,
 3;21,544,551;,
 3;125,123,118;,
 3;27,531,26;,
 3;56,482,479;,
 3;428,434,427;,
 3;551,556,558;,
 3;467,62,55;,
 3;398,404,405;,
 3;470,478,475;,
 3;396,402,410;,
 3;239,245,246;,
 3;338,346,351;,
 3;165,161,306;,
 3;478,477,484;,
 3;323,331,149;,
 3;499,502,511;,
 3;266,274,188;,
 3;469,468,474;,
 3;245,257,255;,
 3;276,286,279;,
 3;405,404,412;,
 3;388,105,400;,
 3;331,333,339;,
 3;270,281,282;,
 3;457,462,466;,
 3;339,343,352;,
 3;232,229,210;,
 3;520,515,525;,
 3;571,568,576;,
 3;479,482,492;,
 3;176,289,298;,
 3;294,164,301;,
 3;353,356,129;,
 3;502,36,511;,
 3;413,417,418;,
 3;568,575,580;,
 3;110,386,387;,
 3;544,548,551;,
 3;296,301,302;,
 3;509,517,514;,
 3;368,375,376;,
 3;331,329,333;,
 3;5,579,1;,
 3;407,417,413;,
 3;466,470,471;,
 3;511,35,515;,
 3;379,388,384;,
 3;370,377,113;,
 3;259,268,266;,
 3;405,412,411;,
 3;232,209,237;,
 3;407,413,87;,
 3;518,516,526;,
 3;237,205,249;,
 3;359,366,368;,
 3;506,511,516;,
 3;362,355,365;,
 3;407,406,417;,
 3;324,321,327;,
 3;140,353,348;,
 3;409,92,415;,
 3;535,538,541;,
 3;507,512,513;,
 3;227,236,230;,
 3;538,537,546;,
 3;377,378,386;,
 3;343,351,352;,
 3;409,415,416;,
 3;431,430,438;,
 3;377,386,109;,
 3;276,288,286;,
 3;531,527,535;,
 3;398,397,404;,
 3;508,517,509;,
 3;246,245,255;,
 3;61,471,54;,
 3;322,324,330;,
 3;455,460,452;,
 3;251,261,244;,
 3;532,533,542;,
 3;537,543,546;,
 3;538,536,537;,
 3;559,12,570;,
 3;493,506,503;,
 3;460,68,467;,
 3;436,444,76;,
 3;128,356,122;,
 3;436,75,78;,
 3;277,282,287;,
 3;324,327,330;,
 3;343,338,351;,
 3;385,391,386;,
 3;352,351,362;,
 3;565,570,581;,
 3;478,484,486;,
 3;281,294,291;,
 3;562,568,571;,
 3;281,179,294;,
 3;388,400,392;,
 3;419,428,427;,
 3;351,355,362;,
 3;410,428,419;,
 3;558,563,566;,
 3;539,544,20;,
 3;67,60,467;,
 3;542,547,552;,
 3;373,378,377;,
 3;148,331,143;,
 3;320,325,329;,
 3;277,287,280;,
 3;511,515,520;,
 3;555,11,559;,
 3;416,426,428;,
 3;484,489,486;,
 3;259,258,268;,
 3;246,255,258;,
 3;410,416,428;,
 3;247,246,258;,
 3;402,416,410;,
 3;240,239,246;,
 3;302,301,315;,
 3;279,286,289;,
 3;318,314,324;,
 3;547,555,552;,
 3;268,276,274;,
 3;373,369,381;,
 3;289,286,297;,
 3;368,366,375;,
 3;240,246,247;,
 3;100,96,400;,
 3;435,438,444;,
 3;517,513,524;,
 3;516,511,520;,
 3;422,420,430;,
 3;274,279,185;,
 3;370,373,377;,
 3;417,420,422;,
 3;376,375,379;,
 3;416,415,426;,
 3;531,535,539;,
 3;517,522,527;,
 3;384,388,392;,
 3;392,400,402;,
 3;455,66,460;,
 3;278,288,276;,
 3;505,507,513;,
 3;470,465,469;,
 3;288,293,295;,
 3;157,313,320;,
 3;287,291,296;,
 3;471,470,475;,
 3;309,304,313;,
 3;558,556,563;,
 3;202,250,199;,
 3;175,298,170;,
 3;320,329,323;,
 3;546,543,553;,
 3;470,469,477;,
 3;541,548,544;,
 3;402,400,409;,
 3;402,409,416;,
 3;426,433,428;,
 3;562,571,563;,
 3;254,198,193;,
 3;99,98,95;,
 3;301,314,315;,
 3;521,529,524;,
 3;363,117,375;,
 3;432,436,77;,
 3;463,466,471;,
 3;401,407,91;,
 3;452,460,464;,
 3;524,529,530;,
 3;321,156,147;,
 3;399,407,401;,
 3;348,353,127;,
 3;329,332,333;,
 3;531,539,25;,
 3;15,558,10;,
 3;197,260,192;,
 3;553,561,562;,
 3;293,303,295;,
 3;460,473,464;,
 3;518,526,523;,
 3;301,163,306;,
 3;230,236,233;,
 3;321,146,327;,
 3;90,407,86;,
 3;383,104,388;,
 3;456,459,462;,
 3;538,546,541;,
 3;523,526,534;,
 3;466,462,470;,
 3;142,339,139;,
 3;408,414,415;,
 3;406,405,417;,
 3;249,201,254;,
 3;556,562,563;,
 3;563,571,566;,
 3;137,138,348;,
 3;373,381,378;,
 3;541,546,548;,
 3;360,368,364;,
 3;427,434,440;,
 3;428,433,434;,
 3;366,363,375;,
 3;470,477,478;,
 3;271,282,277;,
 3;19,551,14;,
 3;316,321,324;,
 3;552,559,557;,
 3;403,406,407;,
 3;191,266,187;,
 3;108,103,383;,
 3;496,500,505;,
 3;382,387,390;,
 3;450,457,458;,
 3;301,306,314;,
 3;116,112,383;,
 3;386,391,393;,
 3;312,319,320;,
 3;169,298,309;,
 3;72,458,65;,
 3;433,439,434;,
 3;325,328,332;,
 3;295,303,308;,
 3;394,403,399;,
 3;9,4,0;,
 3;316,155,321;,
 3;356,370,121;,
 3;271,277,272;,
 3;411,420,417;,
 3;420,421,430;,
 3;378,381,386;,
 3;186,274,184;,
 3;440,455,446;,
 3;566,571,578;,
 3;548,562,556;,
 3;495,500,496;,
 3;308,311,312;,
 3;399,403,407;,
 3;204,250,200;,
 3;327,337,330;,
 3;300,168,160;,
 3;434,439,440;,
 3;412,420,411;,
 3;482,50,48;,
 3;481,487,47;,
 3;412,421,420;,
 3;167,309,159;,
 3;381,385,386;,
 3;214,234,208;,
 3;332,328,336;,
 3;482,488,490;,
 3;458,466,463;,
 3;550,549,557;,
 3;270,269,281;,
 3;486,496,498;,
 3;492,494,493;,
 3;441,454,455;,
 3;445,71,454;,
 3;380,389,385;,
 3;439,441,455;,
 3;318,324,322;,
 3;441,445,454;,
 3;136,358,354;,
 3;374,377,382;,
 4;570,572,579,218;,
 3;530,529,536;,
 3;557,559,565;,
 3;533,547,542;,
 3;279,289,174;,
 3;530,536,538;,
 3;325,332,329;,
 3;265,273,276;,
 3;444,458,74;,
 3;344,354,350;,
 3;494,506,493;,
 3;490,497,502;,
 3;354,358,366;,
 3;154,323,326;,
 3;537,536,543;,
 3;330,337,341;,
 3;362,373,370;,
 3;356,361,370;,
 3;303,311,308;,
 3;442,448,449;,
 3;527,530,535;,
 3;418,422,431;,
 3;381,380,385;,
 3;304,308,313;,
 3;265,276,268;,
 3;341,344,350;,
 3;227,232,236;,
 3;539,535,541;,
 3;344,135,354;,
 3;319,328,325;,
 3;262,271,272;,
 3;571,577,216;,
 3;337,134,344;,
 3;362,365,369;,
 3;297,295,308;,
 3;505,513,508;,
 3;552,555,559;,
 3;464,473,476;,
 3;190,270,271;,
 3;286,295,297;,
 3;369,372,381;,
 3;8,572,570;,
 3;361,362,370;,
 3;320,319,325;,
 3;261,271,262;,
 3;263,273,265;,
 3;488,497,490;,
 3;489,495,496;,
 3;153,320,323;,
 3;298,304,309;,
 3;332,338,333;,
 3;337,344,341;,
 3;437,442,438;,
 3;269,183,281;,
 3;302,315,307;,
 3;314,316,324;,
 3;308,312,313;,
 3;333,338,343;,
 3;566,578,3;,
 3;467,472,473;,
 3;453,459,456;,
 3;437,448,442;,
 3;375,383,379;,
 3;313,312,320;,
 3;559,570,565;,
 3;510,501,509;,
 3;482,490,491;,
 3;311,319,312;,
 3;244,261,262;,
 3;548,546,562;,
 3;387,394,395;,
 3;534,542,549;,
 3;258,265,268;,
 3;242,249,251;,
 3;257,263,265;,
 3;250,260,196;,
 3;485,495,489;,
 3;255,265,258;,
 3;473,472,479;,
 3;546,553,562;,
 3;250,252,260;,
 3;405,411,417;,
 3;249,261,251;,
 3;334,340,133;,
 3;459,461,462;,
 3;522,524,530;,
 3;473,479,476;,
 3;440,439,455;,
 3;286,288,295;,
 3;342,341,350;,
 3;555,554,7;,
 3;574,229,232;,
 3;487,486,498;,
 3;476,479,492;,
 3;255,257,265;,
 3;500,507,505;,
 3;571,576,577;,
 3;542,552,549;,
 3;431,438,435;,
 3;551,548,556;,
 3;282,291,287;,
 3;237,249,242;,
 3;462,465,470;,
 3;461,468,465;,
 3;182,279,173;,
 3;354,366,359;,
 3;517,524,522;,
 3;522,530,527;,
 3;291,301,296;,
 3;260,266,189;,
 3;236,232,237;,
 3;236,237,242;,
 3;272,277,267;,
 3;228,231,239;,
 3;337,334,132;,
 3;222,228,240;,
 3;256,262,272;,
 3;564,566,2;,
 3;525,528,24;,
 3;224,231,228;,
 3;504,508,509;,
 3;444,438,443;,
 3;443,449,450;,
 3;478,487,481;,
 3;475,478,481;,
 3;438,442,443;,
 3;248,253,254;,
 3;516,520,526;,
 3;433,441,439;,
 3;532,542,534;,
 3;223,227,230;,
 3;218,581,570;,
 3;474,480,477;,
 3;413,418,423;,
 3;417,422,418;,
 3;375,115,383;,
 3;483,492,493;,
 3;444,443,450;,
 3;274,276,279;,
 3;271,270,282;,
 3;486,489,496;,
 3;120,374,371;,
 3;520,532,526;,
 3;131,126,358;,
 3;203,248,249;,
 3;539,541,544;,
 3;228,239,240;,
 3;23,539,18;,
 3;525,533,532;,
 3;520,525,532;,
 3;530,538,535;,
 3;332,336,338;,
 3;582,567,573;,
 3;335,341,342;,
 3;519,528,525;,
 3;525,540,533;,
 3;418,431,423;,
 3;297,308,304;,
 3;221,225,234;,
 3;264,269,270;,
 3;362,369,373;,
 3;305,152,316;,
 3;395,394,399;,
 3;358,119,363;,
 3;306,316,314;,
 3;504,505,508;,
 3;322,330,335;,
 3;336,346,338;,
 3;415,425,426;,
 3;444,450,458;,
 3;367,370,374;,
 3;350,354,359;,
 3;281,181,178;,
 3;423,431,432;,
 3;403,405,406;,
 3;342,350,345;,
 3;243,241,250;,
 3;315,314,318;,
 3;280,287,284;,
 3;267,277,280;,
 3;330,341,335;,
 3;345,350,359;,
 3;431,435,432;,
 3;73,458,70;,
 3;256,272,267;,
 3;250,247,252;,
 3;252,259,260;,
 3;289,297,298;,
 3;309,313,317;,
 3;234,240,241;,
 3;275,172,283;,
 3;426,425,433;,
 3;443,442,449;,
 3;349,348,357;,
 3;445,447,451;,
 3;249,254,261;,
 3;526,532,534;,
 3;247,258,252;,
 3;358,363,366;,
 3;379,383,388;,
 3;291,294,301;,
 3;290,299,294;,
 3;266,268,274;,
 3;573,581,582;,
 3;565,581,573;,
 3;306,305,316;,
 3;278,285,288;,
 3;288,285,293;,
 3;533,540,547;,
 3;333,343,339;,
 3;478,486,487;,
 3;494,499,506;,
 3;252,258,259;,
 3;424,423,432;,
 3;540,545,547;,
 3;235,229,219;,
 3;240,234,225;,
 3;234,213,220;,
 3;220,221,234;,
 3;219,226,235;,
 3;225,222,240;,
 3;232,227,574;,
 3;217,579,569;,
 3;216,578,571;,
 3;580,576,568;;

 MeshMaterialList {
  2;
  605;
  0,
  0,
  0,
  1,
  1,
  1,
  0,
  0,
  1,
  1,
  0,
  0,
  1,
  1,
  0,
  0,
  1,
  0,
  1,
  0,
  0,
  0,
  0,
  1,
  0,
  0,
  1,
  0,
  1,
  0,
  1,
  1,
  0,
  0,
  0,
  1,
  1,
  0,
  1,
  1,
  0,
  1,
  1,
  1,
  0,
  0,
  1,
  1,
  1,
  1,
  0,
  1,
  0,
  1,
  1,
  0,
  1,
  1,
  0,
  1,
  0,
  1,
  1,
  1,
  1,
  0,
  0,
  1,
  0,
  1,
  1,
  1,
  0,
  0,
  1,
  1,
  1,
  1,
  1,
  1,
  1,
  0,
  1,
  0,
  0,
  1,
  1,
  0,
  1,
  0,
  0,
  0,
  1,
  0,
  1,
  1,
  1,
  0,
  0,
  1,
  1,
  1,
  1,
  1,
  0,
  1,
  1,
  1,
  1,
  0,
  0,
  1,
  1,
  1,
  1,
  1,
  0,
  0,
  1,
  0,
  1,
  1,
  0,
  1,
  1,
  0,
  1,
  1,
  0,
  1,
  1,
  1,
  1,
  1,
  0,
  1,
  0,
  1,
  1,
  0,
  0,
  1,
  0,
  1,
  0,
  1,
  0,
  1,
  1,
  1,
  1,
  0,
  1,
  0,
  1,
  0,
  1,
  1,
  0,
  0,
  1,
  1,
  1,
  0,
  1,
  0,
  0,
  0,
  0,
  1,
  1,
  0,
  1,
  0,
  1,
  1,
  0,
  1,
  1,
  1,
  0,
  1,
  1,
  1,
  1,
  1,
  1,
  1,
  1,
  0,
  0,
  0,
  0,
  1,
  1,
  0,
  0,
  0,
  1,
  1,
  1,
  0,
  0,
  1,
  1,
  1,
  0,
  1,
  0,
  1,
  0,
  0,
  0,
  1,
  0,
  1,
  1,
  0,
  0,
  1,
  1,
  1,
  0,
  0,
  0,
  0,
  1,
  1,
  1,
  0,
  1,
  0,
  1,
  0,
  1,
  0,
  0,
  1,
  1,
  1,
  0,
  1,
  0,
  1,
  1,
  0,
  1,
  1,
  1,
  1,
  0,
  0,
  1,
  1,
  0,
  0,
  0,
  1,
  1,
  1,
  1,
  1,
  0,
  1,
  1,
  1,
  1,
  1,
  1,
  1,
  1,
  1,
  0,
  0,
  0,
  1,
  0,
  0,
  0,
  1,
  0,
  1,
  1,
  1,
  0,
  1,
  0,
  1,
  1,
  1,
  1,
  1,
  1,
  1,
  1,
  0,
  0,
  0,
  0,
  0,
  1,
  0,
  1,
  1,
  0,
  1,
  1,
  0,
  1,
  0,
  1,
  1,
  1,
  1,
  1,
  0,
  0,
  0,
  0,
  1,
  0,
  1,
  0,
  0,
  1,
  1,
  0,
  1,
  1,
  1,
  0,
  0,
  1,
  1,
  1,
  1,
  0,
  1,
  1,
  1,
  1,
  0,
  1,
  0,
  1,
  1,
  1,
  1,
  0,
  1,
  1,
  1,
  1,
  1,
  1,
  0,
  1,
  0,
  1,
  0,
  1,
  1,
  1,
  1,
  1,
  1,
  0,
  1,
  0,
  0,
  1,
  0,
  0,
  0,
  1,
  0,
  0,
  0,
  0,
  1,
  0,
  1,
  0,
  0,
  1,
  1,
  1,
  1,
  1,
  0,
  0,
  0,
  0,
  1,
  1,
  0,
  1,
  1,
  1,
  1,
  1,
  1,
  1,
  1,
  1,
  0,
  0,
  1,
  0,
  1,
  0,
  1,
  0,
  1,
  1,
  1,
  0,
  0,
  0,
  1,
  1,
  0,
  1,
  1,
  0,
  1,
  0,
  1,
  1,
  1,
  1,
  0,
  1,
  0,
  0,
  0,
  1,
  1,
  1,
  0,
  1,
  1,
  0,
  1,
  0,
  1,
  0,
  1,
  0,
  1,
  1,
  0,
  1,
  0,
  1,
  1,
  1,
  1,
  0,
  1,
  1,
  1,
  0,
  0,
  1,
  1,
  0,
  0,
  1,
  0,
  0,
  0,
  1,
  0,
  1,
  1,
  1,
  0,
  1,
  1,
  0,
  0,
  1,
  1,
  1,
  0,
  1,
  1,
  0,
  1,
  0,
  0,
  0,
  1,
  0,
  1,
  0,
  1,
  0,
  1,
  1,
  1,
  1,
  1,
  1,
  1,
  0,
  0,
  0,
  0,
  0,
  0,
  1,
  1,
  1,
  0,
  0,
  1,
  1,
  0,
  1,
  1,
  0,
  0,
  0,
  1,
  1,
  1,
  0,
  0,
  1,
  1,
  0,
  0,
  0,
  0,
  1,
  1,
  1,
  0,
  1,
  0,
  1,
  0,
  0,
  1,
  0,
  1,
  0,
  1,
  1,
  0,
  0,
  1,
  1,
  0,
  1,
  0,
  0,
  0,
  0,
  0,
  1,
  1,
  0,
  1,
  1,
  1,
  1,
  1,
  1,
  0,
  1,
  1,
  0,
  0,
  0,
  1,
  0,
  0,
  0,
  0,
  1,
  0,
  0,
  0,
  1,
  1,
  0,
  1,
  1,
  0,
  1,
  1,
  0,
  0,
  1,
  1,
  1,
  0,
  1,
  0,
  0,
  1,
  1;
Material {
 1.000000;1.000000;1.000000;1.000000;;
 50.000000;
 1.000000;1.000000;1.000000;;
 0.0; 0.0; 0.0;;
 TextureFilename {
  "rock.ppm";
 }
 }
Material {
 1.000000;1.000000;1.000000;1.000000;;
 50.000000;
 1.000000;1.000000;1.000000;;
 0.0; 0.0; 0.0;;
 TextureFilename {
  "rock.ppm";
 }
 }
}
 MeshNormals {
  583;
  0.010355;0.817941;0.575210;,
  0.010355;0.817941;0.575210;,
  0.166644;0.944076;0.284519;,
  0.166644;0.944076;0.284519;,
  0.166644;0.944076;0.284519;,
  0.166644;0.944076;0.284519;,
  0.166644;0.944076;0.284519;,
  -0.051956;0.869165;0.491786;,
  -0.051956;0.869165;0.491786;,
  -0.051956;0.869165;0.491786;,
  -0.051956;0.869165;0.491786;,
  -0.051956;0.869165;0.491786;,
  -0.051956;0.869165;0.491786;,
  -0.051956;0.869165;0.491786;,
  0.130731;0.941477;0.310693;,
  0.130731;0.941477;0.310693;,
  0.130731;0.941477;0.310693;,
  0.130731;0.941477;0.310693;,
  0.094878;0.957920;0.270900;,
  0.094878;0.957920;0.270900;,
  0.094878;0.957920;0.270900;,
  0.094878;0.957920;0.270900;,
  0.094878;0.957920;0.270900;,
  -0.110911;0.910547;0.398250;,
  -0.110911;0.910547;0.398250;,
  -0.110911;0.910547;0.398250;,
  -0.110911;0.910547;0.398250;,
  0.023577;0.982774;0.183301;,
  0.023577;0.982774;0.183301;,
  0.023577;0.982774;0.183301;,
  0.019440;0.983092;0.182078;,
  0.019440;0.983092;0.182078;,
  0.019440;0.983092;0.182078;,
  0.019440;0.983092;0.182078;,
  0.019440;0.983092;0.182078;,
  0.028220;0.939890;0.340308;,
  0.028220;0.939890;0.340308;,
  0.028220;0.939890;0.340308;,
  0.028220;0.939890;0.340308;,
  0.028220;0.939890;0.340308;,
  -0.147616;0.847709;0.509509;,
  -0.147616;0.847709;0.509509;,
  -0.147616;0.847709;0.509509;,
  -0.034971;0.996732;-0.072820;,
  -0.121492;0.980329;0.155547;,
  -0.121492;0.980329;0.155547;,
  -0.121492;0.980329;0.155547;,
  0.110650;0.977199;0.181215;,
  0.110650;0.977199;0.181215;,
  0.110650;0.977199;0.181215;,
  0.302139;0.952674;-0.033529;,
  0.302139;0.952674;-0.033529;,
  0.203386;0.976116;-0.076371;,
  0.203386;0.976116;-0.076371;,
  -0.316872;0.797586;0.513272;,
  -0.316872;0.797586;0.513272;,
  -0.316872;0.797586;0.513272;,
  -0.316872;0.797586;0.513272;,
  -0.032613;0.997718;-0.059119;,
  -0.032613;0.997718;-0.059119;,
  -0.261447;0.949658;0.172613;,
  -0.261447;0.949658;0.172613;,
  -0.261447;0.949658;0.172613;,
  -0.261447;0.949658;0.172613;,
  -0.114632;0.973390;-0.198424;,
  -0.510531;0.637036;0.577532;,
  -0.510531;0.637036;0.577532;,
  -0.510531;0.637036;0.577532;,
  -0.510531;0.637036;0.577532;,
  -0.510531;0.637036;0.577532;,
  -0.337953;0.930860;0.138877;,
  -0.337953;0.930860;0.138877;,
  -0.337953;0.930860;0.138877;,
  0.116898;0.986026;-0.118692;,
  0.116898;0.986026;-0.118692;,
  0.116898;0.986026;-0.118692;,
  0.116898;0.986026;-0.118692;,
  -0.256732;0.885232;0.387883;,
  -0.256732;0.885232;0.387883;,
  -0.256732;0.885232;0.387883;,
  -0.013668;0.999164;-0.038534;,
  -0.013668;0.999164;-0.038534;,
  -0.682956;0.588078;0.433285;,
  -0.682956;0.588078;0.433285;,
  -0.264212;0.961698;0.072994;,
  -0.687921;0.583432;0.431708;,
  -0.106140;0.991127;0.080014;,
  -0.106140;0.991127;0.080014;,
  -0.106140;0.991127;0.080014;,
  -0.106140;0.991127;0.080014;,
  -0.281520;0.892931;0.351312;,
  -0.281520;0.892931;0.351312;,
  -0.281520;0.892931;0.351312;,
  -0.281520;0.892931;0.351312;,
  -0.281520;0.892931;0.351312;,
  0.114412;0.945541;0.304734;,
  0.114412;0.945541;0.304734;,
  0.114412;0.945541;0.304734;,
  0.227571;0.973346;0.028442;,
  -0.093156;0.989726;0.108466;,
  -0.093156;0.989726;0.108466;,
  -0.093156;0.989726;0.108466;,
  -0.093156;0.989726;0.108466;,
  -0.381419;0.912284;0.149190;,
  -0.381419;0.912284;0.149190;,
  -0.381419;0.912284;0.149190;,
  -0.381419;0.912284;0.149190;,
  -0.381419;0.912284;0.149190;,
  0.012784;0.998384;-0.055369;,
  0.012784;0.998384;-0.055369;,
  0.012784;0.998384;-0.055369;,
  0.012784;0.998384;-0.055369;,
  -0.034794;0.988979;0.143910;,
  -0.034794;0.988979;0.143910;,
  -0.034794;0.988979;0.143910;,
  -0.396300;0.880850;0.258941;,
  -0.396300;0.880850;0.258941;,
  -0.396300;0.880850;0.258941;,
  -0.396300;0.880850;0.258941;,
  -0.174153;0.984708;-0.004476;,
  -0.174153;0.984708;-0.004476;,
  -0.174153;0.984708;-0.004476;,
  -0.174153;0.984708;-0.004476;,
  -0.174153;0.984708;-0.004476;,
  -0.174153;0.984708;-0.004476;,
  -0.612366;0.778769;0.136114;,
  -0.174454;0.971066;-0.163086;,
  -0.174454;0.971066;-0.163086;,
  -0.174454;0.971066;-0.163086;,
  -0.174454;0.971066;-0.163086;,
  -0.174454;0.971066;-0.163086;,
  -0.537595;0.811349;0.229576;,
  -0.537595;0.811349;0.229576;,
  -0.537595;0.811349;0.229576;,
  -0.537595;0.811349;0.229576;,
  -0.537595;0.811349;0.229576;,
  -0.537595;0.811349;0.229576;,
  -0.537595;0.811349;0.229576;,
  0.235841;0.968627;0.078359;,
  0.235841;0.968627;0.078359;,
  0.235841;0.968627;0.078359;,
  0.235841;0.968627;0.078359;,
  0.054184;0.998427;-0.014430;,
  0.054184;0.998427;-0.014430;,
  0.054184;0.998427;-0.014430;,
  0.054184;0.998427;-0.014430;,
  -0.002150;0.998045;-0.062468;,
  -0.002150;0.998045;-0.062468;,
  -0.002150;0.998045;-0.062468;,
  -0.002150;0.998045;-0.062468;,
  -0.002150;0.998045;-0.062468;,
  -0.002150;0.998045;-0.062468;,
  0.156245;0.982677;-0.099670;,
  0.156245;0.982677;-0.099670;,
  0.156245;0.982677;-0.099670;,
  0.156245;0.982677;-0.099670;,
  0.156245;0.982677;-0.099670;,
  0.156245;0.982677;-0.099670;,
  0.156245;0.982677;-0.099670;,
  -0.356769;0.934192;-0.001080;,
  -0.356769;0.934192;-0.001080;,
  -0.356769;0.934192;-0.001080;,
  -0.356769;0.934192;-0.001080;,
  -0.597992;0.790015;0.135215;,
  -0.597992;0.790015;0.135215;,
  -0.597992;0.790015;0.135215;,
  -0.597992;0.790015;0.135215;,
  -0.054890;0.996592;0.061571;,
  -0.054890;0.996592;0.061571;,
  -0.054890;0.996592;0.061571;,
  -0.054890;0.996592;0.061571;,
  -0.054890;0.996592;0.061571;,
  0.299373;0.954127;0.004146;,
  0.299373;0.954127;0.004146;,
  0.299373;0.954127;0.004146;,
  0.299373;0.954127;0.004146;,
  0.299373;0.954127;0.004146;,
  0.299373;0.954127;0.004146;,
  -0.341559;0.939813;0.009461;,
  -0.341559;0.939813;0.009461;,
  -0.341559;0.939813;0.009461;,
  0.120800;0.991810;0.041478;,
  0.120800;0.991810;0.041478;,
  0.120800;0.991810;0.041478;,
  0.120800;0.991810;0.041478;,
  0.120800;0.991810;0.041478;,
  -0.254267;0.956550;0.142688;,
  -0.254267;0.956550;0.142688;,
  -0.254267;0.956550;0.142688;,
  -0.458215;0.887818;-0.042640;,
  -0.458215;0.887818;-0.042640;,
  -0.458215;0.887818;-0.042640;,
  -0.458215;0.887818;-0.042640;,
  -0.458215;0.887818;-0.042640;,
  -0.458215;0.887818;-0.042640;,
  -0.458215;0.887818;-0.042640;,
  -0.329378;0.941226;0.074866;,
  -0.329378;0.941226;0.074866;,
  -0.329378;0.941226;0.074866;,
  -0.329378;0.941226;0.074866;,
  -0.364157;0.926975;0.090045;,
  -0.364157;0.926975;0.090045;,
  -0.364157;0.926975;0.090045;,
  -0.267203;0.963287;0.026104;,
  -0.267203;0.963287;0.026104;,
  -0.267203;0.963287;0.026104;,
  -0.267203;0.963287;0.026104;,
  -0.267203;0.963287;0.026104;,
  -0.381398;0.897765;-0.220348;,
  -0.381398;0.897765;-0.220348;,
  -0.381398;0.897765;-0.220348;,
  -0.381398;0.897765;-0.220348;,
  -0.381398;0.897765;-0.220348;,
  0.029325;0.947849;-0.317366;,
  0.029325;0.947849;-0.317366;,
  0.274714;0.869875;0.409695;,
  0.347538;0.801284;-0.486992;,
  0.274714;0.869875;0.409695;,
  0.161468;0.552398;0.817792;,
  -0.507655;0.835334;-0.210960;,
  0.421389;0.876828;-0.231525;,
  0.681978;0.728560;-0.064079;,
  0.817869;0.552194;0.161778;,
  -0.506436;0.828421;0.239252;,
  0.026573;0.982664;0.183482;,
  0.819221;0.573023;0.022834;,
  0.029325;0.947849;-0.317366;,
  -0.693935;0.718483;-0.047291;,
  0.268409;0.947534;0.173596;,
  -0.676590;0.516131;-0.525200;,
  -0.543130;0.828690;0.135210;,
  -0.266658;0.960579;0.078624;,
  -0.786179;0.531567;-0.315214;,
  -0.618047;0.785832;-0.022046;,
  0.508777;0.853482;-0.112755;,
  -0.381398;0.897765;-0.220348;,
  -0.716599;0.695775;0.048822;,
  -0.722176;0.688232;0.069271;,
  -0.649954;0.759494;-0.026984;,
  0.551533;0.828695;-0.095267;,
  0.763946;0.643414;0.049043;,
  0.356107;0.931087;0.079146;,
  -0.789767;0.612772;0.027912;,
  -0.267203;0.963287;0.026104;,
  -0.766376;0.642033;0.021493;,
  0.770718;0.623859;-0.129589;,
  0.865864;0.495315;-0.070308;,
  0.777479;0.627386;0.043733;,
  -0.364157;0.926975;0.090045;,
  -0.673267;0.738341;0.039553;,
  0.185112;0.972464;0.141586;,
  -0.800455;0.590854;0.100809;,
  0.601182;0.791846;0.107521;,
  -0.329378;0.941226;0.074866;,
  -0.511946;0.858932;-0.012126;,
  0.862696;0.504648;-0.032957;,
  -0.792244;0.603847;0.087848;,
  0.789237;0.613985;0.011298;,
  0.901403;0.432295;0.024355;,
  0.667990;0.743874;0.020974;,
  0.100454;0.994078;-0.041454;,
  -0.735892;0.676886;0.016991;,
  -0.830458;0.554293;0.055669;,
  0.720386;0.685576;0.105026;,
  -0.458215;0.887818;-0.042640;,
  0.838116;0.545491;0.001300;,
  0.276260;0.958833;-0.065728;,
  -0.784517;0.617839;0.052992;,
  0.842846;0.520206;-0.137828;,
  -0.254267;0.956550;0.142688;,
  -0.582612;0.804689;0.114192;,
  -0.698007;0.715723;0.022957;,
  -0.803516;0.589542;0.082478;,
  0.710243;0.696873;-0.099619;,
  0.613263;0.782183;-0.109990;,
  0.120800;0.991810;0.041478;,
  0.824194;0.538167;-0.176297;,
  -0.786748;0.617143;-0.012719;,
  0.708188;0.608805;-0.357528;,
  0.735067;0.674951;-0.064171;,
  -0.717293;0.696645;-0.013315;,
  -0.631389;0.757176;0.167429;,
  -0.743240;0.663052;0.089193;,
  -0.341559;0.939813;0.009461;,
  -0.702926;0.711259;-0.002598;,
  0.812867;0.547552;-0.198580;,
  0.911453;0.409214;-0.042390;,
  -0.796756;0.603779;0.025118;,
  0.864858;0.479212;-0.149585;,
  0.771748;0.634208;0.046746;,
  0.299373;0.954127;0.004146;,
  -0.799175;0.598968;0.050562;,
  -0.688313;0.719656;0.091218;,
  0.870805;0.487475;0.063767;,
  -0.542028;0.840141;0.019218;,
  0.906144;0.421730;-0.032365;,
  -0.792302;0.603984;0.086382;,
  0.913350;0.401540;-0.067505;,
  0.639711;0.768422;-0.017257;,
  -0.054890;0.996592;0.061571;,
  -0.597992;0.790015;0.135215;,
  -0.806723;0.590675;0.017330;,
  -0.578963;0.814847;0.028756;,
  0.757950;0.649547;0.060004;,
  0.841814;0.516884;-0.155501;,
  -0.356769;0.934192;-0.001080;,
  -0.794061;0.598711;0.104943;,
  -0.058244;0.987772;0.144618;,
  0.862843;0.498579;-0.083191;,
  0.406240;0.900049;-0.157736;,
  -0.083667;0.984934;0.151341;,
  0.643643;0.764916;-0.025030;,
  0.809803;0.583058;-0.065296;,
  0.794291;0.580562;-0.179025;,
  -0.897525;0.422681;0.125660;,
  -0.502053;0.861801;0.072402;,
  -0.720198;0.686447;0.100527;,
  0.156245;0.982677;-0.099670;,
  -0.571299;0.772275;0.277866;,
  0.748083;0.652844;-0.119024;,
  0.720796;0.677519;-0.146361;,
  -0.529610;0.836279;0.141949;,
  -0.553589;0.792668;0.255374;,
  0.498174;0.858230;-0.123546;,
  -0.788757;0.545396;0.283558;,
  0.785977;0.577939;-0.219605;,
  -0.002150;0.998045;-0.062468;,
  -0.664276;0.730567;0.158143;,
  0.705145;0.668809;-0.235511;,
  0.762151;0.625888;-0.165499;,
  -0.765058;0.616710;0.185349;,
  0.507977;0.857376;-0.082863;,
  0.788589;0.555788;-0.263109;,
  0.824036;0.529607;-0.201197;,
  0.054184;0.998427;-0.014430;,
  -0.711619;0.681502;0.170746;,
  0.634932;0.732590;-0.245303;,
  -0.623345;0.767256;0.150861;,
  0.790805;0.575516;-0.208345;,
  0.520876;0.843185;-0.133143;,
  0.235841;0.968627;0.078359;,
  -0.776737;0.616476;0.128984;,
  -0.647044;0.761638;0.035236;,
  0.869571;0.443687;-0.216768;,
  -0.855566;0.491230;0.163402;,
  -0.519062;0.850604;-0.083946;,
  0.655507;0.750831;-0.081017;,
  0.451529;0.866133;-0.214325;,
  0.124092;0.987409;0.098104;,
  -0.537595;0.811349;0.229576;,
  -0.769056;0.637981;0.039165;,
  0.803400;0.573841;-0.158916;,
  0.740460;0.618731;-0.262472;,
  0.358004;0.918841;-0.166027;,
  -0.881122;0.424347;0.208695;,
  0.643785;0.762716;-0.061685;,
  0.384569;0.901632;-0.197904;,
  -0.174454;0.971066;-0.163086;,
  -0.760931;0.641906;0.094555;,
  -0.716961;0.686164;0.123072;,
  -0.466958;0.870092;0.157769;,
  0.668155;0.679948;-0.302058;,
  0.707321;0.646454;-0.285997;,
  -0.612366;0.778769;0.136114;,
  -0.380121;0.825294;0.417610;,
  0.403630;0.893488;-0.196882;,
  -0.848349;0.428129;0.311463;,
  -0.174153;0.984708;-0.004476;,
  -0.573114;0.694516;0.434957;,
  0.518028;0.802573;-0.295844;,
  0.534517;0.835551;-0.127067;,
  -0.396300;0.880850;0.258941;,
  0.271277;0.948575;-0.163138;,
  0.804067;0.510180;-0.305275;,
  -0.034794;0.988979;0.143910;,
  -0.655332;0.646026;0.391394;,
  -0.486195;0.776662;0.400513;,
  0.576314;0.777698;-0.251094;,
  0.818064;0.457347;-0.348720;,
  -0.616514;0.707775;0.344913;,
  0.371209;0.916763;-0.147478;,
  0.651138;0.702295;-0.287751;,
  0.012784;0.998384;-0.055369;,
  -0.519606;0.783056;0.341807;,
  -0.527407;0.782789;0.330278;,
  0.606951;0.740927;-0.287468;,
  0.675611;0.656158;-0.336163;,
  0.111969;0.980335;-0.162499;,
  -0.604479;0.683075;0.409896;,
  0.326166;0.901237;-0.285284;,
  -0.381419;0.912284;0.149190;,
  0.774686;0.532177;-0.341540;,
  -0.715357;0.624250;0.313969;,
  0.558190;0.742396;-0.370504;,
  0.141993;0.970789;-0.193407;,
  -0.093156;0.989726;0.108466;,
  -0.664544;0.670832;0.329189;,
  0.599277;0.708899;-0.371928;,
  0.653059;0.610581;-0.448001;,
  0.227571;0.973346;0.028442;,
  -0.523464;0.732787;0.434752;,
  0.114412;0.945541;0.304734;,
  -0.736109;0.539931;0.408190;,
  0.453075;0.811008;-0.370120;,
  0.616863;0.622940;-0.481067;,
  0.620406;0.650530;-0.438071;,
  0.543583;0.734666;-0.405935;,
  0.400929;0.906931;-0.129349;,
  -0.281520;0.892931;0.351312;,
  -0.714406;0.522251;0.465702;,
  -0.686895;0.568822;0.452346;,
  0.632586;0.599887;-0.489868;,
  0.635989;0.585666;-0.502508;,
  0.400484;0.852744;-0.335322;,
  -0.106140;0.991127;0.080014;,
  -0.687921;0.583432;0.431708;,
  -0.709126;0.513308;0.483379;,
  0.553119;0.718107;-0.422352;,
  0.461510;0.789314;-0.404960;,
  -0.656415;0.536067;0.530802;,
  0.570303;0.581542;-0.580141;,
  0.578311;0.631588;-0.516384;,
  0.514270;0.680051;-0.522549;,
  0.323023;0.876991;-0.355727;,
  -0.264212;0.961698;0.072994;,
  -0.682956;0.588078;0.433285;,
  -0.705645;0.513118;0.488645;,
  -0.519697;0.632235;0.574625;,
  -0.670299;0.549815;0.498400;,
  0.574401;0.686861;-0.445293;,
  0.543052;0.642568;-0.540556;,
  0.475479;0.744049;-0.469372;,
  -0.013668;0.999164;-0.038534;,
  -0.655712;0.552292;0.514797;,
  -0.549703;0.641783;0.534734;,
  0.468862;0.799250;-0.375990;,
  0.124335;0.984289;-0.125364;,
  0.415914;0.732027;-0.539585;,
  0.534023;0.587322;-0.608171;,
  -0.539939;0.578139;0.611737;,
  -0.288078;0.787144;0.545358;,
  -0.514155;0.492150;0.702448;,
  0.454906;0.629490;-0.629923;,
  0.566449;0.446499;-0.692657;,
  0.399709;0.805007;-0.438403;,
  -0.256732;0.885232;0.387883;,
  -0.209833;0.893520;0.396979;,
  0.116898;0.986026;-0.118692;,
  0.379630;0.758513;-0.529660;,
  0.495210;0.531764;-0.687018;,
  0.414642;0.696936;-0.585109;,
  -0.337953;0.930860;0.138877;,
  -0.389530;0.788025;0.476742;,
  0.507625;0.678703;-0.530734;,
  -0.510531;0.637036;0.577532;,
  -0.366892;0.691540;0.622223;,
  0.544488;0.592225;-0.593972;,
  0.171088;0.794049;-0.583280;,
  -0.114632;0.973390;-0.198424;,
  0.515478;0.738928;-0.433898;,
  -0.412233;0.601336;0.684441;,
  0.243007;0.776675;-0.581140;,
  0.242636;0.751751;-0.613187;,
  -0.261447;0.949658;0.172613;,
  -0.431285;0.654769;0.620702;,
  0.160820;0.773930;-0.612510;,
  -0.057815;0.919339;-0.389196;,
  -0.412729;0.637595;0.650482;,
  0.156742;0.814094;-0.559180;,
  0.155296;0.787568;-0.596338;,
  0.204730;0.837544;-0.506563;,
  -0.032613;0.997718;-0.059119;,
  -0.316872;0.797586;0.513272;,
  -0.371579;0.606309;0.703078;,
  0.107903;0.792561;-0.600170;,
  0.203386;0.976116;-0.076371;,
  -0.210905;0.643028;0.736230;,
  0.205762;0.723139;-0.659342;,
  0.337943;0.750676;-0.567697;,
  -0.238741;0.649586;0.721832;,
  0.136641;0.762842;-0.631982;,
  0.302139;0.952674;-0.033529;,
  -0.038697;0.856256;0.515100;,
  -0.109172;0.648696;0.753176;,
  0.215391;0.651642;-0.727303;,
  0.149729;0.762077;-0.629937;,
  0.276619;0.583536;-0.763523;,
  0.272293;0.840283;-0.468808;,
  0.110650;0.977199;0.181215;,
  0.265744;0.629682;-0.729987;,
  -0.122316;0.813698;0.568273;,
  -0.134006;0.700507;0.700951;,
  -0.119954;0.664284;0.737792;,
  -0.164607;0.755454;0.634187;,
  -0.227358;0.668314;0.708283;,
  0.295600;0.671432;-0.679558;,
  0.226981;0.609745;-0.759401;,
  -0.121492;0.980329;0.155547;,
  0.119089;0.822853;-0.555635;,
  -0.211493;0.640081;0.738625;,
  0.100512;0.682904;-0.723560;,
  -0.034971;0.996732;-0.072820;,
  -0.147616;0.847709;0.509509;,
  -0.137670;0.813601;0.564889;,
  0.105986;0.794787;-0.597562;,
  0.110273;0.630283;-0.768495;,
  -0.203228;0.679178;0.705277;,
  0.026558;0.697231;-0.716355;,
  0.205637;0.587935;-0.782334;,
  0.169813;0.934761;-0.312066;,
  0.028220;0.939890;0.340308;,
  -0.102047;0.612681;0.783715;,
  0.068845;0.634619;-0.769752;,
  0.135482;0.521734;-0.842282;,
  0.168164;0.932519;-0.319577;,
  -0.037709;0.752538;0.657468;,
  -0.144703;0.645586;0.749853;,
  0.220520;0.584643;-0.780746;,
  -0.161680;0.794496;0.585351;,
  0.019440;0.983092;0.182078;,
  -0.093227;0.479066;0.872814;,
  0.132204;0.584496;-0.800554;,
  0.054793;0.469687;-0.881131;,
  0.005332;0.802065;0.597213;,
  0.154349;0.436234;-0.886497;,
  -0.112304;0.778182;0.617917;,
  -0.033777;0.652800;0.756777;,
  0.103692;0.808305;-0.579560;,
  0.023577;0.982774;0.183301;,
  0.141986;0.538725;-0.830431;,
  0.117159;0.503450;-0.856044;,
  0.063001;0.984190;-0.165533;,
  -0.091515;0.573867;0.813819;,
  -0.182407;0.656633;0.731820;,
  -0.051013;0.789926;0.611076;,
  0.024381;0.637667;-0.769926;,
  0.079224;0.585387;-0.806874;,
  -0.004112;0.647663;-0.761916;,
  -0.053657;0.536446;-0.842227;,
  -0.146769;0.932516;-0.329959;,
  -0.110911;0.910547;0.398250;,
  -0.176004;0.597776;-0.782104;,
  -0.149631;0.681455;0.716401;,
  0.102464;0.744881;-0.659283;,
  -0.138417;0.873533;-0.466669;,
  0.094878;0.957920;0.270900;,
  -0.065389;0.655177;-0.752640;,
  -0.014589;0.655136;0.755370;,
  -0.072659;0.657424;-0.750010;,
  -0.081235;0.756297;0.649166;,
  -0.029300;0.672352;0.739652;,
  0.135033;0.905857;-0.401483;,
  0.058828;0.626090;0.777529;,
  0.009972;0.777847;-0.628374;,
  0.130731;0.941477;0.310693;,
  0.117690;0.574646;0.809896;,
  0.100276;0.650199;-0.753118;,
  0.013509;0.648015;0.761508;,
  0.034796;0.918785;-0.393221;,
  0.075950;0.556741;0.827207;,
  0.049393;0.712371;0.700062;,
  0.108120;0.814584;-0.569880;,
  0.075464;0.676654;-0.732423;,
  0.105854;0.605101;-0.789081;,
  -0.051956;0.869165;0.491786;,
  0.020355;0.588659;0.808125;,
  0.039207;0.906784;-0.419767;,
  -0.166485;0.915422;0.366449;,
  -0.009834;0.734120;-0.678949;,
  0.166644;0.944076;0.284519;,
  0.042828;0.574720;0.817229;,
  0.154094;0.671368;-0.724928;,
  0.010355;0.817941;0.575210;,
  -0.047634;0.796029;0.603382;,
  -0.741091;0.307165;-0.597020;,
  -0.097227;0.848651;-0.519940;,
  -0.057033;0.506358;-0.860435;,
  0.275559;0.597542;-0.753001;,
  0.198000;0.945219;-0.259534;,
  0.248878;0.785782;0.566221;,
  -0.218174;0.660661;-0.718280;,
  0.069405;0.535495;0.841681;,
  -0.152707;0.906807;0.392914;;

  605;
  4;560,565,573,567;,
  4;550,557,565,560;,
  4;547,22,17,555;,
  4;34,514,527,29;,
  4;513,512,521,524;,
  4;498,496,505,504;,
  4;492,491,499,494;,
  4;491,490,42,499;,
  4;49,487,498,46;,
  4;450,449,456,457;,
  4;433,81,79,441;,
  4;83,84,80,433;,
  4;85,89,424,82;,
  4;88,413,423,424;,
  4;284,287,296,292;,
  4;238,242,251,244;,
  4;241,240,247,250;,
  4;233,236,242,238;,
  4;212,234,241,207;,
  3;364,368,376;,
  3;345,359,360;,
  3;446,455,452;,
  3;307,315,310;,
  3;403,398,405;,
  3;360,359,368;,
  3;503,516,518;,
  3;429,437,430;,
  3;549,552,557;,
  3;462,461,465;,
  3;392,402,396;,
  3;430,437,438;,
  3;393,398,403;,
  3;506,516,503;,
  3;400,94,409;,
  3;107,102,400;,
  3;385,397,391;,
  3;562,561,568;,
  3;492,482,491;,
  3;449,453,456;,
  3;297,304,298;,
  3;376,379,384;,
  3;351,346,355;,
  3;381,372,380;,
  3;385,389,397;,
  3;261,195,271;,
  3;515,33,525;,
  3;393,391,398;,
  3;514,517,527;,
  3;448,459,453;,
  3;352,361,356;,
  3;499,511,506;,
  3;421,429,430;,
  3;130,124,358;,
  3;260,259,266;,
  3;347,352,356;,
  3;310,315,318;,
  3;273,278,276;,
  3;352,362,361;,
  3;41,43,39;,
  3;465,468,469;,
  3;515,38,32;,
  3;387,386,393;,
  3;469,474,477;,
  3;508,513,517;,
  3;13,558,566;,
  3;180,177,294;,
  3;151,145,337;,
  3;365,372,369;,
  3;59,53,482;,
  3;484,485,489;,
  3;37,509,31;,
  3;339,347,353;,
  3;254,194,261;,
  3;244,262,256;,
  3;162,309,158;,
  3;449,448,453;,
  3;141,339,353;,
  3;498,504,501;,
  3;436,435,444;,
  3;45,498,501;,
  3;331,339,144;,
  3;482,52,51;,
  3;432,435,436;,
  3;310,318,322;,
  3;327,150,337;,
  3;509,514,30;,
  3;394,393,403;,
  3;476,492,483;,
  3;347,356,353;,
  3;400,97,93;,
  3;237,211,206;,
  3;282,281,291;,
  3;323,329,331;,
  3;69,64,63;,
  3;44,501,40;,
  3;339,352,347;,
  3;106,387,101;,
  3;57,58,482;,
  3;294,171,166;,
  3;422,430,431;,
  3;387,393,394;,
  3;6,578,215;,
  3;457,456,462;,
  3;458,457,466;,
  3;292,296,302;,
  3;501,504,509;,
  3;477,480,484;,
  3;391,397,398;,
  3;484,480,485;,
  3;460,467,473;,
  3;383,114,111;,
  3;527,531,28;,
  3;16,551,558;,
  3;21,544,551;,
  3;125,123,118;,
  3;27,531,26;,
  3;56,482,479;,
  3;428,434,427;,
  3;551,556,558;,
  3;467,62,55;,
  3;398,404,405;,
  3;470,478,475;,
  3;396,402,410;,
  3;239,245,246;,
  3;338,346,351;,
  3;165,161,306;,
  3;478,477,484;,
  3;323,331,149;,
  3;499,502,511;,
  3;266,274,188;,
  3;469,468,474;,
  3;245,257,255;,
  3;276,286,279;,
  3;405,404,412;,
  3;388,105,400;,
  3;331,333,339;,
  3;270,281,282;,
  3;457,462,466;,
  3;339,343,352;,
  3;232,229,210;,
  3;520,515,525;,
  3;571,568,576;,
  3;479,482,492;,
  3;176,289,298;,
  3;294,164,301;,
  3;353,356,129;,
  3;502,36,511;,
  3;413,417,418;,
  3;568,575,580;,
  3;110,386,387;,
  3;544,548,551;,
  3;296,301,302;,
  3;509,517,514;,
  3;368,375,376;,
  3;331,329,333;,
  3;5,579,1;,
  3;407,417,413;,
  3;466,470,471;,
  3;511,35,515;,
  3;379,388,384;,
  3;370,377,113;,
  3;259,268,266;,
  3;405,412,411;,
  3;232,209,237;,
  3;407,413,87;,
  3;518,516,526;,
  3;237,205,249;,
  3;359,366,368;,
  3;506,511,516;,
  3;362,355,365;,
  3;407,406,417;,
  3;324,321,327;,
  3;140,353,348;,
  3;409,92,415;,
  3;535,538,541;,
  3;507,512,513;,
  3;227,236,230;,
  3;538,537,546;,
  3;377,378,386;,
  3;343,351,352;,
  3;409,415,416;,
  3;431,430,438;,
  3;377,386,109;,
  3;276,288,286;,
  3;531,527,535;,
  3;398,397,404;,
  3;508,517,509;,
  3;246,245,255;,
  3;61,471,54;,
  3;322,324,330;,
  3;455,460,452;,
  3;251,261,244;,
  3;532,533,542;,
  3;537,543,546;,
  3;538,536,537;,
  3;559,12,570;,
  3;493,506,503;,
  3;460,68,467;,
  3;436,444,76;,
  3;128,356,122;,
  3;436,75,78;,
  3;277,282,287;,
  3;324,327,330;,
  3;343,338,351;,
  3;385,391,386;,
  3;352,351,362;,
  3;565,570,581;,
  3;478,484,486;,
  3;281,294,291;,
  3;562,568,571;,
  3;281,179,294;,
  3;388,400,392;,
  3;419,428,427;,
  3;351,355,362;,
  3;410,428,419;,
  3;558,563,566;,
  3;539,544,20;,
  3;67,60,467;,
  3;542,547,552;,
  3;373,378,377;,
  3;148,331,143;,
  3;320,325,329;,
  3;277,287,280;,
  3;511,515,520;,
  3;555,11,559;,
  3;416,426,428;,
  3;484,489,486;,
  3;259,258,268;,
  3;246,255,258;,
  3;410,416,428;,
  3;247,246,258;,
  3;402,416,410;,
  3;240,239,246;,
  3;302,301,315;,
  3;279,286,289;,
  3;318,314,324;,
  3;547,555,552;,
  3;268,276,274;,
  3;373,369,381;,
  3;289,286,297;,
  3;368,366,375;,
  3;240,246,247;,
  3;100,96,400;,
  3;435,438,444;,
  3;517,513,524;,
  3;516,511,520;,
  3;422,420,430;,
  3;274,279,185;,
  3;370,373,377;,
  3;417,420,422;,
  3;376,375,379;,
  3;416,415,426;,
  3;531,535,539;,
  3;517,522,527;,
  3;384,388,392;,
  3;392,400,402;,
  3;455,66,460;,
  3;278,288,276;,
  3;505,507,513;,
  3;470,465,469;,
  3;288,293,295;,
  3;157,313,320;,
  3;287,291,296;,
  3;471,470,475;,
  3;309,304,313;,
  3;558,556,563;,
  3;202,250,199;,
  3;175,298,170;,
  3;320,329,323;,
  3;546,543,553;,
  3;470,469,477;,
  3;541,548,544;,
  3;402,400,409;,
  3;402,409,416;,
  3;426,433,428;,
  3;562,571,563;,
  3;254,198,193;,
  3;99,98,95;,
  3;301,314,315;,
  3;521,529,524;,
  3;363,117,375;,
  3;432,436,77;,
  3;463,466,471;,
  3;401,407,91;,
  3;452,460,464;,
  3;524,529,530;,
  3;321,156,147;,
  3;399,407,401;,
  3;348,353,127;,
  3;329,332,333;,
  3;531,539,25;,
  3;15,558,10;,
  3;197,260,192;,
  3;553,561,562;,
  3;293,303,295;,
  3;460,473,464;,
  3;518,526,523;,
  3;301,163,306;,
  3;230,236,233;,
  3;321,146,327;,
  3;90,407,86;,
  3;383,104,388;,
  3;456,459,462;,
  3;538,546,541;,
  3;523,526,534;,
  3;466,462,470;,
  3;142,339,139;,
  3;408,414,415;,
  3;406,405,417;,
  3;249,201,254;,
  3;556,562,563;,
  3;563,571,566;,
  3;137,138,348;,
  3;373,381,378;,
  3;541,546,548;,
  3;360,368,364;,
  3;427,434,440;,
  3;428,433,434;,
  3;366,363,375;,
  3;470,477,478;,
  3;271,282,277;,
  3;19,551,14;,
  3;316,321,324;,
  3;552,559,557;,
  3;403,406,407;,
  3;191,266,187;,
  3;108,103,383;,
  3;496,500,505;,
  3;382,387,390;,
  3;450,457,458;,
  3;301,306,314;,
  3;116,112,383;,
  3;386,391,393;,
  3;312,319,320;,
  3;169,298,309;,
  3;72,458,65;,
  3;433,439,434;,
  3;325,328,332;,
  3;295,303,308;,
  3;394,403,399;,
  3;9,4,0;,
  3;316,155,321;,
  3;356,370,121;,
  3;271,277,272;,
  3;411,420,417;,
  3;420,421,430;,
  3;378,381,386;,
  3;186,274,184;,
  3;440,455,446;,
  3;566,571,578;,
  3;548,562,556;,
  3;495,500,496;,
  3;308,311,312;,
  3;399,403,407;,
  3;204,250,200;,
  3;327,337,330;,
  3;300,168,160;,
  3;434,439,440;,
  3;412,420,411;,
  3;482,50,48;,
  3;481,487,47;,
  3;412,421,420;,
  3;167,309,159;,
  3;381,385,386;,
  3;214,234,208;,
  3;332,328,336;,
  3;482,488,490;,
  3;458,466,463;,
  3;550,549,557;,
  3;270,269,281;,
  3;486,496,498;,
  3;492,494,493;,
  3;441,454,455;,
  3;445,71,454;,
  3;380,389,385;,
  3;439,441,455;,
  3;318,324,322;,
  3;441,445,454;,
  3;136,358,354;,
  3;374,377,382;,
  4;570,572,579,218;,
  3;530,529,536;,
  3;557,559,565;,
  3;533,547,542;,
  3;279,289,174;,
  3;530,536,538;,
  3;325,332,329;,
  3;265,273,276;,
  3;444,458,74;,
  3;344,354,350;,
  3;494,506,493;,
  3;490,497,502;,
  3;354,358,366;,
  3;154,323,326;,
  3;537,536,543;,
  3;330,337,341;,
  3;362,373,370;,
  3;356,361,370;,
  3;303,311,308;,
  3;442,448,449;,
  3;527,530,535;,
  3;418,422,431;,
  3;381,380,385;,
  3;304,308,313;,
  3;265,276,268;,
  3;341,344,350;,
  3;227,232,236;,
  3;539,535,541;,
  3;344,135,354;,
  3;319,328,325;,
  3;262,271,272;,
  3;571,577,216;,
  3;337,134,344;,
  3;362,365,369;,
  3;297,295,308;,
  3;505,513,508;,
  3;552,555,559;,
  3;464,473,476;,
  3;190,270,271;,
  3;286,295,297;,
  3;369,372,381;,
  3;8,572,570;,
  3;361,362,370;,
  3;320,319,325;,
  3;261,271,262;,
  3;263,273,265;,
  3;488,497,490;,
  3;489,495,496;,
  3;153,320,323;,
  3;298,304,309;,
  3;332,338,333;,
  3;337,344,341;,
  3;437,442,438;,
  3;269,183,281;,
  3;302,315,307;,
  3;314,316,324;,
  3;308,312,313;,
  3;333,338,343;,
  3;566,578,3;,
  3;467,472,473;,
  3;453,459,456;,
  3;437,448,442;,
  3;375,383,379;,
  3;313,312,320;,
  3;559,570,565;,
  3;510,501,509;,
  3;482,490,491;,
  3;311,319,312;,
  3;244,261,262;,
  3;548,546,562;,
  3;387,394,395;,
  3;534,542,549;,
  3;258,265,268;,
  3;242,249,251;,
  3;257,263,265;,
  3;250,260,196;,
  3;485,495,489;,
  3;255,265,258;,
  3;473,472,479;,
  3;546,553,562;,
  3;250,252,260;,
  3;405,411,417;,
  3;249,261,251;,
  3;334,340,133;,
  3;459,461,462;,
  3;522,524,530;,
  3;473,479,476;,
  3;440,439,455;,
  3;286,288,295;,
  3;342,341,350;,
  3;555,554,7;,
  3;574,229,232;,
  3;487,486,498;,
  3;476,479,492;,
  3;255,257,265;,
  3;500,507,505;,
  3;571,576,577;,
  3;542,552,549;,
  3;431,438,435;,
  3;551,548,556;,
  3;282,291,287;,
  3;237,249,242;,
  3;462,465,470;,
  3;461,468,465;,
  3;182,279,173;,
  3;354,366,359;,
  3;517,524,522;,
  3;522,530,527;,
  3;291,301,296;,
  3;260,266,189;,
  3;236,232,237;,
  3;236,237,242;,
  3;272,277,267;,
  3;228,231,239;,
  3;337,334,132;,
  3;222,228,240;,
  3;256,262,272;,
  3;564,566,2;,
  3;525,528,24;,
  3;224,231,228;,
  3;504,508,509;,
  3;444,438,443;,
  3;443,449,450;,
  3;478,487,481;,
  3;475,478,481;,
  3;438,442,443;,
  3;248,253,254;,
  3;516,520,526;,
  3;433,441,439;,
  3;532,542,534;,
  3;223,227,230;,
  3;218,581,570;,
  3;474,480,477;,
  3;413,418,423;,
  3;417,422,418;,
  3;375,115,383;,
  3;483,492,493;,
  3;444,443,450;,
  3;274,276,279;,
  3;271,270,282;,
  3;486,489,496;,
  3;120,374,371;,
  3;520,532,526;,
  3;131,126,358;,
  3;203,248,249;,
  3;539,541,544;,
  3;228,239,240;,
  3;23,539,18;,
  3;525,533,532;,
  3;520,525,532;,
  3;530,538,535;,
  3;332,336,338;,
  3;582,567,573;,
  3;335,341,342;,
  3;519,528,525;,
  3;525,540,533;,
  3;418,431,423;,
  3;297,308,304;,
  3;221,225,234;,
  3;264,269,270;,
  3;362,369,373;,
  3;305,152,316;,
  3;395,394,399;,
  3;358,119,363;,
  3;306,316,314;,
  3;504,505,508;,
  3;322,330,335;,
  3;336,346,338;,
  3;415,425,426;,
  3;444,450,458;,
  3;367,370,374;,
  3;350,354,359;,
  3;281,181,178;,
  3;423,431,432;,
  3;403,405,406;,
  3;342,350,345;,
  3;243,241,250;,
  3;315,314,318;,
  3;280,287,284;,
  3;267,277,280;,
  3;330,341,335;,
  3;345,350,359;,
  3;431,435,432;,
  3;73,458,70;,
  3;256,272,267;,
  3;250,247,252;,
  3;252,259,260;,
  3;289,297,298;,
  3;309,313,317;,
  3;234,240,241;,
  3;275,172,283;,
  3;426,425,433;,
  3;443,442,449;,
  3;349,348,357;,
  3;445,447,451;,
  3;249,254,261;,
  3;526,532,534;,
  3;247,258,252;,
  3;358,363,366;,
  3;379,383,388;,
  3;291,294,301;,
  3;290,299,294;,
  3;266,268,274;,
  3;573,581,582;,
  3;565,581,573;,
  3;306,305,316;,
  3;278,285,288;,
  3;288,285,293;,
  3;533,540,547;,
  3;333,343,339;,
  3;478,486,487;,
  3;494,499,506;,
  3;252,258,259;,
  3;424,423,432;,
  3;540,545,547;,
  3;235,229,219;,
  3;240,234,225;,
  3;234,213,220;,
  3;220,221,234;,
  3;219,226,235;,
  3;225,222,240;,
  3;232,227,574;,
  3;217,579,569;,
  3;216,578,571;,
  3;580,576,568;;
 }
 MeshTextureCoords { 
 583;
 0.071449;0.948050;,
 3.905493;0.623889;,
 0.067742;0.725402;,
 0.067742;0.725402;,
 0.067742;0.725402;,
 3.905493;0.866955;,
 0.067742;0.725402;,
 3.783184;0.674528;,
 3.783184;0.674528;,
 0.163874;0.901281;,
 0.163874;0.901281;,
 3.783184;0.674528;,
 3.783184;0.674528;,
 0.163874;0.901281;,
 0.218557;0.826834;,
 0.218557;0.826834;,
 0.218557;0.826834;,
 3.709799;0.755550;,
 0.292497;0.789418;,
 0.292497;0.789418;,
 0.292497;0.789418;,
 0.292497;0.789418;,
 3.611952;0.796061;,
 0.366128;0.733449;,
 3.514105;0.856827;,
 0.366128;0.733449;,
 0.366128;0.733449;,
 0.440068;0.696033;,
 0.440068;0.696033;,
 0.440068;0.696033;,
 0.496605;0.732910;,
 0.496605;0.732910;,
 3.342873;0.856827;,
 3.342873;0.856827;,
 0.496605;0.732910;,
 3.220564;0.725166;,
 3.220564;0.725166;,
 0.591810;0.853127;,
 3.220564;0.725166;,
 3.220564;0.725166;,
 0.685780;0.899128;,
 3.098255;0.674528;,
 3.098255;0.674528;,
 3.171640;0.978360;,
 0.701021;0.694957;,
 0.701021;0.694957;,
 0.701021;0.694957;,
 0.756940;0.694726;,
 3.000408;0.897338;,
 0.756940;0.694726;,
 2.934835;0.975178;,
 2.934835;0.975178;,
 2.853638;1.000064;,
 2.853638;1.000064;,
 0.911153;1.000253;,
 2.804714;0.563123;,
 2.804714;0.563123;,
 2.804714;0.563123;,
 2.804714;0.947977;,
 2.804714;0.947977;,
 2.682405;0.796061;,
 1.000798;0.786497;,
 2.682405;0.796061;,
 2.682405;0.796061;,
 2.609020;0.998615;,
 1.085675;0.962863;,
 2.560097;0.573250;,
 2.560097;0.573250;,
 2.560097;0.573250;,
 2.560097;0.573250;,
 1.093686;0.767558;,
 2.560097;0.816316;,
 1.093686;0.767558;,
 1.128494;0.618972;,
 1.128494;0.618972;,
 1.128494;0.618972;,
 1.128494;0.618972;,
 1.169480;0.841467;,
 1.169480;0.841467;,
 2.462250;0.735294;,
 2.339941;0.897338;,
 2.339941;0.897338;,
 1.315208;0.958034;,
 2.266556;0.573250;,
 2.266556;0.816316;,
 1.413667;0.977745;,
 1.391918;0.766328;,
 1.391918;0.766328;,
 1.391918;0.766328;,
 1.391918;0.766328;,
 1.449227;0.849591;,
 1.449227;0.849591;,
 2.095324;0.725166;,
 2.095324;0.725166;,
 2.095324;0.725166;,
 2.021938;0.704911;,
 2.021938;0.704911;,
 2.021938;0.704911;,
 2.009707;0.958104;,
 1.960784;0.765677;,
 1.960784;0.765677;,
 1.551126;0.812060;,
 1.960784;0.765677;,
 1.875168;0.674528;,
 1.875168;0.674528;,
 1.875168;0.674528;,
 1.617755;0.895284;,
 1.875168;0.674528;,
 1.801783;0.897338;,
 1.670275;0.690959;,
 1.670275;0.690959;,
 1.801783;0.897338;,
 1.728397;0.947977;,
 1.725421;0.644343;,
 1.728397;0.947977;,
 1.691705;0.613761;,
 1.691705;0.613761;,
 1.691705;0.613761;,
 1.758478;0.950370;,
 1.630550;0.836571;,
 1.801678;0.746083;,
 1.801678;0.746083;,
 1.801678;0.746083;,
 1.801678;0.746083;,
 1.630550;0.836571;,
 1.859356;0.980448;,
 1.532703;0.725166;,
 1.877935;0.847823;,
 1.877935;0.847823;,
 1.877935;0.847823;,
 1.532703;0.725166;,
 1.410395;0.613761;,
 1.410395;0.613761;,
 1.410395;0.613761;,
 1.410395;0.613761;,
 1.410395;0.613761;,
 1.410395;0.613761;,
 1.972832;0.949486;,
 1.987147;0.689652;,
 1.987147;0.689652;,
 1.987147;0.689652;,
 1.987147;0.689652;,
 2.062940;0.763561;,
 2.062940;0.763561;,
 2.062940;0.763561;,
 1.288086;0.816316;,
 1.165777;0.816316;,
 1.165777;0.816316;,
 2.156138;0.763176;,
 2.156138;0.763176;,
 1.165777;0.816316;,
 1.165777;0.816316;,
 1.019007;0.897338;,
 2.266739;0.688499;,
 2.266739;0.688499;,
 1.019007;0.897338;,
 1.019007;0.897338;,
 2.266739;0.688499;,
 2.266739;0.688499;,
 2.325747;0.873809;,
 2.325747;0.873809;,
 0.945622;0.694783;,
 2.325747;0.873809;,
 0.872236;0.634017;,
 0.872236;0.634017;,
 0.872236;0.634017;,
 0.872236;0.634017;,
 2.397679;0.715792;,
 2.397679;0.715792;,
 2.397679;0.715792;,
 2.397679;0.715792;,
 0.847775;0.866955;,
 2.489641;0.641191;,
 2.489641;0.641191;,
 2.489641;0.641191;,
 2.489641;0.641191;,
 2.489641;0.641191;,
 0.725466;0.947977;,
 0.701004;0.694783;,
 0.701004;0.694783;,
 0.701004;0.694783;,
 0.627619;0.856827;,
 2.565589;0.724377;,
 0.627619;0.856827;,
 2.565589;0.724377;,
 2.565589;0.724377;,
 2.622125;0.761254;,
 2.622125;0.761254;,
 2.622125;0.761254;,
 2.698846;0.890825;,
 0.456387;0.674528;,
 2.698846;0.890825;,
 2.698846;0.890825;,
 0.456387;0.674528;,
 0.456387;0.674528;,
 0.456387;0.674528;,
 2.752602;0.760716;,
 2.752602;0.760716;,
 0.383001;0.816316;,
 2.752602;0.760716;,
 2.809910;0.843979;,
 0.309616;0.725166;,
 2.809910;0.843979;,
 0.236231;0.725166;,
 2.865829;0.843748;,
 0.236231;0.725166;,
 0.236231;0.725166;,
 2.865829;0.843748;,
 2.920666;0.778578;,
 0.162846;0.796061;,
 0.162846;0.796061;,
 0.162846;0.796061;,
 2.920666;0.778578;,
 2.994915;0.759717;,
 2.994915;0.759717;,
 0.032316;0.836880;,
 0.027219;0.530738;,
 3.954416;0.745422;,
 3.954416;0.390951;,
 0.064999;0.634017;,
 2.973804;0.611361;,
 2.971333;0.462929;,
 2.966544;0.175341;,
 0.064999;0.036480;,
 2.963918;0.017632;,
 2.969170;0.333050;,
 0.064999;0.816316;,
 0.064999;0.198524;,
 2.963918;0.017632;,
 0.064999;0.471973;,
 0.089460;0.056736;,
 2.908000;0.017862;,
 0.113922;0.542867;,
 0.162846;0.046608;,
 2.933899;0.453805;,
 0.162846;0.796061;,
 0.138384;0.309929;,
 0.211769;0.451718;,
 0.236231;0.026353;,
 2.870721;0.018016;,
 2.876436;0.361266;,
 2.860731;0.537606;,
 0.236231;0.249163;,
 2.865829;0.843748;,
 0.334078;0.006097;,
 2.814802;0.018247;,
 2.799407;0.213141;,
 2.802341;0.389404;,
 0.309616;0.725166;,
 0.285154;0.461845;,
 2.806049;0.612053;,
 0.309616;0.249163;,
 2.748122;0.491682;,
 0.383001;0.816316;,
 0.358540;0.552995;,
 2.742870;0.176264;,
 0.456387;0.006097;,
 2.721605;0.018631;,
 2.727011;0.343327;,
 2.710380;0.464005;,
 2.713469;0.649546;,
 0.407463;0.360568;,
 0.431925;0.208652;,
 2.647047;0.018939;,
 0.456387;0.674528;,
 2.649827;0.185925;,
 2.656469;0.584837;,
 0.554234;0.006097;,
 2.634123;0.362265;,
 0.554234;0.816316;,
 0.529772;0.552995;,
 0.505310;0.370696;,
 0.517541;0.117502;,
 2.591128;0.019169;,
 2.599469;0.520128;,
 2.565589;0.724377;,
 2.576505;0.260449;,
 0.603157;0.249163;,
 2.516570;0.019477;,
 2.523985;0.464774;,
 0.652081;0.006097;,
 0.627619;0.573250;,
 0.652081;0.401079;,
 2.512142;0.873040;,
 0.725466;0.006097;,
 2.460652;0.019707;,
 2.502410;0.288587;,
 0.725466;0.178269;,
 2.480990;0.121678;,
 2.467912;0.455727;,
 0.725466;0.947977;,
 0.749928;0.380823;,
 0.798851;0.006097;,
 2.423373;0.019861;,
 0.786620;0.613761;,
 2.416988;0.196163;,
 0.798851;0.178269;,
 2.410294;0.353911;,
 2.394898;0.548805;,
 0.847775;0.866955;,
 2.382592;0.929240;,
 0.872236;0.350440;,
 0.896698;0.006097;,
 2.348969;0.029446;,
 2.355766;0.437635;,
 0.945622;0.694783;,
 0.945622;0.482101;,
 0.970083;0.006097;,
 2.334037;0.252171;,
 2.321422;0.614052;,
 1.043468;0.006097;,
 2.274720;0.048307;,
 2.259633;0.261756;,
 2.281053;0.428665;,
 0.994545;0.299802;,
 0.970083;0.117502;,
 1.043468;0.492229;,
 2.266739;0.688499;,
 1.092392;0.168141;,
 2.181059;0.020860;,
 2.187392;0.401218;,
 1.116854;0.644145;,
 1.165777;0.006097;,
 2.171688;0.577559;,
 1.141315;0.330185;,
 2.147951;0.271494;,
 2.156138;0.763176;,
 1.190239;0.492229;,
 2.106501;0.021168;,
 2.112062;0.355141;,
 1.214701;0.289674;,
 2.104905;0.485058;,
 2.062838;0.197624;,
 2.046824;0.355410;,
 1.288086;0.816316;,
 1.312548;0.006097;,
 2.031943;0.021476;,
 1.288086;0.532739;,
 1.996518;0.132954;,
 2.011553;0.476165;,
 1.385933;0.897338;,
 1.337009;0.330185;,
 1.385933;0.016225;,
 1.980350;0.281463;,
 1.410395;0.411207;,
 1.483780;0.016225;,
 1.957385;0.021783;,
 1.946315;0.476434;,
 1.952339;0.838238;,
 1.972832;0.949486;,
 1.459318;0.228907;,
 1.922578;0.170369;,
 1.925822;0.365187;,
 1.930147;0.624943;,
 1.483780;0.360568;,
 1.882827;0.022091;,
 1.872220;0.504573;,
 1.877935;0.847823;,
 1.532703;0.532739;,
 1.532703;0.168141;,
 1.581627;0.006097;,
 1.851727;0.393325;,
 1.839781;0.235654;,
 1.630550;0.512484;,
 1.679474;0.006097;,
 1.789630;0.022475;,
 1.606089;0.340313;,
 1.801678;0.746083;,
 1.655012;0.178269;,
 1.754668;0.161784;,
 1.778714;0.486403;,
 1.758478;0.950370;,
 1.733711;0.022706;,
 1.738963;0.338124;,
 1.725421;0.644343;,
 1.728397;0.370696;,
 1.752859;0.076991;,
 1.703847;0.468157;,
 1.682890;0.329078;,
 1.801783;0.249163;,
 1.659154;0.023013;,
 1.679955;0.152815;,
 1.670275;0.690959;,
 1.777321;0.552995;,
 1.850706;0.087119;,
 1.624191;0.162322;,
 1.628208;0.403525;,
 1.612503;0.579865;,
 1.875168;0.380823;,
 1.603235;0.023244;,
 1.617755;0.895284;,
 1.569200;0.218215;,
 1.948553;0.066864;,
 1.553495;0.394555;,
 1.555967;0.542988;,
 1.551126;0.812060;,
 2.021938;0.046608;,
 1.528677;0.023551;,
 1.512663;0.181338;,
 1.510913;0.635950;,
 1.985246;0.461845;,
 1.505455;0.867914;,
 2.021938;0.299802;,
 1.498195;0.431894;,
 1.472759;0.023782;,
 1.457826;0.246507;,
 1.441813;0.404294;,
 1.464005;0.617588;,
 2.095324;0.725166;,
 2.083093;0.482101;,
 2.144247;0.046608;,
 1.400363;0.153968;,
 1.398201;0.024089;,
 1.388983;0.590065;,
 2.168709;0.816316;,
 2.168709;0.542867;,
 2.144247;0.330185;,
 1.384349;0.311754;,
 1.349696;0.469617;,
 2.242094;0.066864;,
 1.343518;0.098536;,
 1.323643;0.024397;,
 1.328740;0.330539;,
 1.314734;0.608926;,
 1.317360;0.766636;,
 2.266556;0.573250;,
 2.266556;0.411207;,
 2.339941;0.066864;,
 2.291018;0.249163;,
 1.249085;0.024704;,
 1.270659;0.200891;,
 1.274212;0.414263;,
 1.260206;0.692650;,
 2.339941;0.512484;,
 2.364403;0.228907;,
 1.219065;0.460878;,
 1.193887;0.627980;,
 1.193166;0.024935;,
 1.197337;0.275415;,
 2.413326;0.370696;,
 2.413326;0.087119;,
 2.437788;0.532739;,
 1.139256;0.145767;,
 1.133334;0.349900;,
 1.163147;0.461109;,
 2.462250;0.735294;,
 2.535635;0.147886;,
 2.511173;0.978360;,
 1.118608;0.025243;,
 1.085036;0.248045;,
 1.087971;0.424308;,
 2.560097;0.816316;,
 2.633482;0.158013;,
 1.063925;0.099689;,
 2.560097;0.573250;,
 2.560097;0.330185;,
 1.029118;0.248276;,
 1.032362;0.443093;,
 1.053627;0.600726;,
 1.025411;0.025627;,
 2.633482;0.380823;,
 0.969492;0.025858;,
 0.973199;0.248506;,
 1.000798;0.786497;,
 2.731329;0.087119;,
 0.952397;0.118705;,
 0.976906;0.471155;,
 2.706867;0.461845;,
 0.894934;0.026165;,
 0.896633;0.128212;,
 0.900340;0.350861;,
 0.905283;0.647726;,
 2.804714;0.563123;,
 2.755791;0.309929;,
 0.839016;0.026396;,
 0.866614;0.564386;,
 2.829176;0.036480;,
 0.840869;0.137720;,
 0.835102;0.351130;,
 2.878099;0.401079;,
 0.801737;0.026550;,
 0.811314;0.601725;,
 2.902561;0.603634;,
 2.951485;0.066864;,
 0.765693;0.100919;,
 0.745818;0.026780;,
 0.750298;0.295814;,
 0.771563;0.453446;,
 3.000408;0.897338;,
 0.728414;0.101073;,
 3.000408;0.684655;,
 3.000408;0.411207;,
 2.927023;0.228907;,
 3.073793;0.076991;,
 3.073793;0.249163;,
 0.689900;0.027011;,
 0.693607;0.249659;,
 3.073793;0.897338;,
 0.697314;0.472308;,
 3.098255;0.401079;,
 0.615342;0.027318;,
 0.625228;0.621048;,
 3.098255;0.674528;,
 3.220564;0.046608;,
 0.622602;0.463338;,
 0.608802;0.194343;,
 3.171640;0.239035;,
 0.559423;0.027549;,
 0.573995;0.342929;,
 0.568228;0.556339;,
 0.591810;0.853127;,
 3.245026;0.471973;,
 0.522144;0.027703;,
 0.524307;0.157581;,
 0.512155;0.547293;,
 3.318411;0.573250;,
 3.306180;0.279546;,
 0.509374;0.380307;,
 3.342873;0.026353;,
 3.342873;0.856827;,
 3.342873;0.411207;,
 0.466226;0.027933;,
 0.452684;0.334152;,
 3.416258;0.026353;,
 0.469161;0.204197;,
 3.416258;0.573250;,
 3.391796;0.239035;,
 0.436361;0.473384;,
 3.416258;0.897338;,
 0.391668;0.028241;,
 0.394757;0.213781;,
 0.401090;0.594139;,
 3.440720;0.350440;,
 3.489643;0.512484;,
 3.538567;0.066864;,
 0.379979;0.445784;,
 0.335749;0.028471;,
 0.318036;0.084211;,
 0.358250;0.260320;,
 0.344399;0.547985;,
 3.514105;0.856827;,
 0.322670;0.362521;,
 3.538567;0.299802;,
 0.279831;0.028702;,
 0.288635;0.557493;,
 3.611952;0.796061;,
 0.265207;0.269982;,
 3.587490;0.461845;,
 0.249194;0.427768;,
 3.636414;0.016225;,
 3.734261;0.006097;,
 0.233798;0.622662;,
 3.660875;0.299802;,
 0.223912;0.028933;,
 3.709799;0.755550;,
 3.709799;0.542867;,
 0.194048;0.474384;,
 3.734261;0.168141;,
 0.177880;0.622893;,
 3.758722;0.370696;,
 3.832108;0.006097;,
 0.149354;0.029240;,
 0.172010;0.270366;,
 0.137975;0.465337;,
 0.163874;0.901281;,
 3.856569;0.208652;,
 0.102395;0.567538;,
 3.954416;0.036480;,
 0.093436;0.029471;,
 3.905493;0.866955;,
 3.881031;0.441590;,
 0.080203;0.354244;,
 3.905493;0.623889;,
 3.905493;0.168141;,
 0.064999;0.340313;,
 0.018878;0.029778;,
 0.023048;0.280258;,
 0.025365;0.419414;,
 0.029845;0.688447;,
 3.954416;0.563123;,
 0.020731;0.141103;,
 3.954416;0.228907;,
 3.954416;0.087119;;
 }
}
Frame frm-Path11 {
  FrameTransformMatrix {
-1.000000,0.000000,-0.000000,0.000000,
0.000000,1.000000,0.000000,0.000000,
0.000000,0.000000,-1.000000,0.000000,
0.000000,0.000000,0.000000,1.000000;;
 }
Mesh Path11 {
 8;
 0.603889;0.660000;-0.660012;,
 0.603889;0.660000;0.659988;,
 0.603889;-0.660000;-0.660012;,
 0.603889;-0.660000;0.659988;,
 -0.716110;0.660000;-0.660012;,
 -0.716110;0.660000;0.659988;,
 -0.716110;-0.660000;-0.660012;,
 -0.716110;-0.660000;0.659988;;

 6;
 4;5,4,6,7;,
 4;4,0,2,6;,
 4;0,1,3,2;,
 4;1,5,7,3;,
 4;7,6,2,3;,
 4;1,0,4,5;;

 MeshMaterialList {
  1;
  6;
  0,
  0,
  0,
  0,
  0,
  0;
Material {
 0.000000;0.004000;1.000000;1.000000;;
 50.000000;
 0.000000;0.004000;1.000000;;
 0.0; 0.0; 0.0;;
 }
}
 MeshNormals {
  8;
  0.577350;0.577350;-0.577350;,
  0.577350;0.577350;0.577350;,
  0.577350;-0.577350;-0.577350;,
  0.577350;-0.577350;0.577350;,
  -0.577350;0.577350;-0.577350;,
  -0.577350;0.577350;0.577350;,
  -0.577350;-0.577350;-0.577350;,
  -0.577350;-0.577350;0.577350;;

  6;
  4;5,4,6,7;,
  4;4,0,2,6;,
  4;0,1,3,2;,
  4;1,5,7,3;,
  4;7,6,2,3;,
  4;1,0,4,5;;
 }
 MeshTextureCoords { 
 8;
 0.000000;0.000000;,
 0.000000;0.000000;,
 0.000000;0.000000;,
 0.000000;0.000000;,
 0.000000;0.000000;,
 0.000000;0.000000;,
 0.000000;0.000000;,
 0.000000;0.000000;;
 }
}
Frame frm-Path12 {
  FrameTransformMatrix {
0.999278,0.000000,0.038000,0.000000,
0.000000,1.000000,0.000000,0.000000,
-0.038000,0.000000,0.999278,0.000000,
-1.286608,0.000000,-22.471775,1.000000;;
 }
Mesh Path12 {
 8;
 0.603889;0.660000;-0.660012;,
 0.603889;0.660000;0.659988;,
 0.603889;-0.660000;-0.660012;,
 0.603889;-0.660000;0.659988;,
 -0.716110;0.660000;-0.660012;,
 -0.716110;0.660000;0.659988;,
 -0.716110;-0.660000;-0.660012;,
 -0.716110;-0.660000;0.659988;;

 6;
 4;5,4,6,7;,
 4;4,0,2,6;,
 4;0,1,3,2;,
 4;1,5,7,3;,
 4;7,6,2,3;,
 4;1,0,4,5;;

 MeshMaterialList {
  1;
  6;
  0,
  0,
  0,
  0,
  0,
  0;
Material {
 0.000000;0.004000;1.000000;1.000000;;
 50.000000;
 0.000000;0.004000;1.000000;;
 0.0; 0.0; 0.0;;
 }
}
 MeshNormals {
  8;
  0.577350;0.577350;-0.577350;,
  0.577350;0.577350;0.577350;,
  0.577350;-0.577350;-0.577350;,
  0.577350;-0.577350;0.577350;,
  -0.577350;0.577350;-0.577350;,
  -0.577350;0.577350;0.577350;,
  -0.577350;-0.577350;-0.577350;,
  -0.577350;-0.577350;0.577350;;

  6;
  4;5,4,6,7;,
  4;4,0,2,6;,
  4;0,1,3,2;,
  4;1,5,7,3;,
  4;7,6,2,3;,
  4;1,0,4,5;;
 }
 MeshTextureCoords { 
 8;
 0.000000;0.000000;,
 0.000000;0.000000;,
 0.000000;0.000000;,
 0.000000;0.000000;,
 0.000000;0.000000;,
 0.000000;0.000000;,
 0.000000;0.000000;,
 0.000000;0.000000;;
 }
}
Frame frm-Path13 {
  FrameTransformMatrix {
0.963224,0.000000,0.268700,0.000000,
0.000000,1.000000,0.000000,0.000000,
-0.268700,0.000000,0.963224,0.000000,
-5.869489,0.000000,-17.479673,1.000000;;
 }
Mesh Path13 {
 8;
 0.603889;0.660000;-0.660012;,
 0.603889;0.660000;0.659988;,
 0.603889;-0.660000;-0.660012;,
 0.603889;-0.660000;0.659988;,
 -0.716110;0.660000;-0.660012;,
 -0.716110;0.660000;0.659988;,
 -0.716110;-0.660000;-0.660012;,
 -0.716110;-0.660000;0.659988;;

 6;
 4;5,4,6,7;,
 4;4,0,2,6;,
 4;0,1,3,2;,
 4;1,5,7,3;,
 4;7,6,2,3;,
 4;1,0,4,5;;

 MeshMaterialList {
  1;
  6;
  0,
  0,
  0,
  0,
  0,
  0;
Material {
 0.000000;0.004000;1.000000;1.000000;;
 50.000000;
 0.000000;0.004000;1.000000;;
 0.0; 0.0; 0.0;;
 }
}
 MeshNormals {
  8;
  0.577350;0.577350;-0.577350;,
  0.577350;0.577350;0.577350;,
  0.577350;-0.577350;-0.577350;,
  0.577350;-0.577350;0.577350;,
  -0.577350;0.577350;-0.577350;,
  -0.577350;0.577350;0.577350;,
  -0.577350;-0.577350;-0.577350;,
  -0.577350;-0.577350;0.577350;;

  6;
  4;5,4,6,7;,
  4;4,0,2,6;,
  4;0,1,3,2;,
  4;1,5,7,3;,
  4;7,6,2,3;,
  4;1,0,4,5;;
 }
 MeshTextureCoords { 
 8;
 0.000000;0.000000;,
 0.000000;0.000000;,
 0.000000;0.000000;,
 0.000000;0.000000;,
 0.000000;0.000000;,
 0.000000;0.000000;,
 0.000000;0.000000;,
 0.000000;0.000000;;
 }
}
Frame frm-Path14 {
  FrameTransformMatrix {
0.897802,0.000000,0.440400,0.000000,
0.000000,1.000000,0.000000,0.000000,
-0.440400,0.000000,0.897802,0.000000,
-9.748273,0.000000,-17.532845,1.000000;;
 }
Mesh Path14 {
 8;
 0.603889;0.660000;-0.660012;,
 0.603889;0.660000;0.659988;,
 0.603889;-0.660000;-0.660012;,
 0.603889;-0.660000;0.659988;,
 -0.716110;0.660000;-0.660012;,
 -0.716110;0.660000;0.659988;,
 -0.716110;-0.660000;-0.660012;,
 -0.716110;-0.660000;0.659988;;

 6;
 4;5,4,6,7;,
 4;4,0,2,6;,
 4;0,1,3,2;,
 4;1,5,7,3;,
 4;7,6,2,3;,
 4;1,0,4,5;;

 MeshMaterialList {
  1;
  6;
  0,
  0,
  0,
  0,
  0,
  0;
Material {
 0.000000;0.004000;1.000000;1.000000;;
 50.000000;
 0.000000;0.004000;1.000000;;
 0.0; 0.0; 0.0;;
 }
}
 MeshNormals {
  8;
  0.577350;0.577350;-0.577350;,
  0.577350;0.577350;0.577350;,
  0.577350;-0.577350;-0.577350;,
  0.577350;-0.577350;0.577350;,
  -0.577350;0.577350;-0.577350;,
  -0.577350;0.577350;0.577350;,
  -0.577350;-0.577350;-0.577350;,
  -0.577350;-0.577350;0.577350;;

  6;
  4;5,4,6,7;,
  4;4,0,2,6;,
  4;0,1,3,2;,
  4;1,5,7,3;,
  4;7,6,2,3;,
  4;1,0,4,5;;
 }
 MeshTextureCoords { 
 8;
 0.000000;0.000000;,
 0.000000;0.000000;,
 0.000000;0.000000;,
 0.000000;0.000000;,
 0.000000;0.000000;,
 0.000000;0.000000;,
 0.000000;0.000000;,
 0.000000;0.000000;;
 }
}
Frame frm-Path15 {
  FrameTransformMatrix {
0.693247,0.000000,0.720700,0.000000,
0.000000,1.000000,0.000000,0.000000,
-0.720700,0.000000,0.693247,0.000000,
-15.626872,0.000000,-19.877773,1.000000;;
 }
Mesh Path15 {
 8;
 0.603889;0.660000;-0.660012;,
 0.603889;0.660000;0.659988;,
 0.603889;-0.660000;-0.660012;,
 0.603889;-0.660000;0.659988;,
 -0.716110;0.660000;-0.660012;,
 -0.716110;0.660000;0.659988;,
 -0.716110;-0.660000;-0.660012;,
 -0.716110;-0.660000;0.659988;;

 6;
 4;5,4,6,7;,
 4;4,0,2,6;,
 4;0,1,3,2;,
 4;1,5,7,3;,
 4;7,6,2,3;,
 4;1,0,4,5;;

 MeshMaterialList {
  1;
  6;
  0,
  0,
  0,
  0,
  0,
  0;
Material {
 0.000000;0.004000;1.000000;1.000000;;
 50.000000;
 0.000000;0.004000;1.000000;;
 0.0; 0.0; 0.0;;
 }
}
 MeshNormals {
  8;
  0.577350;0.577350;-0.577350;,
  0.577350;0.577350;0.577350;,
  0.577350;-0.577350;-0.577350;,
  0.577350;-0.577350;0.577350;,
  -0.577350;0.577350;-0.577350;,
  -0.577350;0.577350;0.577350;,
  -0.577350;-0.577350;-0.577350;,
  -0.577350;-0.577350;0.577350;;

  6;
  4;5,4,6,7;,
  4;4,0,2,6;,
  4;0,1,3,2;,
  4;1,5,7,3;,
  4;7,6,2,3;,
  4;1,0,4,5;;
 }
 MeshTextureCoords { 
 8;
 0.000000;0.000000;,
 0.000000;0.000000;,
 0.000000;0.000000;,
 0.000000;0.000000;,
 0.000000;0.000000;,
 0.000000;0.000000;,
 0.000000;0.000000;,
 0.000000;0.000000;;
 }
}
}
}
}
}
}
}
AnimationSet {
 Animation anim-Path11 {
  {frm-Path11}
  AnimationKey {
  0;
  2;
  1; 4; 0.000000, 0.000000, 1.000000, -0.000000;;,
  100; 4; 0.000000, 0.000000, 1.000000, -0.000000;;;
  }
 }
 Animation anim-Path12 {
  {frm-Path12}
  AnimationKey {
  0;
  2;
  1; 4; 0.999819, 0.000000, -0.019003, 0.000000;;,
  100; 4; 0.999819, 0.000000, -0.019003, 0.000000;;;
  }
  AnimationKey {
  2;
  2;
  1; 3; -1.286608, 0.000000, -22.471776;;,
  100; 3; -1.286608, 0.000000, -22.471776;;;
  }
 }
 Animation anim-Path13 {
  {frm-Path13}
  AnimationKey {
  0;
  2;
  1; 4; 0.990763, 0.000000, -0.135603, 0.000000;;,
  100; 4; 0.990763, 0.000000, -0.135603, 0.000000;;;
  }
  AnimationKey {
  2;
  2;
  1; 3; -5.869488, 0.000000, -17.479674;;,
  100; 3; -5.869488, 0.000000, -17.479674;;;
  }
 }
 Animation anim-Path14 {
  {frm-Path14}
  AnimationKey {
  0;
  2;
  1; 4; 0.974115, 0.000000, -0.226051, 0.000000;;,
  100; 4; 0.974115, 0.000000, -0.226051, 0.000000;;;
  }
  AnimationKey {
  2;
  2;
  1; 3; -9.748273, 0.000000, -17.532844;;,
  100; 3; -9.748273, 0.000000, -17.532844;;;
  }
 }
 Animation anim-Path15 {
  {frm-Path15}
  AnimationKey {
  0;
  2;
  1; 4; 0.920121, 0.000000, -0.391633, 0.000000;;,
  100; 4; 0.920121, 0.000000, -0.391633, 0.000000;;;
  }
  AnimationKey {
  2;
  2;
  1; 3; -15.626873, 0.000000, -19.877774;;,
  100; 3; -15.626873, 0.000000, -19.877774;;;
  }
 }
}
