xof 0302txt 0032
template Header {
 <3D82AB43-62DA-11cf-AB39-0020AF71E433>
 WORD major;
 WORD minor;
 DWORD flags;
}

template Vector {
 <3D82AB5E-62DA-11cf-AB39-0020AF71E433>
 FLOAT x;
 FLOAT y;
 FLOAT z;
}

template Coords2d {
 <F6F23F44-7686-11cf-8F52-0040333594A3>
 FLOAT u;
 FLOAT v;
}

template Matrix4x4 {
 <F6F23F45-7686-11cf-8F52-0040333594A3>
 array FLOAT matrix[16];
}

template ColorRGBA {
 <35FF44E0-6C7C-11cf-8F52-0040333594A3>
 FLOAT red;
 FLOAT green;
 FLOAT blue;
 FLOAT alpha;
}

template ColorRGB {
 <D3E16E81-7835-11cf-8F52-0040333594A3>
 FLOAT red;
 FLOAT green;
 FLOAT blue;
}

template TextureFilename {
 <A42790E1-7810-11cf-8F52-0040333594A3>
 STRING filename;
}

template Material {
 <3D82AB4D-62DA-11cf-AB39-0020AF71E433>
 ColorRGBA faceColor;
 FLOAT power;
 ColorRGB specularColor;
 ColorRGB emissiveColor;
 [...]
}

template MeshFace {
 <3D82AB5F-62DA-11cf-AB39-0020AF71E433>
 DWORD nFaceVertexIndices;
 array DWORD faceVertexIndices[nFaceVertexIndices];
}

template MeshTextureCoords {
 <F6F23F40-7686-11cf-8F52-0040333594A3>
 DWORD nTextureCoords;
 array Coords2d textureCoords[nTextureCoords];
}

template MeshMaterialList {
 <F6F23F42-7686-11cf-8F52-0040333594A3>
 DWORD nMaterials;
 DWORD nFaceIndexes;
 array DWORD faceIndexes[nFaceIndexes];
 [Material]
}

template MeshNormals {
 <F6F23F43-7686-11cf-8F52-0040333594A3>
 DWORD nNormals;
 array Vector normals[nNormals];
 DWORD nFaceNormals;
 array MeshFace faceNormals[nFaceNormals];
}

template Mesh {
 <3D82AB44-62DA-11cf-AB39-0020AF71E433>
 DWORD nVertices;
 array Vector vertices[nVertices];
 DWORD nFaces;
 array MeshFace faces[nFaces];
 [...]
}

template FrameTransformMatrix {
 <F6F23F41-7686-11cf-8F52-0040333594A3>
 Matrix4x4 frameMatrix;
}

template Frame {
 <3D82AB46-62DA-11cf-AB39-0020AF71E433>
 [...]
}
template FloatKeys {
 <10DD46A9-775B-11cf-8F52-0040333594A3>
 DWORD nValues;
 array FLOAT values[nValues];
}

template TimedFloatKeys {
 <F406B180-7B3B-11cf-8F52-0040333594A3>
 DWORD time;
 FloatKeys tfkeys;
}

template AnimationKey {
 <10DD46A8-775B-11cf-8F52-0040333594A3>
 DWORD keyType;
 DWORD nKeys;
 array TimedFloatKeys keys[nKeys];
}

template AnimationOptions {
 <E2BF56C0-840F-11cf-8F52-0040333594A3>
 DWORD openclosed;
 DWORD positionquality;
}

template Animation {
 <3D82AB4F-62DA-11cf-AB39-0020AF71E433>
 [...]
}

template AnimationSet {
 <3D82AB50-62DA-11cf-AB39-0020AF71E433>
 [Animation]
}

Header {
 1;
 0;
 1;
}

Frame frm-Straight_Track {
  FrameTransformMatrix {
1.000000,0.000000,0.000000,0.000000,
0.000000,1.000000,0.000000,0.000000,
0.000000,0.000000,1.000000,0.000000,
0.000000,0.000000,0.000000,1.000000;;
 }
Mesh Straight_Track {
 467;
 0.462497;-2.213413;38.655113;,
 0.462497;-2.213413;38.655113;,
 -0.276565;-2.311134;39.672157;,
 -0.276565;-2.311134;39.672157;,
 -0.276565;-2.311134;39.672157;,
 -0.276565;-2.311134;39.672157;,
 -0.839065;-2.089688;37.014717;,
 -0.839065;-2.089688;37.014717;,
 -0.839065;-2.089688;37.014717;,
 0.327732;-2.256257;37.266251;,
 0.327732;-2.256257;37.266251;,
 0.631416;-1.992821;23.497860;,
 0.631416;-1.992821;23.497860;,
 0.631416;-1.992821;23.497860;,
 0.574927;-1.915918;24.722689;,
 0.574927;-1.915918;24.722689;,
 0.574927;-1.915918;24.722689;,
 0.574927;-1.915918;24.722689;,
 0.574927;-1.915918;24.722689;,
 0.574927;-1.915918;24.722689;,
 0.574927;-1.915918;24.722689;,
 0.574927;-1.915918;24.722689;,
 -0.017971;-2.227225;32.793438;,
 -0.017971;-2.227225;32.793438;,
 -0.017971;-2.227225;32.793438;,
 -0.017971;-2.227225;32.793438;,
 0.399412;-2.155135;33.969055;,
 0.399412;-2.155135;33.969055;,
 0.399412;-2.155135;33.969055;,
 -0.539873;-2.253201;23.076824;,
 -0.539873;-2.253201;23.076824;,
 -0.539873;-2.253201;23.076824;,
 -0.539873;-2.253201;23.076824;,
 0.451627;-2.035710;28.867424;,
 0.451627;-2.035710;28.867424;,
 0.451627;-2.035710;28.867424;,
 0.451627;-2.035710;28.867424;,
 -0.026397;-2.197097;21.288792;,
 -0.026397;-2.197097;21.288792;,
 -0.026397;-2.197097;21.288792;,
 -0.775784;-2.136889;35.527428;,
 -0.775784;-2.136889;35.527428;,
 -0.775784;-2.136889;35.527428;,
 0.635849;-2.057328;30.332844;,
 0.635849;-2.057328;30.332844;,
 0.635849;-2.057328;30.332844;,
 -0.571182;-2.195661;31.349890;,
 -0.571182;-2.195661;31.349890;,
 -0.571182;-2.195661;31.349890;,
 0.346564;-1.972652;26.953627;,
 0.346564;-1.972652;26.953627;,
 0.346564;-1.972652;26.953627;,
 0.346564;-1.972652;26.953627;,
 0.346564;-1.972652;26.953627;,
 0.346564;-1.972652;26.953627;,
 0.318747;-2.429102;41.957779;,
 0.400779;-2.169822;40.864182;,
 0.400779;-2.169822;40.864182;,
 0.400779;-2.169822;40.864182;,
 0.400779;-2.169822;40.864182;,
 0.357295;-2.007587;9.765815;,
 0.357295;-2.007587;9.765815;,
 0.357295;-2.007587;9.765815;,
 0.357295;-2.007587;9.765815;,
 0.451627;-2.035710;13.090351;,
 0.451627;-2.035710;13.090351;,
 0.451627;-2.035710;13.090351;,
 0.451627;-2.035710;13.090351;,
 0.451627;-2.035710;13.090351;,
 0.451627;-2.035710;13.090351;,
 0.333369;-2.057328;11.624930;,
 0.333369;-2.057328;11.624930;,
 0.333369;-2.057328;11.624930;,
 -0.026397;-2.197097;20.668982;,
 -0.026397;-2.197097;20.668982;,
 -0.026397;-2.197097;20.668982;,
 -0.026397;-2.197097;20.668982;,
 -0.418881;-2.253201;18.880951;,
 -0.418881;-2.253201;18.880951;,
 -0.418881;-2.253201;18.880951;,
 -0.418881;-2.253201;18.880951;,
 -0.316987;-2.287951;17.278830;,
 -0.316987;-2.287951;17.278830;,
 0.324810;-2.292425;15.868089;,
 0.324810;-2.292425;15.868089;,
 0.324810;-2.292425;15.868089;,
 0.324810;-2.292425;15.868089;,
 0.324810;-2.292425;15.868089;,
 -0.629022;-2.155135;7.988721;,
 -0.629022;-2.155135;7.988721;,
 -0.629022;-2.155135;7.988721;,
 -0.629022;-2.155135;7.988721;,
 -0.456186;-2.300295;13.987101;,
 -0.456186;-2.300295;13.987101;,
 -0.456186;-2.300295;13.987101;,
 -0.456186;-2.300295;13.987101;,
 -0.149631;-2.289760;6.025714;,
 -0.149631;-2.289760;6.025714;,
 -0.149631;-2.289760;6.025714;,
 -0.149631;-2.289760;6.025714;,
 0.400779;-2.169822;1.093592;,
 0.400779;-2.169822;1.093592;,
 0.400779;-2.169822;1.093592;,
 0.400779;-2.169822;1.093592;,
 0.281009;-2.213413;3.302659;,
 0.281009;-2.213413;3.302659;,
 0.281009;-2.213413;3.302659;,
 -0.458717;-2.256257;4.691527;,
 -0.458717;-2.256257;4.691527;,
 -0.458717;-2.256257;4.691527;,
 -0.458053;-2.311134;2.285615;,
 -0.458053;-2.311134;2.285615;,
 -5.544464;2.429105;12.816952;,
 -5.786447;2.429105;4.593102;,
 -5.181488;2.429105;2.668374;,
 -4.587501;2.419107;0.003916;,
 0.318747;-2.429102;-0.000002;,
 -5.544464;2.429105;19.072330;,
 1.590623;-1.641537;-0.000002;,
 4.999995;2.429105;37.233437;,
 4.999995;2.429105;37.233437;,
 4.999995;2.429105;40.732948;,
 -5.000000;2.429105;39.289398;,
 4.999995;2.429105;33.471466;,
 4.818508;2.429105;2.624629;,
 4.213548;2.429105;4.724336;,
 4.153052;2.429105;8.486306;,
 4.334540;2.429105;10.673501;,
 4.334540;2.429105;10.673501;,
 4.758011;2.429105;17.410061;,
 4.455532;2.429105;13.123159;,
 4.455532;2.429105;13.123159;,
 3.849996;1.696693;-0.000002;,
 -2.996877;-0.062107;41.957779;,
 -2.068753;-1.271138;-0.000002;,
 -5.544464;2.429105;12.816952;,
 -5.786447;2.429105;4.593102;,
 -5.181488;2.429105;2.668374;,
 -4.587501;2.419107;0.003916;,
 -2.747491;-1.017919;22.622982;,
 -1.566241;-2.089334;22.229286;,
 0.318747;-2.429102;-0.000002;,
 -3.759209;1.199518;20.253414;,
 -5.544464;2.429105;19.072330;,
 1.590623;-1.641537;-0.000002;,
 4.999995;2.429105;37.233437;,
 4.999995;2.429105;40.732948;,
 -5.000000;2.429105;39.289398;,
 4.999995;2.429105;33.471466;,
 4.818508;2.429105;2.624629;,
 4.213548;2.429105;4.724336;,
 4.153052;2.429105;8.486306;,
 4.334540;2.429105;10.673501;,
 4.758011;2.429105;17.410061;,
 4.455532;2.429105;13.123159;,
 3.849996;1.696693;-0.000002;,
 -2.996877;-0.062107;41.957779;,
 -2.068753;-1.271138;-0.000002;,
 -3.759209;1.199518;21.704359;,
 -3.295147;-0.389986;20.789278;,
 -2.747491;-1.017919;19.334793;,
 3.182976;2.281493;20.122183;,
 0.999385;-1.729920;21.955887;,
 1.997040;-0.107825;22.557365;,
 3.182976;2.281493;21.835590;,
 -3.627076;-1.265235;5.271132;,
 -3.521709;0.124689;11.690546;,
 -2.816987;0.253678;15.529074;,
 -2.941987;0.544936;15.047891;,
 -2.791987;0.051688;14.654196;,
 -4.003841;1.777913;12.204537;,
 -3.443686;0.881871;13.976165;,
 -3.600716;0.922614;12.904440;,
 -4.568820;2.234235;9.033105;,
 -3.885771;0.931738;10.914092;,
 -3.704760;1.049898;9.754878;,
 -3.346948;0.050202;9.448671;,
 -3.536010;0.225211;8.726898;,
 -4.499832;2.157043;10.345421;,
 -5.846943;2.429105;9.623647;,
 -5.665455;2.429105;11.154683;,
 -4.507339;1.352823;8.087144;,
 -4.297184;0.136905;7.961381;,
 -6.028430;2.429105;7.261479;,
 -5.907439;2.429105;6.124138;,
 -4.212810;1.137654;7.458326;,
 -4.902752;1.871924;5.446109;,
 -4.451973;1.891953;6.474090;,
 -3.655100;-0.009697;6.408473;,
 -4.232934;-0.109694;4.953990;,
 -4.787620;1.686610;4.319703;,
 -3.434615;0.844268;3.674481;,
 -2.647897;-0.147518;3.390147;,
 -2.729928;0.415545;2.405910;,
 -2.117190;-0.706857;1.968471;,
 -3.189064;0.121887;1.356058;,
 -2.996877;-0.062107;-0.000002;,
 -5.000000;2.429105;0.000071;,
 -5.241984;2.429105;17.934988;,
 -3.302924;1.239154;16.513311;,
 -3.433595;1.437188;2.121573;,
 -3.650001;1.511894;-0.000002;,
 -5.241984;2.429105;16.403952;,
 -5.241984;2.429105;14.566708;,
 -4.173763;2.146189;13.659021;,
 -4.327141;2.417714;15.233803;,
 -4.168939;2.373194;16.874199;,
 -3.403705;1.582942;14.960402;,
 -3.295147;-0.389986;21.168495;,
 -3.639678;-0.967504;23.497860;,
 -1.620792;-1.912217;31.852943;,
 -2.863796;-1.052158;4.330640;,
 -2.771507;-1.871892;5.730443;,
 -2.704319;-1.392955;6.824040;,
 -3.575311;-1.090514;7.655173;,
 -0.887503;-2.058981;-0.000002;,
 -1.575632;-1.481810;3.231576;,
 -0.912503;-2.029654;1.399801;,
 -3.024682;-0.707105;9.741208;,
 -1.625514;-2.089688;4.943055;,
 -0.458053;-2.311134;2.285615;,
 -1.923272;-1.912217;10.104830;,
 -2.596710;-1.119938;11.460891;,
 -2.809956;0.000890;16.600800;,
 -2.449800;-0.916272;15.879025;,
 -1.763862;-1.634624;14.741683;,
 -2.929037;-0.493977;12.838824;,
 -2.399800;-0.620573;14.085525;,
 -3.216205;-0.967504;18.459915;,
 -3.339411;0.669027;17.978733;,
 -2.349800;-1.255015;17.770948;,
 -2.456323;-1.503000;8.814385;,
 -1.683225;-2.136889;6.430345;,
 -2.335468;-1.928255;7.786405;,
 -0.458717;-2.256257;4.691527;,
 0.281009;-2.213413;3.302659;,
 0.400779;-2.169822;1.093592;,
 -0.149631;-2.289760;6.025714;,
 -0.864916;-2.227225;9.164336;,
 -1.668296;-1.818432;12.909907;,
 -0.456186;-2.300295;13.987101;,
 -0.681049;-2.326268;15.179123;,
 -1.336128;-1.934218;16.010258;,
 -0.873662;-2.195661;10.607884;,
 -1.167022;-2.000099;11.810842;,
 -1.566241;-2.089334;19.728487;,
 -1.442378;-2.039423;17.683460;,
 -2.954761;-1.255015;24.186825;,
 -3.054760;-0.916272;26.078749;,
 -2.550311;-1.634624;27.216091;,
 -2.047339;-2.039423;24.274313;,
 -1.941088;-1.934218;25.947517;,
 -1.286010;-2.326268;26.778652;,
 -0.629022;-2.155135;7.988721;,
 0.739603;-2.068166;2.187190;,
 0.324810;-2.292425;15.868089;,
 -0.316987;-2.287951;17.278830;,
 -5.000000;2.429105;41.960068;,
 -2.077346;-1.052158;37.627136;,
 -1.796878;-1.392955;35.133736;,
 -2.840627;-1.265235;36.686642;,
 -1.864065;-1.871892;36.227333;,
 -2.294229;-1.119938;30.496883;,
 -3.219229;0.124689;30.267227;,
 -3.600717;0.922614;29.053333;,
 -3.421947;0.253678;26.428699;,
 -3.414917;0.000890;25.356976;,
 -3.728436;0.544936;26.909883;,
 -3.578436;0.051688;27.303577;,
 -3.927654;0.881871;27.981609;,
 -2.929037;-0.493977;29.118950;,
 -3.186249;-0.620573;27.872250;,
 -4.003841;1.777913;29.753237;,
 -5.544463;2.429105;29.140823;,
 -0.418881;-2.253201;18.880951;,
 -0.026397;-2.197097;20.668982;,
 -5.362976;2.429105;30.803091;,
 -3.583291;0.931738;31.043682;,
 -2.540714;-0.707105;32.216568;,
 -2.689065;0.225211;33.230877;,
 -2.500002;0.050202;32.509102;,
 -5.000000;2.429105;32.334129;,
 -4.197352;2.157043;31.612354;,
 -3.721876;2.234235;32.924667;,
 -3.220791;1.049898;32.202896;,
 -5.000000;2.429105;37.364670;,
 -3.478908;1.352823;33.870628;,
 -2.546877;-1.090514;34.302601;,
 -3.268752;0.136905;33.996391;,
 -5.000000;2.429105;34.696297;,
 -5.000000;2.429105;35.833633;,
 -3.184377;1.137654;34.499451;,
 -3.995313;1.871924;36.511665;,
 -3.544533;1.891953;35.483685;,
 -3.446486;-0.109694;37.003784;,
 -2.747658;-0.009697;35.549301;,
 -3.944371;0.669027;23.979042;,
 -5.665455;2.429105;20.472134;,
 -4.419363;2.293102;21.759039;,
 -4.419363;2.293102;20.198734;,
 -4.203450;1.979443;18.689571;,
 1.133013;-1.972652;15.004147;,
 0.333369;-2.057328;11.624930;,
 0.451627;-2.035710;13.090351;,
 2.774997;-0.935206;-0.000002;,
 1.584373;-1.803103;1.181082;,
 0.357295;-2.007587;9.765815;,
 0.803392;-1.722795;4.658719;,
 2.318509;-0.853039;3.751033;,
 2.594528;-1.178643;2.034087;,
 1.395072;-1.791784;3.171428;,
 -4.324442;1.979443;23.268204;,
 -5.665455;2.429105;22.885445;,
 -5.846943;2.429105;24.022785;,
 -5.846943;2.429105;25.553822;,
 -6.028430;2.429105;27.391068;,
 -4.173762;2.146189;28.298752;,
 -4.190153;1.582942;26.997372;,
 -4.932100;2.417714;26.723972;,
 -3.907885;1.239154;25.444462;,
 -4.773897;2.373194;25.083576;,
 3.444528;0.961464;37.364670;,
 2.951560;0.083650;38.600433;,
 2.978122;-0.055491;36.796001;,
 2.411716;-1.514948;36.402306;,
 3.971090;1.883356;35.702404;,
 3.481246;0.932838;35.439941;,
 3.156247;-0.345595;35.757088;,
 1.670310;-1.790063;34.975163;,
 1.901560;-1.463895;33.821419;,
 3.249997;0.460242;41.957779;,
 3.715621;1.001065;39.136299;,
 3.589059;0.799464;40.448616;,
 4.209371;1.986164;39.869011;,
 4.999995;2.429105;39.333145;,
 4.129683;1.729415;38.239548;,
 1.576560;-1.791784;38.786346;,
 2.499997;-0.853039;38.206741;,
 1.589841;-1.722795;37.299057;,
 3.349997;-0.071576;39.726837;,
 2.594528;-1.178643;39.923691;,
 2.774997;-0.935206;41.957779;,
 2.703903;-0.804192;40.907928;,
 0.921091;-2.068166;39.770584;,
 1.584373;-1.803103;40.776695;,
 0.400779;-2.169822;40.864182;,
 0.318747;-2.429102;41.957779;,
 1.590623;-1.641537;41.957779;,
 5.004975;2.403868;41.953949;,
 3.849996;1.696693;41.957779;,
 -4.587501;2.419107;41.953857;,
 -4.001173;1.686610;37.638069;,
 1.647959;-1.364502;30.059444;,
 1.540146;-1.330557;31.306145;,
 1.384302;-1.421323;25.947517;,
 2.032349;-0.712636;25.455399;,
 2.432333;-0.144629;31.131170;,
 3.699996;1.661386;32.924667;,
 2.376169;-0.367594;32.864521;,
 2.976560;0.801552;33.055901;,
 3.001559;-0.102637;34.269791;,
 3.517184;1.088797;34.127625;,
 0.346564;-1.972652;26.953627;,
 0.757810;-2.289760;35.932060;,
 0.659775;-2.007587;32.191959;,
 -0.571182;-2.195661;31.349890;,
 0.635849;-2.057328;30.332844;,
 -0.775784;-2.136889;35.527428;,
 1.504275;-1.514948;5.555469;,
 0.762869;-1.790063;6.982612;,
 0.873127;-1.463895;8.136355;,
 1.054888;-1.992821;18.459915;,
 -0.026397;-2.197097;21.288792;,
 -0.864541;-2.000099;30.146933;,
 0.451627;-2.035710;28.867424;,
 -0.940154;-2.300295;27.970673;,
 -1.668296;-1.818432;29.047867;,
 -0.280151;-2.292425;26.089685;,
 -0.921947;-2.287951;24.678944;,
 -0.539873;-2.253201;23.076824;,
 -1.307034;-1.928255;34.171371;,
 0.399412;-2.155135;33.969055;,
 -0.017971;-2.227225;32.793438;,
 -1.609378;-1.503000;33.143387;,
 4.334540;2.429105;20.384647;,
 4.209371;1.986164;2.088765;,
 3.249997;0.460242;-0.000002;,
 2.703903;-0.804192;1.049849;,
 3.589059;0.799464;1.509161;,
 3.948196;1.729415;3.718225;,
 3.063648;1.883356;6.255370;,
 2.573805;0.932838;6.517833;,
 2.248805;-0.345595;6.200689;,
 2.658078;0.961464;4.593102;,
 2.191673;-0.055491;5.161773;,
 3.534133;1.001065;2.821477;,
 3.168508;-0.071576;2.230935;,
 2.770071;0.083650;3.357339;,
 2.637310;-0.712636;16.502377;,
 1.989263;-1.421323;16.010258;,
 1.179888;-1.915918;17.235086;,
 3.341606;0.175876;15.561882;,
 1.589127;-1.235768;18.875483;,
 0.999385;-1.729920;20.001888;,
 2.054107;-1.210274;14.938531;,
 1.345478;-1.364502;11.898330;,
 1.644595;-0.973492;13.823061;,
 1.237666;-1.330557;10.651628;,
 3.318031;1.805807;11.985818;,
 2.129853;-0.144629;10.826604;,
 2.762665;1.259692;10.673501;,
 1.529224;-0.367594;9.093253;,
 2.853051;1.661386;9.033105;,
 2.129614;0.801552;8.901874;,
 2.488750;1.088797;7.830149;,
 1.973126;-0.102637;7.687982;,
 3.371293;0.762033;17.267895;,
 2.672856;-0.287930;17.956860;,
 2.058657;-0.424719;12.609168;,
 4.758011;2.429105;14.522964;,
 3.826762;1.527419;15.441586;,
 2.869594;1.679898;13.812125;,
 2.673501;0.775641;12.565425;,
 2.701763;0.375492;14.107397;,
 4.455532;2.429105;19.028585;,
 5.001049;2.403868;0.003916;,
 4.999995;2.429105;1.224825;,
 2.200946;1.245947;19.903463;,
 2.799672;1.022413;18.820803;,
 1.997040;-0.107825;19.400408;,
 0.574927;-1.915918;24.722689;,
 1.468134;-1.235768;23.082293;,
 0.631416;-1.992821;23.497860;,
 4.153052;2.429105;24.547712;,
 2.067895;-0.287930;24.000914;,
 2.766332;0.762033;24.689880;,
 3.065145;1.259692;31.284273;,
 3.499520;1.805807;29.971956;,
 4.637020;2.429105;31.284273;,
 -0.887503;-2.058981;41.957779;,
 -0.912503;-2.029654;40.557976;,
 -2.068753;-1.271138;41.957779;,
 -2.117190;-0.706857;39.989304;,
 -3.650001;1.511894;41.957779;,
 2.385626;1.679898;28.145649;,
 4.455532;2.429105;28.834616;,
 3.971565;2.429105;27.434811;,
 3.221801;1.527419;26.516188;,
 0.327732;-2.256257;37.266251;,
 -0.839065;-2.089688;37.014717;,
 -1.394143;-1.481810;38.726196;,
 -0.276565;-2.311134;39.672157;,
 0.462497;-2.213413;38.655113;,
 2.673501;0.775641;29.392349;,
 2.736645;0.175876;26.395893;,
 1.267658;-1.210274;27.019243;,
 1.915313;0.375492;27.850376;,
 1.160627;-0.973492;28.134712;,
 2.058657;-0.424719;29.348606;,
 2.200946;1.245947;22.054310;,
 2.678680;1.022413;23.136972;,
 4.334540;2.429105;22.929188;,
 -3.189064;0.121887;40.601715;,
 -2.548440;0.415545;39.551865;,
 -2.466408;-0.147518;38.567627;,
 -3.253127;0.844268;38.283295;,
 -3.433595;1.437188;39.836205;;

 596;
 3;465,351,466;,
 3;464,465,466;,
 3;466,462,463;,
 3;464,466,463;,
 3;161,164,461;,
 3;384,161,461;,
 3;460,461,164;,
 3;459,163,460;,
 3;459,460,164;,
 3;456,457,458;,
 3;455,457,456;,
 3;454,455,456;,
 3;453,456,458;,
 3;450,5,1;,
 3;10,8,450;,
 3;0,9,450;,
 3;447,454,456;,
 3;444,445,446;,
 3;453,445,444;,
 3;444,447,456;,
 3;456,453,444;,
 3;443,156,462;,
 3;442,463,462;,
 3;442,464,463;,
 3;439,440,441;,
 3;437,438,445;,
 3;453,437,445;,
 3;436,438,437;,
 3;453,436,437;,
 3;446,447,444;,
 3;460,434,435;,
 3;433,461,460;,
 3;431,162,13;,
 3;21,431,12;,
 3;427,428,429;,
 3;161,428,427;,
 3;163,434,460;,
 3;425,155,426;,
 3;424,428,161;,
 3;421,422,423;,
 3;420,421,423;,
 3;419,154,421;,
 3;419,421,420;,
 3;131,422,421;,
 3;418,423,422;,
 3;416,417,428;,
 3;153,416,428;,
 3;424,153,428;,
 3;429,428,417;,
 3;413,414,415;,
 3;412,414,413;,
 3;411,413,415;,
 3;410,412,413;,
 3;410,413,411;,
 3;409,418,422;,
 3;409,410,411;,
 3;130,152,408;,
 3;410,408,128;,
 3;151,414,412;,
 3;151,412,127;,
 3;128,412,410;,
 3;422,131,408;,
 3;422,410,409;,
 3;410,422,408;,
 3;407,409,411;,
 3;418,405,406;,
 3;405,409,407;,
 3;406,404,423;,
 3;418,406,423;,
 3;429,402,403;,
 3;401,423,404;,
 3;420,423,401;,
 3;417,402,429;,
 3;398,399,400;,
 3;404,399,398;,
 3;401,404,398;,
 3;400,402,417;,
 3;398,400,417;,
 3;416,398,417;,
 3;401,398,416;,
 3;420,416,129;,
 3;416,420,401;,
 3;418,409,405;,
 3;419,420,129;,
 3;395,396,397;,
 3;393,397,394;,
 3;392,393,394;,
 3;414,390,391;,
 3;391,415,414;,
 3;392,415,391;,
 3;395,397,393;,
 3;389,393,125;,
 3;149,389,125;,
 3;386,387,388;,
 3;132,386,388;,
 3;396,388,387;,
 3;395,388,396;,
 3;385,388,395;,
 3;389,385,395;,
 3;389,395,393;,
 3;385,389,124;,
 3;390,150,393;,
 3;390,393,391;,
 3;393,392,391;,
 3;426,385,124;,
 3;385,132,388;,
 3;426,132,385;,
 3;126,390,414;,
 3;126,150,390;,
 3;431,434,163;,
 3;384,424,161;,
 3;162,431,163;,
 3;460,435,433;,
 3;25,210,383;,
 3;28,24,383;,
 3;380,27,383;,
 3;32,20,11;,
 3;378,19,31;,
 3;377,18,378;,
 3;36,375,376;,
 3;373,35,376;,
 3;39,30,162;,
 3;432,162,29;,
 3;371,402,400;,
 3;403,402,371;,
 3;369,370,415;,
 3;368,369,415;,
 3;411,415,370;,
 3;63,411,370;,
 3;392,368,415;,
 3;42,26,380;,
 3;373,48,45;,
 3;47,23,364;,
 3;363,381,41;,
 3;44,46,364;,
 3;34,373,43;,
 3;377,375,54;,
 3;381,364,22;,
 3;33,53,375;,
 3;440,4,450;,
 3;359,360,361;,
 3;358,360,359;,
 3;357,359,361;,
 3;436,358,359;,
 3;436,359,357;,
 3;356,453,458;,
 3;356,358,436;,
 3;357,361,123;,
 3;438,357,123;,
 3;436,357,438;,
 3;453,356,436;,
 3;355,455,454;,
 3;17,355,434;,
 3;431,16,434;,
 3;354,455,355;,
 3;15,354,355;,
 3;435,454,447;,
 3;434,355,435;,
 3;454,435,355;,
 3;356,352,353;,
 3;353,366,364;,
 3;352,366,353;,
 3;358,356,353;,
 3;374,366,352;,
 3;458,352,356;,
 3;52,455,354;,
 3;457,455,51;,
 3;457,374,352;,
 3;458,457,352;,
 3;50,374,457;,
 3;447,446,433;,
 3;435,447,433;,
 3;161,427,459;,
 3;164,161,459;,
 3;147,466,351;,
 3;443,466,350;,
 3;122,350,466;,
 3;462,466,443;,
 3;348,146,349;,
 3;59,55,347;,
 3;344,58,347;,
 3;343,57,344;,
 3;342,344,347;,
 3;341,342,347;,
 3;340,344,342;,
 3;342,339,340;,
 3;7,363,40;,
 3;448,363,6;,
 3;3,56,343;,
 3;452,2,343;,
 3;336,337,338;,
 3;340,337,336;,
 3;333,334,335;,
 3;331,332,333;,
 3;331,333,335;,
 3;331,339,332;,
 3;440,346,345;,
 3;440,345,451;,
 3;439,346,440;,
 3;324,363,448;,
 3;338,324,448;,
 3;336,338,448;,
 3;330,349,332;,
 3;452,343,336;,
 3;448,452,336;,
 3;342,332,339;,
 3;330,342,341;,
 3;342,330,332;,
 3;343,344,340;,
 3;336,343,340;,
 3;121,334,333;,
 3;333,349,121;,
 3;333,332,349;,
 3;145,335,334;,
 3;329,364,381;,
 3;328,329,381;,
 3;326,360,327;,
 3;361,360,326;,
 3;325,361,326;,
 3;328,363,324;,
 3;158,296,208;,
 3;337,324,338;,
 3;323,324,337;,
 3;322,337,340;,
 3;323,337,322;,
 3;327,324,323;,
 3;321,327,323;,
 3;322,331,321;,
 3;323,322,321;,
 3;321,335,120;,
 3;321,331,335;,
 3;325,321,120;,
 3;326,321,325;,
 3;326,327,321;,
 3;381,363,328;,
 3;364,358,353;,
 3;364,329,360;,
 3;358,364,360;,
 3;217,157,216;,
 3;360,329,328;,
 3;324,360,328;,
 3;327,360,324;,
 3;340,339,331;,
 3;322,340,331;,
 3;325,119,148;,
 3;361,325,148;,
 3;14,49,354;,
 3;377,362,430;,
 3;318,319,320;,
 3;317,319,318;,
 3;316,317,318;,
 3;315,316,318;,
 3;315,318,314;,
 3;320,314,318;,
 3;311,312,313;,
 3;308,309,310;,
 3;307,308,310;,
 3;368,308,307;,
 3;62,407,411;,
 3;440,450,441;,
 3;394,308,368;,
 3;397,309,308;,
 3;397,308,394;,
 3;387,305,309;,
 3;144,305,387;,
 3;396,387,309;,
 3;304,144,387;,
 3;386,304,387;,
 3;397,396,309;,
 3;392,394,368;,
 3;405,72,69;,
 3;71,407,61;,
 3;405,407,70;,
 3;406,68,301;,
 3;404,406,301;,
 3;405,67,406;,
 3;299,300,117;,
 3;142,300,299;,
 3;299,297,312;,
 3;298,299,312;,
 3;297,299,117;,
 3;298,311,158;,
 3;311,298,312;,
 3;320,296,311;,
 3;319,296,320;,
 3;313,314,320;,
 3;293,294,295;,
 3;292,294,293;,
 3;291,293,295;,
 3;293,290,292;,
 3;289,290,293;,
 3;291,287,288;,
 3;295,287,291;,
 3;286,291,288;,
 3;285,351,292;,
 3;351,294,292;,
 3;290,285,292;,
 3;293,286,289;,
 3;291,286,293;,
 3;283,286,284;,
 3;282,283,284;,
 3;281,283,282;,
 3;284,279,280;,
 3;279,286,288;,
 3;278,284,280;,
 3;277,284,278;,
 3;282,284,277;,
 3;276,281,282;,
 3;276,282,277;,
 3;284,286,279;,
 3;403,80,76;,
 3;371,79,403;,
 3;399,404,301;,
 3;400,399,301;,
 3;158,311,296;,
 3;272,273,276;,
 3;264,270,271;,
 3;269,264,271;,
 3;268,269,271;,
 3;267,269,268;,
 3;319,265,266;,
 3;142,159,229;,
 3;296,319,266;,
 3;317,267,265;,
 3;269,267,317;,
 3;316,264,269;,
 3;317,316,269;,
 3;218,166,222;,
 3;272,263,264;,
 3;277,263,272;,
 3;316,272,264;,
 3;316,273,272;,
 3;319,317,265;,
 3;276,277,272;,
 3;315,273,316;,
 3;289,286,283;,
 3;281,289,283;,
 3;311,313,320;,
 3;262,277,278;,
 3;263,277,262;,
 3;270,264,263;,
 3;285,147,351;,
 3;465,294,351;,
 3;295,260,261;,
 3;259,295,261;,
 3;287,295,259;,
 3;258,294,464;,
 3;450,258,464;,
 3;287,279,288;,
 3;278,279,287;,
 3;280,279,278;,
 3;294,260,295;,
 3;442,450,464;,
 3;465,464,294;,
 3;462,133,442;,
 3;442,133,441;,
 3;257,350,122;,
 3;450,442,441;,
 3;400,87,82;,
 3;78,400,81;,
 3;301,86,400;,
 3;371,400,77;,
 3;254,309,305;,
 3;310,309,254;,
 3;91,60,370;,
 3;369,90,370;,
 3;251,252,377;,
 3;378,251,377;,
 3;250,251,378;,
 3;248,249,251;,
 3;247,248,251;,
 3;265,268,248;,
 3;267,268,265;,
 3;266,265,248;,
 3;252,251,249;,
 3;376,252,249;,
 3;250,247,251;,
 3;375,377,252;,
 3;246,274,256;,
 3;245,274,246;,
 3;75,274,245;,
 3;302,243,244;,
 3;66,302,244;,
 3;85,241,242;,
 3;256,84,242;,
 3;239,95,65;,
 3;244,239,64;,
 3;306,243,302;,
 3;94,241,83;,
 3;301,93,255;,
 3;303,92,301;,
 3;238,243,306;,
 3;89,238,306;,
 3;99,88,369;,
 3;103,254,305;,
 3;106,310,254;,
 3;109,310,105;,
 3;118,141,102;,
 3;305,118,101;,
 3;307,108,98;,
 3;368,307,97;,
 3;166,226,222;,
 3;369,368,96;,
 3;310,107,307;,
 3;140,379,38;,
 3;253,232,233;,
 3;231,253,233;,
 3;238,253,231;,
 3;221,238,231;,
 3;246,230,160;,
 3;245,246,160;,
 3;160,228,229;,
 3;242,230,246;,
 3;239,226,227;,
 3;225,239,227;,
 3;224,225,227;,
 3;231,214,218;,
 3;230,223,229;,
 3;228,230,229;,
 3;224,223,230;,
 3;160,230,228;,
 3;159,160,229;,
 3;244,221,222;,
 3;111,254,100;,
 3;104,254,110;,
 3;219,232,237;,
 3;234,219,237;,
 3;239,244,222;,
 3;242,225,224;,
 3;226,239,222;,
 3;218,222,221;,
 3;224,227,169;,
 3;217,236,116;,
 3;220,236,217;,
 3;216,219,234;,
 3;216,235,220;,
 3;234,235,216;,
 3;230,242,224;,
 3;225,242,241;,
 3;239,241,240;,
 3;256,242,246;,
 3;243,221,244;,
 3;238,221,243;,
 3;253,237,232;,
 3;215,217,116;,
 3;214,231,233;,
 3;218,221,231;,
 3;213,214,233;,
 3;232,212,213;,
 3;219,211,212;,
 3;216,211,219;,
 3;233,232,213;,
 3;232,219,212;,
 3;217,216,220;,
 3;225,241,239;,
 3;139,247,250;,
 3;140,139,250;,
 3;379,250,378;,
 3;140,250,379;,
 3;159,208,139;,
 3;373,262,210;,
 3;376,262,373;,
 3;365,373,210;,
 3;382,365,210;,
 3;376,375,252;,
 3;259,367,380;,
 3;261,367,259;,
 3;449,367,261;,
 3;260,294,258;,
 3;261,258,449;,
 3;258,261,260;,
 3;258,450,449;,
 3;287,259,380;,
 3;383,287,380;,
 3;278,210,262;,
 3;210,278,383;,
 3;383,278,287;,
 3;296,209,139;,
 3;247,139,209;,
 3;270,262,376;,
 3;271,270,376;,
 3;248,271,376;,
 3;249,248,376;,
 3;248,268,271;,
 3;247,266,248;,
 3;212,211,165;,
 3;263,262,270;,
 3;296,247,209;,
 3;296,266,247;,
 3;296,139,208;,
 3;205,206,207;,
 3;204,205,207;,
 3;203,205,204;,
 3;205,203,202;,
 3;202,206,205;,
 3;138,200,201;,
 3;137,200,115;,
 3;300,229,206;,
 3;199,206,229;,
 3;207,206,199;,
 3;198,300,206;,
 3;206,202,198;,
 3;197,137,115;,
 3;201,195,196;,
 3;193,194,195;,
 3;193,192,194;,
 3;191,192,193;,
 3;200,191,193;,
 3;200,193,195;,
 3;217,215,157;,
 3;190,191,200;,
 3;114,190,200;,
 3;201,200,195;,
 3;142,229,300;,
 3;143,300,198;,
 3;187,188,189;,
 3;186,187,189;,
 3;185,188,187;,
 3;186,184,187;,
 3;187,184,183;,
 3;182,188,185;,
 3;181,182,185;,
 3;186,190,113;,
 3;190,186,189;,
 3;186,113,184;,
 3;187,183,181;,
 3;185,187,181;,
 3;178,179,180;,
 3;214,182,181;,
 3;175,176,177;,
 3;177,214,181;,
 3;218,176,175;,
 3;174,218,175;,
 3;175,173,178;,
 3;178,174,175;,
 3;173,179,178;,
 3;175,181,173;,
 3;180,174,178;,
 3;175,177,181;,
 3;207,171,172;,
 3;204,207,172;,
 3;165,211,189;,
 3;170,204,172;,
 3;204,170,112;,
 3;226,172,171;,
 3;227,226,171;,
 3;169,227,171;,
 3;207,168,169;,
 3;167,168,207;,
 3;223,199,229;,
 3;168,167,169;,
 3;167,199,223;,
 3;171,207,169;,
 3;207,199,167;,
 3;170,166,174;,
 3;172,166,170;,
 3;180,135,170;,
 3;204,112,203;,
 3;174,180,170;,
 3;183,179,173;,
 3;181,183,173;,
 3;218,174,166;,
 3;226,166,172;,
 3;190,114,136;,
 3;191,190,189;,
 3;188,213,212;,
 3;214,213,188;,
 3;165,188,212;,
 3;182,214,188;,
 3;218,214,177;,
 3;176,218,177;,
 3;192,211,216;,
 3;194,192,216;,
 3;189,188,165;,
 3;189,211,192;,
 3;191,189,192;,
 3;134,196,194;,
 3;194,196,195;,
 3;134,194,216;,
 3;167,224,169;,
 3;223,224,167;,
 3;140,245,159;,
 3;245,160,159;,
 3;163,459,427;,
 3;429,163,427;,
 3;162,163,429;,
 3;403,162,429;,
 3;140,37,74;,
 3;245,140,73;,
 3;372,162,403;,
 3;275,372,403;,
 3;139,140,159;,
 3;158,208,159;,
 3;142,158,159;,
 3;298,158,142;,
 3;299,298,142;;

 MeshMaterialList {
  2;
  596;
  0,
  0,
  0,
  0,
  1,
  1,
  1,
  1,
  1,
  1,
  1,
  1,
  1,
  0,
  0,
  0,
  1,
  1,
  1,
  1,
  1,
  0,
  0,
  0,
  0,
  1,
  1,
  1,
  1,
  1,
  1,
  1,
  1,
  1,
  1,
  1,
  1,
  1,
  1,
  1,
  1,
  1,
  1,
  1,
  1,
  1,
  1,
  1,
  1,
  1,
  1,
  1,
  1,
  1,
  1,
  1,
  1,
  1,
  1,
  1,
  1,
  1,
  1,
  1,
  1,
  1,
  1,
  1,
  1,
  1,
  1,
  1,
  1,
  1,
  1,
  1,
  1,
  1,
  1,
  1,
  1,
  1,
  1,
  1,
  1,
  1,
  1,
  1,
  1,
  1,
  1,
  1,
  1,
  1,
  1,
  1,
  1,
  1,
  1,
  1,
  1,
  1,
  1,
  1,
  1,
  1,
  1,
  1,
  1,
  1,
  1,
  1,
  1,
  0,
  0,
  0,
  0,
  0,
  0,
  0,
  0,
  1,
  1,
  1,
  1,
  1,
  1,
  1,
  1,
  1,
  0,
  0,
  1,
  1,
  1,
  0,
  0,
  1,
  0,
  0,
  1,
  1,
  1,
  1,
  1,
  1,
  1,
  1,
  1,
  1,
  1,
  1,
  1,
  1,
  1,
  1,
  1,
  1,
  1,
  1,
  1,
  1,
  1,
  1,
  1,
  1,
  1,
  1,
  1,
  1,
  1,
  1,
  1,
  1,
  0,
  0,
  0,
  0,
  1,
  1,
  1,
  1,
  1,
  1,
  1,
  1,
  1,
  1,
  1,
  1,
  1,
  1,
  1,
  1,
  1,
  1,
  0,
  0,
  0,
  1,
  1,
  1,
  1,
  1,
  1,
  1,
  1,
  1,
  1,
  1,
  1,
  1,
  1,
  1,
  1,
  1,
  1,
  1,
  1,
  1,
  0,
  1,
  1,
  1,
  1,
  1,
  1,
  1,
  1,
  1,
  1,
  1,
  1,
  1,
  1,
  1,
  1,
  1,
  0,
  1,
  1,
  1,
  1,
  1,
  1,
  1,
  1,
  0,
  0,
  0,
  0,
  0,
  0,
  0,
  0,
  1,
  1,
  1,
  1,
  0,
  1,
  1,
  1,
  1,
  1,
  1,
  1,
  1,
  1,
  1,
  1,
  1,
  1,
  1,
  1,
  1,
  0,
  0,
  0,
  0,
  0,
  0,
  0,
  0,
  0,
  0,
  0,
  0,
  0,
  0,
  0,
  0,
  0,
  0,
  0,
  0,
  0,
  0,
  0,
  0,
  0,
  0,
  0,
  0,
  0,
  0,
  0,
  0,
  0,
  0,
  1,
  1,
  1,
  1,
  0,
  0,
  0,
  0,
  0,
  0,
  0,
  0,
  0,
  0,
  0,
  0,
  0,
  0,
  0,
  0,
  0,
  0,
  0,
  0,
  0,
  0,
  0,
  0,
  0,
  0,
  0,
  0,
  0,
  0,
  0,
  0,
  0,
  0,
  0,
  0,
  0,
  0,
  0,
  0,
  0,
  0,
  0,
  0,
  1,
  1,
  1,
  1,
  1,
  1,
  1,
  1,
  0,
  0,
  0,
  0,
  0,
  0,
  0,
  0,
  0,
  0,
  0,
  0,
  0,
  0,
  0,
  0,
  0,
  0,
  0,
  0,
  0,
  0,
  0,
  1,
  1,
  0,
  0,
  1,
  1,
  1,
  1,
  1,
  1,
  1,
  1,
  0,
  1,
  1,
  0,
  0,
  0,
  0,
  0,
  0,
  0,
  0,
  0,
  0,
  0,
  0,
  0,
  0,
  0,
  0,
  0,
  0,
  0,
  1,
  1,
  0,
  0,
  0,
  0,
  0,
  0,
  0,
  0,
  0,
  0,
  0,
  0,
  0,
  0,
  0,
  0,
  0,
  0,
  0,
  0,
  0,
  0,
  0,
  0,
  0,
  0,
  0,
  0,
  0,
  0,
  0,
  0,
  0,
  0,
  0,
  0,
  0,
  0,
  0,
  0,
  0,
  0,
  0,
  0,
  0,
  0,
  0,
  0,
  0,
  0,
  0,
  0,
  0,
  0,
  0,
  0,
  0,
  0,
  0,
  0,
  0,
  0,
  0,
  0,
  0,
  0,
  0,
  0,
  0,
  0,
  0,
  0,
  0,
  0,
  0,
  0,
  0,
  0,
  0,
  0,
  0,
  0,
  0,
  0,
  0,
  0,
  0,
  0,
  0,
  0,
  0,
  0,
  0,
  0,
  0,
  0,
  0,
  0,
  0,
  0,
  0,
  0,
  0,
  0,
  0,
  0,
  0,
  0,
  0,
  0,
  0,
  0,
  0,
  0,
  0,
  0,
  0,
  0,
  0,
  0,
  0,
  0,
  0,
  0,
  0,
  0,
  0,
  0,
  0,
  0,
  0,
  0,
  0,
  0,
  0,
  0,
  0,
  0,
  0,
  0,
  0,
  0,
  0,
  0,
  0,
  0,
  0,
  0,
  0,
  0,
  0,
  0,
  0,
  0,
  0,
  0,
  0,
  0,
  1,
  1,
  1,
  1,
  0,
  0,
  1,
  1,
  0,
  0,
  0,
  0,
  0;
Material {
 1.000000;1.000000;1.000000;1.000000;;
 50.000000;
 1.000000;1.000000;1.000000;;
 0.0; 0.0; 0.0;;
 TextureFilename {
  "rock.ppm";
 }
 }
Material {
 1.000000;1.000000;1.000000;1.000000;;
 50.000000;
 1.000000;1.000000;1.000000;;
 0.0; 0.0; 0.0;;
 TextureFilename {
  "rock.ppm";
 }
 }
}
 MeshNormals {
  467;
  -0.039979;0.997627;0.056058;,
  -0.039979;0.997627;0.056058;,
  0.136825;0.989641;0.043471;,
  0.136825;0.989641;0.043471;,
  0.136825;0.989641;0.043471;,
  0.136825;0.989641;0.043471;,
  0.301227;0.944240;-0.132944;,
  0.301227;0.944240;-0.132944;,
  0.301227;0.944240;-0.132944;,
  -0.123596;0.988745;-0.084308;,
  -0.123596;0.988745;-0.084308;,
  -0.471409;0.881664;-0.021036;,
  -0.471409;0.881664;-0.021036;,
  -0.471409;0.881664;-0.021036;,
  -0.507776;0.861450;0.008205;,
  -0.507776;0.861450;0.008205;,
  -0.507776;0.861450;0.008205;,
  -0.507776;0.861450;0.008205;,
  -0.507776;0.861450;0.008205;,
  -0.507776;0.861450;0.008205;,
  -0.507776;0.861450;0.008205;,
  -0.507776;0.861450;0.008205;,
  0.094791;0.991979;-0.083626;,
  0.094791;0.991979;-0.083626;,
  0.094791;0.991979;-0.083626;,
  0.094791;0.991979;-0.083626;,
  -0.091844;0.992002;0.086585;,
  -0.091844;0.992002;0.086585;,
  -0.091844;0.992002;0.086585;,
  -0.088873;0.996004;0.008782;,
  -0.088873;0.996004;0.008782;,
  -0.088873;0.996004;0.008782;,
  -0.088873;0.996004;0.008782;,
  -0.323230;0.945686;0.034653;,
  -0.323230;0.945686;0.034653;,
  -0.323230;0.945686;0.034653;,
  -0.323230;0.945686;0.034653;,
  -0.211142;0.977450;-0.003215;,
  -0.211142;0.977450;-0.003215;,
  -0.211142;0.977450;-0.003215;,
  0.279400;0.958136;0.062536;,
  0.279400;0.958136;0.062536;,
  0.279400;0.958136;0.062536;,
  -0.319003;0.947448;0.024075;,
  -0.319003;0.947448;0.024075;,
  -0.319003;0.947448;0.024075;,
  0.038932;0.997902;0.051723;,
  0.038932;0.997902;0.051723;,
  0.038932;0.997902;0.051723;,
  -0.515556;0.853823;-0.072031;,
  -0.515556;0.853823;-0.072031;,
  -0.515556;0.853823;-0.072031;,
  -0.515556;0.853823;-0.072031;,
  -0.515556;0.853823;-0.072031;,
  -0.515556;0.853823;-0.072031;,
  -0.063269;0.987279;0.145865;,
  -0.194321;0.980937;0.001583;,
  -0.194321;0.980937;0.001583;,
  -0.194321;0.980937;0.001583;,
  -0.194321;0.980937;0.001583;,
  -0.468337;0.881711;0.056980;,
  -0.468337;0.881711;0.056980;,
  -0.468337;0.881711;0.056980;,
  -0.468337;0.881711;0.056980;,
  -0.303630;0.949880;0.074406;,
  -0.303630;0.949880;0.074406;,
  -0.303630;0.949880;0.074406;,
  -0.303630;0.949880;0.074406;,
  -0.303630;0.949880;0.074406;,
  -0.303630;0.949880;0.074406;,
  -0.323471;0.946224;-0.005238;,
  -0.323471;0.946224;-0.005238;,
  -0.323471;0.946224;-0.005238;,
  -0.114670;0.993404;0.000353;,
  -0.114670;0.993404;0.000353;,
  -0.114670;0.993404;0.000353;,
  -0.114670;0.993404;0.000353;,
  -0.076972;0.996838;-0.019728;,
  -0.076972;0.996838;-0.019728;,
  -0.076972;0.996838;-0.019728;,
  -0.076972;0.996838;-0.019728;,
  0.038523;0.999253;0.002994;,
  0.038523;0.999253;0.002994;,
  -0.093340;0.994932;-0.037382;,
  -0.093340;0.994932;-0.037382;,
  -0.093340;0.994932;-0.037382;,
  -0.093340;0.994932;-0.037382;,
  -0.093340;0.994932;-0.037382;,
  -0.076243;0.994540;-0.071258;,
  -0.076243;0.994540;-0.071258;,
  -0.076243;0.994540;-0.071258;,
  -0.076243;0.994540;-0.071258;,
  -0.034500;0.991898;0.122262;,
  -0.034500;0.991898;0.122262;,
  -0.034500;0.991898;0.122262;,
  -0.034500;0.991898;0.122262;,
  -0.183021;0.983108;-0.001307;,
  -0.183021;0.983108;-0.001307;,
  -0.183021;0.983108;-0.001307;,
  -0.183021;0.983108;-0.001307;,
  -0.193492;0.981035;-0.011481;,
  -0.193492;0.981035;-0.011481;,
  -0.193492;0.981035;-0.011481;,
  -0.193492;0.981035;-0.011481;,
  -0.045574;0.997236;-0.058688;,
  -0.045574;0.997236;-0.058688;,
  -0.045574;0.997236;-0.058688;,
  -0.079341;0.995489;0.052024;,
  -0.079341;0.995489;0.052024;,
  -0.079341;0.995489;0.052024;,
  0.148279;0.988532;-0.028609;,
  0.148279;0.988532;-0.028609;,
  0.270414;0.955336;-0.119203;,
  0.544944;0.838300;-0.016975;,
  0.577565;0.787197;0.216193;,
  0.280369;0.958083;0.058908;,
  0.173560;0.976723;-0.126056;,
  0.193174;0.978307;-0.074830;,
  -0.418352;0.908136;-0.016477;,
  -0.468581;0.883421;0.000000;,
  -0.683303;0.728526;0.048448;,
  -0.501323;0.865126;0.015230;,
  0.301057;0.952635;-0.043034;,
  -0.556288;0.810097;0.185165;,
  -0.575791;0.817326;-0.021071;,
  -0.702991;0.657263;-0.271679;,
  -0.551318;0.831699;0.065762;,
  -0.495201;0.867806;0.041090;,
  -0.596404;0.801662;0.040511;,
  -0.734355;0.677759;0.036954;,
  -0.499243;0.866111;0.024658;,
  -0.670817;0.739920;-0.050231;,
  -0.801341;0.595319;0.058721;,
  0.708142;0.700695;0.086956;,
  0.839847;0.526932;-0.130384;,
  0.379838;0.924640;-0.027647;,
  0.618930;0.760974;0.194535;,
  0.280369;0.958083;0.058908;,
  0.694583;0.717968;-0.045568;,
  0.703790;0.683877;0.192333;,
  0.373109;0.926917;0.040178;,
  -0.519676;0.839249;-0.159996;,
  0.892601;0.450174;0.024625;,
  0.339703;0.936184;0.090345;,
  -0.588223;0.808426;-0.021026;,
  -0.626572;0.779364;0.000000;,
  -0.522029;0.852699;0.019753;,
  0.571635;0.820185;-0.023022;,
  -0.591902;0.802351;-0.076708;,
  -0.764113;0.606352;-0.220153;,
  -0.555631;0.822089;-0.124273;,
  -0.533110;0.841695;-0.085698;,
  -0.499243;0.866111;0.024658;,
  -0.675133;0.696702;-0.242491;,
  -0.395026;0.914696;0.085360;,
  -0.523342;0.851931;-0.018061;,
  0.920779;0.382073;-0.078657;,
  0.566237;0.823969;-0.021230;,
  0.928446;0.366935;0.057857;,
  0.845965;0.532344;0.030880;,
  0.747575;0.660899;-0.065909;,
  -0.453337;0.878298;-0.151913;,
  -0.646763;0.762398;0.021154;,
  -0.922133;0.369205;0.115579;,
  -0.533857;0.812414;0.234478;,
  0.748605;0.661010;0.051552;,
  0.884187;0.456495;-0.099123;,
  0.934520;0.355475;0.017597;,
  0.924616;0.375904;-0.061487;,
  0.908239;0.407679;-0.094337;,
  0.732326;0.660194;-0.166860;,
  0.885418;0.421594;-0.195687;,
  0.911766;0.383213;-0.147752;,
  0.588345;0.789310;-0.175613;,
  0.848266;0.522642;0.085385;,
  0.886614;0.456519;-0.074201;,
  0.924953;0.355560;-0.134308;,
  0.885401;0.369659;-0.281811;,
  0.573033;0.799690;0.179244;,
  0.176470;0.984297;0.004212;,
  0.468693;0.882085;0.047468;,
  0.796947;0.549364;-0.251147;,
  0.958380;0.279835;0.056571;,
  0.428250;0.902599;-0.043779;,
  0.410968;0.910928;-0.036285;,
  0.918830;0.292180;0.265296;,
  0.701326;0.702978;-0.118166;,
  0.725007;0.686927;-0.049961;,
  0.896010;0.441829;-0.044191;,
  0.863823;0.454096;0.218188;,
  0.687072;0.684509;0.243679;,
  0.709438;0.551345;0.438995;,
  0.764489;0.500834;0.405860;,
  0.838414;0.541950;-0.057901;,
  0.801365;0.591350;-0.090106;,
  0.842015;0.500825;-0.200460;,
  0.795084;0.605653;-0.032010;,
  0.024212;0.999705;0.001647;,
  0.218516;0.970580;0.101118;,
  0.878300;0.462913;0.119587;,
  0.746174;0.664550;0.039968;,
  0.888550;0.458354;-0.019770;,
  0.035481;0.999341;0.007689;,
  0.121960;0.990368;-0.065548;,
  0.547461;0.827006;-0.127859;,
  0.317754;0.946787;-0.051257;,
  0.545170;0.832635;0.097512;,
  0.859621;0.501688;-0.096753;,
  0.890423;0.454526;0.023513;,
  0.803953;0.577963;0.140067;,
  0.517762;0.853790;-0.054451;,
  0.547690;0.659131;0.515347;,
  0.553209;0.831487;-0.050887;,
  0.662617;0.746889;0.055635;,
  0.740659;0.645654;-0.185892;,
  0.428594;0.903427;-0.011273;,
  0.589551;0.799332;0.116184;,
  0.380924;0.924441;-0.017456;,
  0.859463;0.503037;-0.090974;,
  0.280460;0.939985;0.194348;,
  0.148279;0.988532;-0.028609;,
  0.515640;0.855252;-0.051577;,
  0.695324;0.715374;-0.069031;,
  0.922920;0.373791;0.092192;,
  0.861191;0.506358;0.044188;,
  0.696542;0.717504;0.004174;,
  0.807213;0.561851;-0.180915;,
  0.825590;0.559965;-0.069576;,
  0.838612;0.539710;0.073769;,
  0.908670;0.393878;0.138486;,
  0.731974;0.662957;0.157168;,
  0.492540;0.860376;-0.130984;,
  0.280640;0.958791;-0.044275;,
  0.426054;0.902908;-0.056880;,
  -0.079341;0.995489;0.052024;,
  -0.045574;0.997236;-0.058688;,
  -0.193492;0.981035;-0.011481;,
  -0.183021;0.983108;-0.001307;,
  0.143112;0.988410;0.050641;,
  0.511169;0.859469;-0.004417;,
  -0.034500;0.991898;0.122262;,
  0.316774;0.947136;-0.050860;,
  0.470016;0.882653;0.003054;,
  0.057961;0.996951;-0.052251;,
  0.260724;0.961863;-0.082720;,
  0.418319;0.908293;-0.003468;,
  0.446816;0.893107;0.052107;,
  0.736708;0.670682;-0.086289;,
  0.879704;0.473416;-0.044693;,
  0.713305;0.692647;-0.106941;,
  0.445003;0.894425;0.044447;,
  0.463803;0.885736;0.018932;,
  0.303222;0.952836;0.012637;,
  -0.076243;0.994540;-0.071258;,
  -0.321610;0.946714;-0.017334;,
  -0.093340;0.994932;-0.037382;,
  0.038523;0.999253;0.002994;,
  0.024228;0.999706;0.000000;,
  0.589387;0.717373;-0.371480;,
  0.664701;0.746985;-0.013640;,
  0.738132;0.674576;-0.010389;,
  0.545062;0.834930;0.076159;,
  0.731364;0.679726;-0.055497;,
  0.870597;0.487354;-0.067429;,
  0.905785;0.401964;-0.134085;,
  0.917732;0.377951;0.122147;,
  0.922920;0.373791;-0.092192;,
  0.901145;0.395093;0.178435;,
  0.911903;0.400373;0.090193;,
  0.928478;0.354749;-0.109914;,
  0.816403;0.565821;-0.115464;,
  0.823501;0.546576;-0.151990;,
  0.718417;0.691236;0.077911;,
  0.300469;0.953116;0.035884;,
  -0.076972;0.996838;-0.019728;,
  -0.114670;0.993404;0.000353;,
  0.492384;0.862907;-0.113799;,
  0.810841;0.558790;-0.174041;,
  0.891270;0.438964;-0.113792;,
  0.899718;0.333036;0.282125;,
  0.951306;0.270476;-0.147849;,
  0.210002;0.975495;-0.065642;,
  0.563342;0.766802;-0.307669;,
  0.622565;0.782507;0.009794;,
  0.852063;0.473794;-0.222506;,
  0.551444;0.832958;0.045712;,
  0.851059;0.522826;0.048501;,
  0.798610;0.598868;-0.059823;,
  0.940431;0.337696;0.039376;,
  0.429479;0.902250;0.038643;,
  0.405764;0.911897;0.061640;,
  0.901611;0.344491;-0.261578;,
  0.702417;0.692804;0.163199;,
  0.720349;0.687159;0.094397;,
  0.881627;0.464655;-0.082638;,
  0.870025;0.452747;0.195132;,
  0.924680;0.380717;-0.004664;,
  0.109534;0.993972;0.004778;,
  0.643936;0.763377;0.051001;,
  0.422068;0.906236;-0.024401;,
  0.614706;0.786782;0.055768;,
  -0.492369;0.861383;0.124869;,
  -0.323471;0.946224;-0.005238;,
  -0.303630;0.949880;0.074406;,
  -0.771142;0.623250;-0.129997;,
  -0.477056;0.876608;0.063059;,
  -0.468337;0.881711;0.056980;,
  -0.448792;0.893279;-0.025260;,
  -0.770447;0.604958;-0.201089;,
  -0.716043;0.691666;-0.094231;,
  -0.464986;0.873062;-0.146801;,
  0.646735;0.758447;0.080570;,
  0.198430;0.978422;0.057591;,
  0.189746;0.981140;-0.036873;,
  0.035016;0.999360;-0.007326;,
  0.091351;0.995449;0.027135;,
  0.684887;0.725906;-0.063169;,
  0.884361;0.466719;0.008828;,
  0.448298;0.893652;-0.020398;,
  0.853905;0.516415;-0.064511;,
  0.532297;0.845704;-0.038006;,
  -0.834153;0.551472;-0.008201;,
  -0.871393;0.483504;0.083060;,
  -0.883203;0.444739;-0.148858;,
  -0.665072;0.744407;-0.059467;,
  -0.746360;0.665481;0.009068;,
  -0.928982;0.368894;0.030157;,
  -0.904260;0.423903;-0.051184;,
  -0.553251;0.823208;0.127446;,
  -0.620906;0.765968;0.166640;,
  -0.912567;0.407693;-0.031750;,
  -0.848614;0.509221;0.143347;,
  -0.903409;0.417855;-0.096174;,
  -0.732527;0.679697;-0.037646;,
  -0.553563;0.832062;-0.035213;,
  -0.721823;0.691645;-0.024462;,
  -0.493965;0.868740;0.035903;,
  -0.795255;0.606068;-0.015813;,
  -0.506337;0.857748;-0.088835;,
  -0.876331;0.478951;0.051482;,
  -0.714218;0.691036;0.111187;,
  -0.771142;0.623250;0.129997;,
  -0.791458;0.606790;-0.073484;,
  -0.333957;0.942535;-0.009996;,
  -0.483744;0.871183;-0.083856;,
  -0.194321;0.980937;0.001583;,
  -0.063269;0.987279;0.145865;,
  -0.506029;0.862310;0.018850;,
  -0.522029;0.852699;0.019753;,
  -0.742052;0.669168;-0.039666;,
  0.446958;0.894461;-0.013007;,
  0.751503;0.655656;-0.073203;,
  -0.728812;0.675565;0.111559;,
  -0.698624;0.714146;-0.043830;,
  -0.656252;0.750854;-0.074504;,
  -0.775242;0.629614;0.050845;,
  -0.869965;0.490515;0.050560;,
  -0.644293;0.750386;0.147675;,
  -0.825888;0.555974;0.093820;,
  -0.830458;0.516369;0.209051;,
  -0.832934;0.511753;0.210544;,
  -0.804391;0.581782;0.120354;,
  -0.515556;0.853823;-0.072031;,
  -0.148928;0.988747;0.014132;,
  -0.504224;0.859425;0.084534;,
  0.038932;0.997902;0.051723;,
  -0.319003;0.947448;0.024075;,
  0.279400;0.958136;0.062536;,
  -0.687827;0.723055;-0.063923;,
  -0.556108;0.815734;-0.159128;,
  -0.670791;0.737807;-0.075368;,
  -0.525209;0.847044;-0.081683;,
  -0.211142;0.977450;-0.003215;,
  0.256098;0.964997;0.056515;,
  -0.323230;0.945686;0.034653;,
  -0.024680;0.992216;-0.122062;,
  0.549304;0.814943;-0.184750;,
  -0.112520;0.993163;0.031083;,
  0.034613;0.999384;-0.005717;,
  -0.088873;0.996004;0.008782;,
  0.422580;0.904230;0.061594;,
  -0.091844;0.992002;0.086585;,
  0.094791;0.991979;-0.083626;,
  0.481087;0.876662;-0.004352;,
  -0.125894;0.992028;-0.005561;,
  -0.732724;0.680104;-0.023941;,
  -0.912567;0.407693;0.031750;,
  -0.799746;0.598825;0.042595;,
  -0.894913;0.445616;0.023600;,
  -0.707255;0.685093;-0.174466;,
  -0.735777;0.675237;-0.051841;,
  -0.923823;0.368965;-0.102058;,
  -0.900297;0.434347;-0.028436;,
  -0.829071;0.528359;-0.182971;,
  -0.916009;0.389939;-0.094209;,
  -0.827131;0.517282;-0.219712;,
  -0.879339;0.456125;-0.136793;,
  -0.866196;0.392363;-0.309444;,
  -0.772185;0.630262;-0.080615;,
  -0.657118;0.753750;0.007569;,
  -0.511400;0.856235;-0.073019;,
  -0.861178;0.490907;0.131841;,
  -0.795856;0.572289;-0.197731;,
  -0.594320;0.800486;-0.077500;,
  -0.718856;0.651945;0.241276;,
  -0.710159;0.703265;0.033057;,
  -0.732504;0.661250;0.161822;,
  -0.715470;0.687087;0.126550;,
  -0.669659;0.735469;0.103167;,
  -0.853255;0.508306;0.116534;,
  -0.791463;0.599980;0.116664;,
  -0.841930;0.535119;0.069293;,
  -0.646856;0.762596;0.004848;,
  -0.849379;0.526619;-0.035029;,
  -0.801318;0.590478;-0.096047;,
  -0.845037;0.502361;-0.183154;,
  -0.850411;0.495342;-0.177305;,
  -0.803916;0.523623;-0.282025;,
  -0.837768;0.543909;0.048036;,
  -0.527250;0.836980;0.146535;,
  -0.807829;0.545871;0.222345;,
  -0.744343;0.655326;0.128456;,
  -0.858781;0.510294;0.045781;,
  -0.864522;0.415049;0.283436;,
  -0.451467;0.863101;-0.226352;,
  -0.523342;0.851931;-0.018061;,
  -0.527610;0.848556;-0.039753;,
  -0.882586;0.421013;-0.209263;,
  -0.728677;0.549859;-0.408270;,
  -0.879749;0.410626;-0.239643;,
  -0.507776;0.861450;0.008205;,
  -0.789221;0.614100;-0.003221;,
  -0.471409;0.881664;-0.021036;,
  -0.734559;0.678456;-0.010996;,
  -0.831257;0.549614;0.083287;,
  -0.848349;0.520197;0.098486;,
  -0.794270;0.603470;0.070426;,
  -0.657940;0.753003;-0.010099;,
  -0.559885;0.825242;0.074193;,
  0.428594;0.903427;0.011273;,
  0.377409;0.925084;0.042212;,
  0.704350;0.703501;0.094756;,
  0.800954;0.581991;0.140567;,
  0.888550;0.458354;0.019770;,
  -0.709242;0.701245;0.072334;,
  -0.538195;0.830349;0.144453;,
  -0.567819;0.818298;-0.089268;,
  -0.803155;0.549563;-0.230048;,
  -0.123596;0.988745;-0.084308;,
  0.301227;0.944240;-0.132944;,
  0.588554;0.808425;0.007290;,
  0.136825;0.989641;0.043471;,
  -0.039979;0.997627;0.056058;,
  -0.826886;0.528712;0.191631;,
  -0.844621;0.505257;-0.177004;,
  -0.729236;0.640997;-0.239454;,
  -0.889385;0.448735;-0.087364;,
  -0.782902;0.612554;0.108821;,
  -0.839141;0.488029;0.240144;,
  -0.829949;0.528079;0.179768;,
  -0.764658;0.597421;0.241632;,
  -0.384334;0.917101;0.105892;,
  0.832245;0.498401;0.242828;,
  0.827031;0.530567;0.185792;,
  0.782308;0.577037;-0.234569;,
  0.800987;0.522174;-0.292838;,
  0.757349;0.652992;-0.004808;;

  596;
  3;465,351,466;,
  3;464,465,466;,
  3;466,462,463;,
  3;464,466,463;,
  3;161,164,461;,
  3;384,161,461;,
  3;460,461,164;,
  3;459,163,460;,
  3;459,460,164;,
  3;456,457,458;,
  3;455,457,456;,
  3;454,455,456;,
  3;453,456,458;,
  3;450,5,1;,
  3;10,8,450;,
  3;0,9,450;,
  3;447,454,456;,
  3;444,445,446;,
  3;453,445,444;,
  3;444,447,456;,
  3;456,453,444;,
  3;443,156,462;,
  3;442,463,462;,
  3;442,464,463;,
  3;439,440,441;,
  3;437,438,445;,
  3;453,437,445;,
  3;436,438,437;,
  3;453,436,437;,
  3;446,447,444;,
  3;460,434,435;,
  3;433,461,460;,
  3;431,162,13;,
  3;21,431,12;,
  3;427,428,429;,
  3;161,428,427;,
  3;163,434,460;,
  3;425,155,426;,
  3;424,428,161;,
  3;421,422,423;,
  3;420,421,423;,
  3;419,154,421;,
  3;419,421,420;,
  3;131,422,421;,
  3;418,423,422;,
  3;416,417,428;,
  3;153,416,428;,
  3;424,153,428;,
  3;429,428,417;,
  3;413,414,415;,
  3;412,414,413;,
  3;411,413,415;,
  3;410,412,413;,
  3;410,413,411;,
  3;409,418,422;,
  3;409,410,411;,
  3;130,152,408;,
  3;410,408,128;,
  3;151,414,412;,
  3;151,412,127;,
  3;128,412,410;,
  3;422,131,408;,
  3;422,410,409;,
  3;410,422,408;,
  3;407,409,411;,
  3;418,405,406;,
  3;405,409,407;,
  3;406,404,423;,
  3;418,406,423;,
  3;429,402,403;,
  3;401,423,404;,
  3;420,423,401;,
  3;417,402,429;,
  3;398,399,400;,
  3;404,399,398;,
  3;401,404,398;,
  3;400,402,417;,
  3;398,400,417;,
  3;416,398,417;,
  3;401,398,416;,
  3;420,416,129;,
  3;416,420,401;,
  3;418,409,405;,
  3;419,420,129;,
  3;395,396,397;,
  3;393,397,394;,
  3;392,393,394;,
  3;414,390,391;,
  3;391,415,414;,
  3;392,415,391;,
  3;395,397,393;,
  3;389,393,125;,
  3;149,389,125;,
  3;386,387,388;,
  3;132,386,388;,
  3;396,388,387;,
  3;395,388,396;,
  3;385,388,395;,
  3;389,385,395;,
  3;389,395,393;,
  3;385,389,124;,
  3;390,150,393;,
  3;390,393,391;,
  3;393,392,391;,
  3;426,385,124;,
  3;385,132,388;,
  3;426,132,385;,
  3;126,390,414;,
  3;126,150,390;,
  3;431,434,163;,
  3;384,424,161;,
  3;162,431,163;,
  3;460,435,433;,
  3;25,210,383;,
  3;28,24,383;,
  3;380,27,383;,
  3;32,20,11;,
  3;378,19,31;,
  3;377,18,378;,
  3;36,375,376;,
  3;373,35,376;,
  3;39,30,162;,
  3;432,162,29;,
  3;371,402,400;,
  3;403,402,371;,
  3;369,370,415;,
  3;368,369,415;,
  3;411,415,370;,
  3;63,411,370;,
  3;392,368,415;,
  3;42,26,380;,
  3;373,48,45;,
  3;47,23,364;,
  3;363,381,41;,
  3;44,46,364;,
  3;34,373,43;,
  3;377,375,54;,
  3;381,364,22;,
  3;33,53,375;,
  3;440,4,450;,
  3;359,360,361;,
  3;358,360,359;,
  3;357,359,361;,
  3;436,358,359;,
  3;436,359,357;,
  3;356,453,458;,
  3;356,358,436;,
  3;357,361,123;,
  3;438,357,123;,
  3;436,357,438;,
  3;453,356,436;,
  3;355,455,454;,
  3;17,355,434;,
  3;431,16,434;,
  3;354,455,355;,
  3;15,354,355;,
  3;435,454,447;,
  3;434,355,435;,
  3;454,435,355;,
  3;356,352,353;,
  3;353,366,364;,
  3;352,366,353;,
  3;358,356,353;,
  3;374,366,352;,
  3;458,352,356;,
  3;52,455,354;,
  3;457,455,51;,
  3;457,374,352;,
  3;458,457,352;,
  3;50,374,457;,
  3;447,446,433;,
  3;435,447,433;,
  3;161,427,459;,
  3;164,161,459;,
  3;147,466,351;,
  3;443,466,350;,
  3;122,350,466;,
  3;462,466,443;,
  3;348,146,349;,
  3;59,55,347;,
  3;344,58,347;,
  3;343,57,344;,
  3;342,344,347;,
  3;341,342,347;,
  3;340,344,342;,
  3;342,339,340;,
  3;7,363,40;,
  3;448,363,6;,
  3;3,56,343;,
  3;452,2,343;,
  3;336,337,338;,
  3;340,337,336;,
  3;333,334,335;,
  3;331,332,333;,
  3;331,333,335;,
  3;331,339,332;,
  3;440,346,345;,
  3;440,345,451;,
  3;439,346,440;,
  3;324,363,448;,
  3;338,324,448;,
  3;336,338,448;,
  3;330,349,332;,
  3;452,343,336;,
  3;448,452,336;,
  3;342,332,339;,
  3;330,342,341;,
  3;342,330,332;,
  3;343,344,340;,
  3;336,343,340;,
  3;121,334,333;,
  3;333,349,121;,
  3;333,332,349;,
  3;145,335,334;,
  3;329,364,381;,
  3;328,329,381;,
  3;326,360,327;,
  3;361,360,326;,
  3;325,361,326;,
  3;328,363,324;,
  3;158,296,208;,
  3;337,324,338;,
  3;323,324,337;,
  3;322,337,340;,
  3;323,337,322;,
  3;327,324,323;,
  3;321,327,323;,
  3;322,331,321;,
  3;323,322,321;,
  3;321,335,120;,
  3;321,331,335;,
  3;325,321,120;,
  3;326,321,325;,
  3;326,327,321;,
  3;381,363,328;,
  3;364,358,353;,
  3;364,329,360;,
  3;358,364,360;,
  3;217,157,216;,
  3;360,329,328;,
  3;324,360,328;,
  3;327,360,324;,
  3;340,339,331;,
  3;322,340,331;,
  3;325,119,148;,
  3;361,325,148;,
  3;14,49,354;,
  3;377,362,430;,
  3;318,319,320;,
  3;317,319,318;,
  3;316,317,318;,
  3;315,316,318;,
  3;315,318,314;,
  3;320,314,318;,
  3;311,312,313;,
  3;308,309,310;,
  3;307,308,310;,
  3;368,308,307;,
  3;62,407,411;,
  3;440,450,441;,
  3;394,308,368;,
  3;397,309,308;,
  3;397,308,394;,
  3;387,305,309;,
  3;144,305,387;,
  3;396,387,309;,
  3;304,144,387;,
  3;386,304,387;,
  3;397,396,309;,
  3;392,394,368;,
  3;405,72,69;,
  3;71,407,61;,
  3;405,407,70;,
  3;406,68,301;,
  3;404,406,301;,
  3;405,67,406;,
  3;299,300,117;,
  3;142,300,299;,
  3;299,297,312;,
  3;298,299,312;,
  3;297,299,117;,
  3;298,311,158;,
  3;311,298,312;,
  3;320,296,311;,
  3;319,296,320;,
  3;313,314,320;,
  3;293,294,295;,
  3;292,294,293;,
  3;291,293,295;,
  3;293,290,292;,
  3;289,290,293;,
  3;291,287,288;,
  3;295,287,291;,
  3;286,291,288;,
  3;285,351,292;,
  3;351,294,292;,
  3;290,285,292;,
  3;293,286,289;,
  3;291,286,293;,
  3;283,286,284;,
  3;282,283,284;,
  3;281,283,282;,
  3;284,279,280;,
  3;279,286,288;,
  3;278,284,280;,
  3;277,284,278;,
  3;282,284,277;,
  3;276,281,282;,
  3;276,282,277;,
  3;284,286,279;,
  3;403,80,76;,
  3;371,79,403;,
  3;399,404,301;,
  3;400,399,301;,
  3;158,311,296;,
  3;272,273,276;,
  3;264,270,271;,
  3;269,264,271;,
  3;268,269,271;,
  3;267,269,268;,
  3;319,265,266;,
  3;142,159,229;,
  3;296,319,266;,
  3;317,267,265;,
  3;269,267,317;,
  3;316,264,269;,
  3;317,316,269;,
  3;218,166,222;,
  3;272,263,264;,
  3;277,263,272;,
  3;316,272,264;,
  3;316,273,272;,
  3;319,317,265;,
  3;276,277,272;,
  3;315,273,316;,
  3;289,286,283;,
  3;281,289,283;,
  3;311,313,320;,
  3;262,277,278;,
  3;263,277,262;,
  3;270,264,263;,
  3;285,147,351;,
  3;465,294,351;,
  3;295,260,261;,
  3;259,295,261;,
  3;287,295,259;,
  3;258,294,464;,
  3;450,258,464;,
  3;287,279,288;,
  3;278,279,287;,
  3;280,279,278;,
  3;294,260,295;,
  3;442,450,464;,
  3;465,464,294;,
  3;462,133,442;,
  3;442,133,441;,
  3;257,350,122;,
  3;450,442,441;,
  3;400,87,82;,
  3;78,400,81;,
  3;301,86,400;,
  3;371,400,77;,
  3;254,309,305;,
  3;310,309,254;,
  3;91,60,370;,
  3;369,90,370;,
  3;251,252,377;,
  3;378,251,377;,
  3;250,251,378;,
  3;248,249,251;,
  3;247,248,251;,
  3;265,268,248;,
  3;267,268,265;,
  3;266,265,248;,
  3;252,251,249;,
  3;376,252,249;,
  3;250,247,251;,
  3;375,377,252;,
  3;246,274,256;,
  3;245,274,246;,
  3;75,274,245;,
  3;302,243,244;,
  3;66,302,244;,
  3;85,241,242;,
  3;256,84,242;,
  3;239,95,65;,
  3;244,239,64;,
  3;306,243,302;,
  3;94,241,83;,
  3;301,93,255;,
  3;303,92,301;,
  3;238,243,306;,
  3;89,238,306;,
  3;99,88,369;,
  3;103,254,305;,
  3;106,310,254;,
  3;109,310,105;,
  3;118,141,102;,
  3;305,118,101;,
  3;307,108,98;,
  3;368,307,97;,
  3;166,226,222;,
  3;369,368,96;,
  3;310,107,307;,
  3;140,379,38;,
  3;253,232,233;,
  3;231,253,233;,
  3;238,253,231;,
  3;221,238,231;,
  3;246,230,160;,
  3;245,246,160;,
  3;160,228,229;,
  3;242,230,246;,
  3;239,226,227;,
  3;225,239,227;,
  3;224,225,227;,
  3;231,214,218;,
  3;230,223,229;,
  3;228,230,229;,
  3;224,223,230;,
  3;160,230,228;,
  3;159,160,229;,
  3;244,221,222;,
  3;111,254,100;,
  3;104,254,110;,
  3;219,232,237;,
  3;234,219,237;,
  3;239,244,222;,
  3;242,225,224;,
  3;226,239,222;,
  3;218,222,221;,
  3;224,227,169;,
  3;217,236,116;,
  3;220,236,217;,
  3;216,219,234;,
  3;216,235,220;,
  3;234,235,216;,
  3;230,242,224;,
  3;225,242,241;,
  3;239,241,240;,
  3;256,242,246;,
  3;243,221,244;,
  3;238,221,243;,
  3;253,237,232;,
  3;215,217,116;,
  3;214,231,233;,
  3;218,221,231;,
  3;213,214,233;,
  3;232,212,213;,
  3;219,211,212;,
  3;216,211,219;,
  3;233,232,213;,
  3;232,219,212;,
  3;217,216,220;,
  3;225,241,239;,
  3;139,247,250;,
  3;140,139,250;,
  3;379,250,378;,
  3;140,250,379;,
  3;159,208,139;,
  3;373,262,210;,
  3;376,262,373;,
  3;365,373,210;,
  3;382,365,210;,
  3;376,375,252;,
  3;259,367,380;,
  3;261,367,259;,
  3;449,367,261;,
  3;260,294,258;,
  3;261,258,449;,
  3;258,261,260;,
  3;258,450,449;,
  3;287,259,380;,
  3;383,287,380;,
  3;278,210,262;,
  3;210,278,383;,
  3;383,278,287;,
  3;296,209,139;,
  3;247,139,209;,
  3;270,262,376;,
  3;271,270,376;,
  3;248,271,376;,
  3;249,248,376;,
  3;248,268,271;,
  3;247,266,248;,
  3;212,211,165;,
  3;263,262,270;,
  3;296,247,209;,
  3;296,266,247;,
  3;296,139,208;,
  3;205,206,207;,
  3;204,205,207;,
  3;203,205,204;,
  3;205,203,202;,
  3;202,206,205;,
  3;138,200,201;,
  3;137,200,115;,
  3;300,229,206;,
  3;199,206,229;,
  3;207,206,199;,
  3;198,300,206;,
  3;206,202,198;,
  3;197,137,115;,
  3;201,195,196;,
  3;193,194,195;,
  3;193,192,194;,
  3;191,192,193;,
  3;200,191,193;,
  3;200,193,195;,
  3;217,215,157;,
  3;190,191,200;,
  3;114,190,200;,
  3;201,200,195;,
  3;142,229,300;,
  3;143,300,198;,
  3;187,188,189;,
  3;186,187,189;,
  3;185,188,187;,
  3;186,184,187;,
  3;187,184,183;,
  3;182,188,185;,
  3;181,182,185;,
  3;186,190,113;,
  3;190,186,189;,
  3;186,113,184;,
  3;187,183,181;,
  3;185,187,181;,
  3;178,179,180;,
  3;214,182,181;,
  3;175,176,177;,
  3;177,214,181;,
  3;218,176,175;,
  3;174,218,175;,
  3;175,173,178;,
  3;178,174,175;,
  3;173,179,178;,
  3;175,181,173;,
  3;180,174,178;,
  3;175,177,181;,
  3;207,171,172;,
  3;204,207,172;,
  3;165,211,189;,
  3;170,204,172;,
  3;204,170,112;,
  3;226,172,171;,
  3;227,226,171;,
  3;169,227,171;,
  3;207,168,169;,
  3;167,168,207;,
  3;223,199,229;,
  3;168,167,169;,
  3;167,199,223;,
  3;171,207,169;,
  3;207,199,167;,
  3;170,166,174;,
  3;172,166,170;,
  3;180,135,170;,
  3;204,112,203;,
  3;174,180,170;,
  3;183,179,173;,
  3;181,183,173;,
  3;218,174,166;,
  3;226,166,172;,
  3;190,114,136;,
  3;191,190,189;,
  3;188,213,212;,
  3;214,213,188;,
  3;165,188,212;,
  3;182,214,188;,
  3;218,214,177;,
  3;176,218,177;,
  3;192,211,216;,
  3;194,192,216;,
  3;189,188,165;,
  3;189,211,192;,
  3;191,189,192;,
  3;134,196,194;,
  3;194,196,195;,
  3;134,194,216;,
  3;167,224,169;,
  3;223,224,167;,
  3;140,245,159;,
  3;245,160,159;,
  3;163,459,427;,
  3;429,163,427;,
  3;162,163,429;,
  3;403,162,429;,
  3;140,37,74;,
  3;245,140,73;,
  3;372,162,403;,
  3;275,372,403;,
  3;139,140,159;,
  3;158,208,159;,
  3;142,158,159;,
  3;298,158,142;,
  3;299,298,142;;
 }
 MeshTextureCoords { 
 467;
 0.900534;0.900039;,
 0.900534;0.900039;,
 0.067400;0.893141;,
 0.067400;0.893141;,
 0.924674;0.778265;,
 0.924674;0.778265;,
 0.133796;0.970285;,
 0.133796;0.970285;,
 0.859277;0.712217;,
 0.864821;0.881064;,
 0.864821;0.881064;,
 0.554795;0.926065;,
 0.443256;0.721427;,
 0.443256;0.721427;,
 0.412953;0.732100;,
 0.412953;0.732100;,
 0.412953;0.732100;,
 0.412953;0.732100;,
 0.584617;0.916869;,
 0.584617;0.916869;,
 0.584617;0.916869;,
 0.412953;0.732100;,
 0.231021;0.839884;,
 0.231021;0.839884;,
 0.763643;0.824176;,
 0.763643;0.824176;,
 0.793280;0.890006;,
 0.793280;0.890006;,
 0.793280;0.890006;,
 0.454822;0.923874;,
 0.454822;0.923874;,
 0.543303;0.752493;,
 0.543303;0.752493;,
 0.674061;0.898657;,
 0.674061;0.898657;,
 0.674061;0.898657;,
 0.674061;0.898657;,
 0.507370;0.822612;,
 0.507370;0.822612;,
 0.491370;0.842162;,
 0.164098;0.959613;,
 0.164098;0.959613;,
 0.829455;0.721413;,
 0.709762;0.922321;,
 0.285821;0.725519;,
 0.709762;0.922321;,
 0.261031;0.938585;,
 0.261031;0.938585;,
 0.734052;0.739588;,
 0.364414;0.769957;,
 0.364414;0.769957;,
 0.364414;0.769957;,
 0.364414;0.769957;,
 0.632377;0.884335;,
 0.632377;0.884335;,
 0.019286;0.772406;,
 0.043534;0.761681;,
 0.043534;0.761681;,
 0.043534;0.761681;,
 0.043534;0.761681;,
 0.757949;0.778868;,
 0.757949;0.778868;,
 0.757949;0.778868;,
 0.757949;0.778868;,
 0.316471;0.896476;,
 0.316471;0.896476;,
 0.316471;0.896476;,
 0.685352;0.756358;,
 0.685352;0.756358;,
 0.685352;0.756358;,
 0.715567;0.778498;,
 0.715567;0.778498;,
 0.715567;0.778498;,
 0.489491;0.822503;,
 0.489491;0.822503;,
 0.489491;0.822503;,
 0.509534;0.842321;,
 0.551784;0.891910;,
 0.551784;0.891910;,
 0.551784;0.891910;,
 0.551784;0.891910;,
 0.588112;0.892228;,
 0.588112;0.892228;,
 0.382076;0.878119;,
 0.382076;0.878119;,
 0.382076;0.878119;,
 0.618693;0.777650;,
 0.618693;0.777650;,
 0.799891;0.943300;,
 0.203627;0.736353;,
 0.799891;0.943300;,
 0.799891;0.943300;,
 0.660738;0.903801;,
 0.660738;0.903801;,
 0.340622;0.770013;,
 0.340622;0.770013;,
 0.848563;0.856225;,
 0.848563;0.856225;,
 0.848563;0.856225;,
 0.848563;0.856225;,
 0.957781;0.769679;,
 0.957781;0.769679;,
 0.957781;0.769679;,
 0.957781;0.769679;,
 0.909285;0.791130;,
 0.909285;0.791130;,
 0.909285;0.791130;,
 0.878689;0.911176;,
 0.878689;0.911176;,
 0.878689;0.911176;,
 0.933181;0.911653;,
 0.933181;0.911653;,
 0.312660;0.024252;,
 0.127906;0.023125;,
 0.086141;0.041627;,
 0.026427;0.088155;,
 0.024486;0.875938;,
 0.455696;0.025124;,
 0.982615;0.540206;,
 0.130292;0.018681;,
 0.130292;0.018681;,
 0.045527;0.017939;,
 0.914533;0.056059;,
 0.215057;0.019422;,
 0.929501;0.025673;,
 0.880977;0.058061;,
 0.790128;0.068204;,
 0.741750;0.045905;,
 0.741750;0.045905;,
 0.584388;0.022654;,
 0.687258;0.045429;,
 0.687258;0.045429;,
 0.983671;0.146461;,
 0.973323;0.384665;,
 0.025364;0.519560;,
 0.312660;0.024252;,
 0.127906;0.023125;,
 0.086141;0.041627;,
 0.026427;0.088155;,
 0.538071;0.457038;,
 0.525724;0.630465;,
 0.981970;0.780828;,
 0.484964;0.241008;,
 0.455696;0.025124;,
 0.982615;0.540206;,
 0.130292;0.018681;,
 0.045527;0.017939;,
 0.914533;0.056059;,
 0.215057;0.019422;,
 0.929501;0.025673;,
 0.880977;0.058061;,
 0.790128;0.068204;,
 0.741750;0.045905;,
 0.584388;0.022654;,
 0.687258;0.045429;,
 0.983671;0.146461;,
 0.973323;0.384665;,
 0.025364;0.519560;,
 0.514763;0.241190;,
 0.496514;0.391135;,
 0.460593;0.456565;,
 0.523549;0.131498;,
 0.479774;0.650652;,
 0.468442;0.360706;,
 0.481152;0.136595;,
 0.144768;0.435882;,
 0.288035;0.342971;,
 0.377386;0.362273;,
 0.365513;0.343443;,
 0.353501;0.380884;,
 0.300371;0.174233;,
 0.341812;0.287028;,
 0.317996;0.277504;,
 0.229038;0.098770;,
 0.270387;0.249078;,
 0.246524;0.258311;,
 0.234374;0.352022;,
 0.222500;0.333192;,
 0.258814;0.108330;,
 0.241142;0.023815;,
 0.276901;0.024034;,
 0.205014;0.173651;,
 0.204759;0.276813;,
 0.187504;0.023488;,
 0.163665;0.023343;,
 0.193002;0.211092;,
 0.145577;0.107639;,
 0.169347;0.135919;,
 0.168816;0.351622;,
 0.133172;0.304512;,
 0.121692;0.126250;,
 0.103419;0.285573;,
 0.097182;0.398077;,
 0.079395;0.360455;,
 0.067221;0.463544;,
 0.055579;0.350931;,
 0.025711;0.378884;,
 0.026519;0.050642;,
 0.431833;0.034357;,
 0.395497;0.268598;,
 0.073713;0.247878;,
 0.026103;0.219452;,
 0.396075;0.034139;,
 0.354356;0.033885;,
 0.330262;0.136901;,
 0.366091;0.108984;,
 0.407786;0.118617;,
 0.359807;0.240245;,
 0.502473;0.391171;,
 0.556066;0.410255;,
 0.746295;0.608364;,
 0.120883;0.454493;,
 0.150567;0.501567;,
 0.174475;0.473577;,
 0.198430;0.426831;,
 0.024925;0.697749;,
 0.096743;0.576266;,
 0.054747;0.688552;,
 0.246132;0.417743;,
 0.132398;0.618687;,
 0.072442;0.763688;,
 0.251699;0.577211;,
 0.281752;0.474231;,
 0.401180;0.381175;,
 0.383092;0.465471;,
 0.358999;0.568488;,
 0.311713;0.408765;,
 0.341408;0.451149;,
 0.442783;0.428321;,
 0.431163;0.306330;,
 0.424742;0.493861;,
 0.222084;0.502003;,
 0.168192;0.604838;,
 0.198153;0.539371;,
 0.126080;0.764015;,
 0.096027;0.866995;,
 0.048302;0.885461;,
 0.155764;0.811089;,
 0.227536;0.708363;,
 0.317211;0.596368;,
 0.340622;0.770013;,
 0.364543;0.737334;,
 0.382676;0.634282;,
 0.263318;0.699203;,
 0.287273;0.652457;,
 0.472097;0.625449;,
 0.424430;0.620469;,
 0.573806;0.466634;,
 0.615606;0.434065;,
 0.639226;0.523305;,
 0.573529;0.579175;,
 0.609277;0.584082;,
 0.626983;0.654529;,
 0.203627;0.736353;,
 0.933709;0.714780;,
 0.618693;0.777650;,
 0.412117;0.779828;,
 0.974131;0.056422;,
 0.877665;0.506002;,
 0.817951;0.552530;,
 0.853918;0.468343;,
 0.841721;0.580811;,
 0.716750;0.505020;,
 0.711160;0.354930;,
 0.681545;0.279722;,
 0.621820;0.330939;,
 0.597923;0.354239;,
 0.633844;0.288809;,
 0.639665;0.345116;,
 0.657775;0.251441;,
 0.681222;0.411019;,
 0.657383;0.410873;,
 0.699679;0.176669;,
 0.682169;0.026506;,
 0.447876;0.780046;,
 0.509534;0.842321;,
 0.723888;0.026760;,
 0.729224;0.280012;,
 0.752647;0.448968;,
 0.776672;0.374087;,
 0.758746;0.392735;,
 0.759578;0.055113;,
 0.741490;0.139410;,
 0.771220;0.167727;,
 0.753040;0.289536;,
 0.872814;0.055804;,
 0.788891;0.252241;,
 0.800268;0.472705;,
 0.794597;0.355439;,
 0.813216;0.055441;,
 0.837055;0.055586;,
 0.806679;0.289863;,
 0.854634;0.177614;,
 0.824743;0.214946;,
 0.860132;0.365218;,
 0.830264;0.393171;,
 0.568332;0.269652;,
 0.485495;0.025306;,
 0.515086;0.109893;,
 0.479327;0.109675;,
 0.449413;0.156385;,
 0.637208;0.646560;,
 0.286718;0.877537;,
 0.685352;0.756358;,
 0.983055;0.376146;,
 0.958338;0.561869;,
 0.245000;0.877283;,
 0.879276;0.692429;,
 0.898202;0.408216;,
 0.940584;0.408587;,
 0.909813;0.594257;,
 0.550776;0.138246;,
 0.545093;0.025670;,
 0.568933;0.025815;,
 0.604692;0.026033;,
 0.646410;0.026288;,
 0.664012;0.138937;,
 0.634121;0.176269;,
 0.628438;0.063692;,
 0.598223;0.232321;,
 0.592633;0.082231;,
 0.123710;0.215501;,
 0.099286;0.291850;,
 0.135584;0.303105;,
 0.147312;0.445397;,
 0.166356;0.117435;,
 0.172132;0.221393;,
 0.159744;0.325192;,
 0.177292;0.555036;,
 0.207741;0.489676;,
 0.020664;0.258350;,
 0.081357;0.204192;,
 0.051025;0.225802;,
 0.069541;0.094713;,
 0.081855;0.018257;,
 0.105810;0.116905;,
 0.092542;0.548826;,
 0.105106;0.379402;,
 0.122801;0.554559;,
 0.069013;0.291585;,
 0.062636;0.411844;,
 0.020371;0.367723;,
 0.044618;0.356998;,
 0.068016;0.663456;,
 0.044091;0.553870;,
 0.948236;0.890951;,
 0.972098;0.881718;,
 0.019931;0.531784;,
 0.021309;0.017727;,
 0.020986;0.138038;,
 0.974039;0.093936;,
 0.878451;0.187138;,
 0.292447;0.512293;,
 0.262174;0.512028;,
 0.389145;0.578765;,
 0.401694;0.414810;,
 0.268727;0.326146;,
 0.226814;0.150777;,
 0.226286;0.347650;,
 0.226550;0.249213;,
 0.196130;0.303635;,
 0.202449;0.205252;,
 0.632377;0.884335;,
 0.158718;0.708000;,
 0.243453;0.719679;,
 0.734052;0.739588;,
 0.285821;0.725519;,
 0.829455;0.721413;,
 0.855409;0.560968;,
 0.824755;0.702889;,
 0.800625;0.669865;,
 0.558498;0.645872;,
 0.491370;0.842162;,
 0.704345;0.701893;,
 0.322075;0.753180;,
 0.656666;0.701602;,
 0.680760;0.598586;,
 0.614728;0.790442;,
 0.579189;0.701130;,
 0.543303;0.752493;,
 0.799864;0.636827;,
 0.200954;0.763058;,
 0.763643;0.824176;,
 0.776163;0.580411;,
 0.517729;0.043946;,
 0.941405;0.102340;,
 0.983348;0.266772;,
 0.964920;0.365049;,
 0.953163;0.233695;,
 0.898935;0.134782;,
 0.844326;0.178055;,
 0.838066;0.254563;,
 0.843798;0.374927;,
 0.880478;0.243997;,
 0.868134;0.331390;,
 0.922919;0.222493;,
 0.934823;0.299160;,
 0.910575;0.309886;,
 0.607698;0.361924;,
 0.619484;0.482341;,
 0.588801;0.635199;,
 0.626096;0.274584;,
 0.552825;0.503633;,
 0.522141;0.656491;,
 0.643762;0.460678;,
 0.710040;0.581572;,
 0.667951;0.471828;,
 0.740254;0.603712;,
 0.711154;0.165952;,
 0.734903;0.341162;,
 0.741281;0.220904;,
 0.777022;0.439969;,
 0.777696;0.188409;,
 0.783516;0.275961;,
 0.807823;0.243361;,
 0.807559;0.341797;,
 0.589856;0.241454;,
 0.571458;0.328794;,
 0.698429;0.395531;,
 0.650989;0.023236;,
 0.632473;0.154326;,
 0.668698;0.192924;,
 0.698781;0.264282;,
 0.662395;0.285839;,
 0.548002;0.044210;,
 0.983993;0.026150;,
 0.959775;0.025938;,
 0.529310;0.240924;,
 0.553529;0.241136;,
 0.541156;0.339467;,
 0.584617;0.916869;,
 0.455893;0.524660;,
 0.443256;0.721427;,
 0.420796;0.064973;,
 0.432143;0.349450;,
 0.414243;0.250855;,
 0.263010;0.200313;,
 0.293415;0.151359;,
 0.263464;0.030784;,
 0.972537;0.703529;,
 0.942761;0.693969;,
 0.972976;0.525340;,
 0.931419;0.459437;,
 0.973715;0.225233;,
 0.335651;0.206417;,
 0.323981;0.042251;,
 0.354166;0.075328;,
 0.378077;0.190382;,
 0.128269;0.773359;,
 0.859277;0.712217;,
 0.901273;0.599931;,
 0.924674;0.778265;,
 0.092000;0.751167;,
 0.311285;0.260892;,
 0.377798;0.294287;,
 0.364941;0.573084;,
 0.341441;0.304906;,
 0.334595;0.600163;,
 0.310934;0.392141;,
 0.480859;0.245969;,
 0.450600;0.240236;,
 0.457183;0.043416;,
 0.943593;0.356348;,
 0.919707;0.374959;,
 0.895776;0.412328;,
 0.890058;0.313818;,
 0.925967;0.253077;;
 }
}
Frame frm-Path1 {
  FrameTransformMatrix {
1.000000,0.000000,0.000000,0.000000,
0.000000,1.000000,0.000000,0.000000,
0.000000,0.000000,1.000000,0.000000,
0.000000,0.000000,0.000000,1.000000;;
 }
Mesh Path1 {
 8;
 0.660000;0.660000;-0.660000;,
 0.660000;0.660000;0.660000;,
 0.660000;-0.660000;-0.660000;,
 0.660000;-0.660000;0.660000;,
 -0.660000;0.660000;-0.660000;,
 -0.660000;0.660000;0.660000;,
 -0.660000;-0.660000;-0.660000;,
 -0.660000;-0.660000;0.660000;;

 6;
 4;5,4,6,7;,
 4;4,0,2,6;,
 4;0,1,3,2;,
 4;1,5,7,3;,
 4;7,6,2,3;,
 4;1,0,4,5;;

 MeshMaterialList {
  1;
  6;
  0,
  0,
  0,
  0,
  0,
  0;
Material {
 0.000000;0.004000;1.000000;1.000000;;
 50.000000;
 0.000000;0.004000;1.000000;;
 0.0; 0.0; 0.0;;
 }
}
 MeshNormals {
  8;
  0.577350;0.577350;-0.577350;,
  0.577350;0.577350;0.577350;,
  0.577350;-0.577350;-0.577350;,
  0.577350;-0.577350;0.577350;,
  -0.577350;0.577350;-0.577350;,
  -0.577350;0.577350;0.577350;,
  -0.577350;-0.577350;-0.577350;,
  -0.577350;-0.577350;0.577350;;

  6;
  4;5,4,6,7;,
  4;4,0,2,6;,
  4;0,1,3,2;,
  4;1,5,7,3;,
  4;7,6,2,3;,
  4;1,0,4,5;;
 }
 MeshTextureCoords { 
 8;
 0.000000;0.000000;,
 0.000000;0.000000;,
 0.000000;0.000000;,
 0.000000;0.000000;,
 0.000000;0.000000;,
 0.000000;0.000000;,
 0.000000;0.000000;,
 0.000000;0.000000;;
 }
}
Frame frm-Path2 {
  FrameTransformMatrix {
1.000000,0.000000,0.000000,0.000000,
0.000000,1.000000,0.000000,0.000000,
0.000000,0.000000,1.000000,0.000000,
0.000000,0.000000,17.547995,1.000000;;
 }
Mesh Path2 {
 8;
 0.660000;0.660000;-0.660000;,
 0.660000;0.660000;0.660000;,
 0.660000;-0.660000;-0.660000;,
 0.660000;-0.660000;0.660000;,
 -0.660000;0.660000;-0.660000;,
 -0.660000;0.660000;0.660000;,
 -0.660000;-0.660000;-0.660000;,
 -0.660000;-0.660000;0.660000;;

 6;
 4;5,4,6,7;,
 4;4,0,2,6;,
 4;0,1,3,2;,
 4;1,5,7,3;,
 4;7,6,2,3;,
 4;1,0,4,5;;

 MeshMaterialList {
  1;
  6;
  0,
  0,
  0,
  0,
  0,
  0;
Material {
 0.000000;0.004000;1.000000;1.000000;;
 50.000000;
 0.000000;0.004000;1.000000;;
 0.0; 0.0; 0.0;;
 }
}
 MeshNormals {
  8;
  0.577350;0.577350;-0.577350;,
  0.577350;0.577350;0.577350;,
  0.577350;-0.577350;-0.577350;,
  0.577350;-0.577350;0.577350;,
  -0.577350;0.577350;-0.577350;,
  -0.577350;0.577350;0.577350;,
  -0.577350;-0.577350;-0.577350;,
  -0.577350;-0.577350;0.577350;;

  6;
  4;5,4,6,7;,
  4;4,0,2,6;,
  4;0,1,3,2;,
  4;1,5,7,3;,
  4;7,6,2,3;,
  4;1,0,4,5;;
 }
 MeshTextureCoords { 
 8;
 0.000000;0.000000;,
 0.000000;0.000000;,
 0.000000;0.000000;,
 0.000000;0.000000;,
 0.000000;0.000000;,
 0.000000;0.000000;,
 0.000000;0.000000;,
 0.000000;0.000000;;
 }
}
Frame frm-Path3 {
  FrameTransformMatrix {
1.000000,0.000000,0.000000,0.000000,
0.000000,1.000000,0.000000,0.000000,
0.000000,0.000000,1.000000,0.000000,
0.000000,0.000000,24.409781,1.000000;;
 }
Mesh Path3 {
 8;
 0.660000;0.660000;-0.660000;,
 0.660000;0.660000;0.660000;,
 0.660000;-0.660000;-0.660000;,
 0.660000;-0.660000;0.660000;,
 -0.660000;0.660000;-0.660000;,
 -0.660000;0.660000;0.660000;,
 -0.660000;-0.660000;-0.660000;,
 -0.660000;-0.660000;0.660000;;

 6;
 4;5,4,6,7;,
 4;4,0,2,6;,
 4;0,1,3,2;,
 4;1,5,7,3;,
 4;7,6,2,3;,
 4;1,0,4,5;;

 MeshMaterialList {
  1;
  6;
  0,
  0,
  0,
  0,
  0,
  0;
Material {
 0.000000;0.004000;1.000000;1.000000;;
 50.000000;
 0.000000;0.004000;1.000000;;
 0.0; 0.0; 0.0;;
 }
}
 MeshNormals {
  8;
  0.577350;0.577350;-0.577350;,
  0.577350;0.577350;0.577350;,
  0.577350;-0.577350;-0.577350;,
  0.577350;-0.577350;0.577350;,
  -0.577350;0.577350;-0.577350;,
  -0.577350;0.577350;0.577350;,
  -0.577350;-0.577350;-0.577350;,
  -0.577350;-0.577350;0.577350;;

  6;
  4;5,4,6,7;,
  4;4,0,2,6;,
  4;0,1,3,2;,
  4;1,5,7,3;,
  4;7,6,2,3;,
  4;1,0,4,5;;
 }
 MeshTextureCoords { 
 8;
 0.000000;0.000000;,
 0.000000;0.000000;,
 0.000000;0.000000;,
 0.000000;0.000000;,
 0.000000;0.000000;,
 0.000000;0.000000;,
 0.000000;0.000000;,
 0.000000;0.000000;;
 }
}
}
}
}
}
AnimationSet {
 Animation anim-Path2 {
  {frm-Path2}
  AnimationKey {
  2;
  2;
  1; 3; 0.000000, 0.000000, 17.547995;;,
  100; 3; 0.000000, 0.000000, 17.547995;;;
  }
 }
 Animation anim-Path3 {
  {frm-Path3}
  AnimationKey {
  2;
  2;
  1; 3; 0.000000, 0.000000, 24.409781;;,
  100; 3; 0.000000, 0.000000, 24.409781;;;
  }
 }
}
