xof 0302txt 0032
template Header {
 <3D82AB43-62DA-11cf-AB39-0020AF71E433>
 WORD major;
 WORD minor;
 DWORD flags;
}

template Vector {
 <3D82AB5E-62DA-11cf-AB39-0020AF71E433>
 FLOAT x;
 FLOAT y;
 FLOAT z;
}

template Coords2d {
 <F6F23F44-7686-11cf-8F52-0040333594A3>
 FLOAT u;
 FLOAT v;
}

template Matrix4x4 {
 <F6F23F45-7686-11cf-8F52-0040333594A3>
 array FLOAT matrix[16];
}

template ColorRGBA {
 <35FF44E0-6C7C-11cf-8F52-0040333594A3>
 FLOAT red;
 FLOAT green;
 FLOAT blue;
 FLOAT alpha;
}

template ColorRGB {
 <D3E16E81-7835-11cf-8F52-0040333594A3>
 FLOAT red;
 FLOAT green;
 FLOAT blue;
}

template TextureFilename {
 <A42790E1-7810-11cf-8F52-0040333594A3>
 STRING filename;
}

template Material {
 <3D82AB4D-62DA-11cf-AB39-0020AF71E433>
 ColorRGBA faceColor;
 FLOAT power;
 ColorRGB specularColor;
 ColorRGB emissiveColor;
 [...]
}

template MeshFace {
 <3D82AB5F-62DA-11cf-AB39-0020AF71E433>
 DWORD nFaceVertexIndices;
 array DWORD faceVertexIndices[nFaceVertexIndices];
}

template MeshTextureCoords {
 <F6F23F40-7686-11cf-8F52-0040333594A3>
 DWORD nTextureCoords;
 array Coords2d textureCoords[nTextureCoords];
}

template MeshMaterialList {
 <F6F23F42-7686-11cf-8F52-0040333594A3>
 DWORD nMaterials;
 DWORD nFaceIndexes;
 array DWORD faceIndexes[nFaceIndexes];
 [Material]
}

template MeshNormals {
 <F6F23F43-7686-11cf-8F52-0040333594A3>
 DWORD nNormals;
 array Vector normals[nNormals];
 DWORD nFaceNormals;
 array MeshFace faceNormals[nFaceNormals];
}

template Mesh {
 <3D82AB44-62DA-11cf-AB39-0020AF71E433>
 DWORD nVertices;
 array Vector vertices[nVertices];
 DWORD nFaces;
 array MeshFace faces[nFaces];
 [...]
}

template FrameTransformMatrix {
 <F6F23F41-7686-11cf-8F52-0040333594A3>
 Matrix4x4 frameMatrix;
}

template Frame {
 <3D82AB46-62DA-11cf-AB39-0020AF71E433>
 [...]
}
template FloatKeys {
 <10DD46A9-775B-11cf-8F52-0040333594A3>
 DWORD nValues;
 array FLOAT values[nValues];
}

template TimedFloatKeys {
 <F406B180-7B3B-11cf-8F52-0040333594A3>
 DWORD time;
 FloatKeys tfkeys;
}

template AnimationKey {
 <10DD46A8-775B-11cf-8F52-0040333594A3>
 DWORD keyType;
 DWORD nKeys;
 array TimedFloatKeys keys[nKeys];
}

template AnimationOptions {
 <E2BF56C0-840F-11cf-8F52-0040333594A3>
 DWORD openclosed;
 DWORD positionquality;
}

template Animation {
 <3D82AB4F-62DA-11cf-AB39-0020AF71E433>
 [...]
}

template AnimationSet {
 <3D82AB50-62DA-11cf-AB39-0020AF71E433>
 [Animation]
}

Header {
 1;
 0;
 1;
}

Frame frm-extru3 {
  FrameTransformMatrix {
1.000000,0.000000,0.000000,0.000000,
0.000000,1.000000,0.000000,0.000000,
0.000000,0.000000,1.000000,0.000000,
0.000000,0.000000,0.000000,1.000000;;
 }
Mesh extru3 {
 96;
 -3.146319;2.548626;0.000000;,
 -3.146319;2.548626;-1.000000;,
 3.357664;0.595878;0.000000;,
 3.357664;0.595878;-1.000000;,
 2.609701;4.782627;-1.000000;,
 1.257622;5.681457;-1.000000;,
 -1.792939;6.181766;-1.000000;,
 -5.393459;6.204535;-1.000000;,
 -8.395420;5.670745;-1.000000;,
 -9.650303;4.501375;-1.000000;,
 -9.742343;2.504246;-1.000000;,
 -9.961823;1.704837;-1.000000;,
 -10.223783;1.478367;-1.000000;,
 -10.443262;1.200058;-1.000000;,
 -10.535303;0.245128;-1.000000;,
 -10.548182;-1.218774;-1.000000;,
 -10.524942;-2.499974;-1.000000;,
 -10.372762;-3.511474;-1.000000;,
 -9.998822;-4.166274;-1.000000;,
 -9.310305;-4.377373;-1.000000;,
 -7.389973;-4.393034;-1.000000;,
 -5.238761;-4.422554;-1.000000;,
 -2.995091;-4.450993;-1.000000;,
 -0.797381;-4.463412;-1.000000;,
 1.215949;-4.444872;-1.000000;,
 2.416419;-4.326172;-1.000000;,
 3.078508;-4.088672;-1.000000;,
 3.531738;-3.815772;-1.000000;,
 4.105627;-3.590872;-1.000000;,
 5.129698;-3.497372;-1.000000;,
 6.126358;-3.502842;-1.000000;,
 7.196278;-3.515932;-1.000000;,
 8.278618;-3.531662;-1.000000;,
 9.312537;-3.545053;-1.000000;,
 10.237197;-3.551124;-1.000000;,
 11.137687;-3.556494;-1.000000;,
 12.078917;-3.409884;-1.000000;,
 12.922527;-2.867213;-1.000000;,
 13.530158;-1.684402;-1.000000;,
 13.763450;0.382628;-1.000000;,
 13.487558;2.556638;-1.000000;,
 12.778227;3.857707;-1.000000;,
 11.801716;4.509396;-1.000000;,
 10.724286;4.735265;-1.000000;,
 9.712197;4.758875;-1.000000;,
 8.734298;4.759425;-1.000000;,
 7.823298;4.765076;-1.000000;,
 6.950999;4.772826;-1.000000;,
 6.089200;4.779677;-1.000000;,
 5.209699;4.782627;-1.000000;,
 2.609701;4.782627;0.000000;,
 1.257622;5.681457;0.000000;,
 -1.792939;6.181766;0.000000;,
 -5.393459;6.204535;0.000000;,
 -8.395420;5.670745;0.000000;,
 -9.650303;4.501375;0.000000;,
 -9.742343;2.504246;0.000000;,
 -9.961823;1.704837;0.000000;,
 -10.223783;1.478367;0.000000;,
 -10.443262;1.200058;0.000000;,
 -10.535303;0.245128;0.000000;,
 -10.548182;-1.218774;0.000000;,
 -10.524942;-2.499974;0.000000;,
 -10.372762;-3.511474;0.000000;,
 -9.998822;-4.166274;0.000000;,
 -9.310305;-4.377373;0.000000;,
 -7.389973;-4.393034;0.000000;,
 -5.238761;-4.422554;0.000000;,
 -2.995091;-4.450993;0.000000;,
 -0.797381;-4.463412;0.000000;,
 1.215949;-4.444872;0.000000;,
 2.416419;-4.326172;0.000000;,
 3.078508;-4.088672;0.000000;,
 3.531738;-3.815772;0.000000;,
 4.105627;-3.590872;0.000000;,
 5.129698;-3.497372;0.000000;,
 6.126358;-3.502842;0.000000;,
 7.196278;-3.515932;0.000000;,
 8.278618;-3.531662;0.000000;,
 9.312537;-3.545053;0.000000;,
 10.237197;-3.551124;0.000000;,
 11.137687;-3.556494;0.000000;,
 12.078917;-3.409884;0.000000;,
 12.922527;-2.867213;0.000000;,
 13.530158;-1.684402;0.000000;,
 13.763450;0.382628;0.000000;,
 13.487558;2.556638;0.000000;,
 12.778227;3.857707;0.000000;,
 11.801716;4.509396;0.000000;,
 10.724286;4.735265;0.000000;,
 9.712197;4.758875;0.000000;,
 8.734298;4.759425;0.000000;,
 7.823298;4.765076;0.000000;,
 6.950999;4.772826;0.000000;,
 6.089200;4.779677;0.000000;,
 5.209699;4.782627;0.000000;;

 106;
 3;95,49,4;,
 3;50,95,4;,
 3;94,48,49;,
 3;95,94,49;,
 3;93,47,48;,
 3;94,93,48;,
 3;92,46,47;,
 3;93,92,47;,
 3;91,45,46;,
 3;92,91,46;,
 3;90,44,45;,
 3;91,90,45;,
 3;89,43,44;,
 3;90,89,44;,
 3;88,42,43;,
 3;89,88,43;,
 3;87,41,42;,
 3;88,87,42;,
 3;86,40,41;,
 3;87,86,41;,
 3;85,39,40;,
 3;86,85,40;,
 3;84,38,39;,
 3;85,84,39;,
 3;83,37,38;,
 3;84,83,38;,
 3;82,36,37;,
 3;83,82,37;,
 3;81,35,36;,
 3;82,81,36;,
 3;80,34,35;,
 3;81,80,35;,
 3;79,33,34;,
 3;80,79,34;,
 3;78,32,33;,
 3;79,78,33;,
 3;77,31,32;,
 3;78,77,32;,
 3;76,30,31;,
 3;77,76,31;,
 3;75,29,30;,
 3;76,75,30;,
 3;74,28,29;,
 3;75,74,29;,
 3;73,27,28;,
 3;74,73,28;,
 3;72,26,27;,
 3;73,72,27;,
 3;71,25,26;,
 3;72,71,26;,
 3;70,24,25;,
 3;71,70,25;,
 3;69,23,24;,
 3;70,69,24;,
 3;68,22,23;,
 3;69,68,23;,
 3;67,21,22;,
 3;68,67,22;,
 3;66,20,21;,
 3;67,66,21;,
 3;65,19,20;,
 3;66,65,20;,
 3;64,18,19;,
 3;65,64,19;,
 3;63,17,18;,
 3;64,63,18;,
 3;62,16,17;,
 3;63,62,17;,
 3;61,15,16;,
 3;62,61,16;,
 3;60,14,15;,
 3;61,60,15;,
 3;59,13,14;,
 3;60,59,14;,
 3;58,12,13;,
 3;59,58,13;,
 3;57,11,12;,
 3;58,57,12;,
 3;56,10,11;,
 3;57,56,11;,
 3;55,9,10;,
 3;56,55,10;,
 3;54,8,9;,
 3;55,54,9;,
 3;53,7,8;,
 3;54,53,8;,
 3;52,6,7;,
 3;53,52,7;,
 3;51,5,6;,
 3;52,51,6;,
 3;50,4,5;,
 3;51,50,5;,
 6;0,2,50,51,52,53;,
 3;71,72,73;,
 3;13,12,11;,
 9;1,3,28,27,26,25,24,23,22;,
 12;3,4,49,48,47,46,45,44,43,42,41,40;,
 14;2,74,75,76,77,78,79,80,81,82,83,84,85,86;,
 4;1,9,8,7;,
 15;0,55,56,57,58,59,60,61,62,63,64,65,66,67,68;,
 12;86,87,88,89,90,91,92,93,94,95,50,2;,
 14;40,39,38,37,36,35,34,33,32,31,30,29,28,3;,
 6;7,6,5,4,3,1;,
 4;53,54,55,0;,
 14;22,21,20,19,18,17,16,15,14,13,11,10,9,1;,
 8;68,69,70,71,73,74,2,0;;

 MeshMaterialList {
  2;
  106;
  0,
  0,
  0,
  0,
  0,
  0,
  0,
  0,
  0,
  0,
  0,
  0,
  0,
  0,
  0,
  0,
  0,
  0,
  0,
  0,
  0,
  0,
  0,
  0,
  0,
  0,
  0,
  0,
  0,
  0,
  0,
  0,
  0,
  0,
  0,
  0,
  0,
  0,
  0,
  0,
  0,
  0,
  0,
  0,
  0,
  0,
  0,
  0,
  0,
  0,
  0,
  0,
  0,
  0,
  0,
  0,
  0,
  0,
  0,
  0,
  0,
  0,
  0,
  0,
  0,
  0,
  0,
  0,
  0,
  0,
  0,
  0,
  0,
  0,
  0,
  0,
  0,
  0,
  0,
  0,
  0,
  0,
  0,
  0,
  0,
  0,
  0,
  0,
  0,
  0,
  0,
  0,
  1,
  0,
  0,
  1,
  1,
  1,
  1,
  1,
  1,
  1,
  1,
  1,
  1,
  1;
Material {
 0.000000;0.000000;0.000000;1.000000;;
 50.000000;
 1.000000;1.000000;1.000000;;
 0.0; 0.0; 0.0;;
 TextureFilename {
  "loadout_bomber.ppm";
 }
 }
Material {
 1.000000;1.000000;1.000000;1.000000;;
 50.000000;
 1.000000;1.000000;1.000000;;
 0.0; 0.0; 0.0;;
 TextureFilename {
  "loadout_bomber.ppm";
 }
 }
}
 MeshNormals {
  96;
  0.000000;0.000000;1.000000;,
  0.000000;0.000000;-1.000000;,
  0.000000;0.000000;1.000000;,
  0.000000;0.000000;-1.000000;,
  0.159589;0.816602;-0.554700;,
  0.409456;0.855772;-0.316228;,
  0.104642;0.942894;-0.316228;,
  -0.045214;0.830821;-0.554700;,
  -0.338596;0.886201;-0.316228;,
  -0.701179;0.447946;-0.554700;,
  -0.941874;0.113459;-0.316228;,
  -0.744820;0.370878;-0.554700;,
  -0.664601;0.676983;-0.316228;,
  -0.738188;0.383909;-0.554700;,
  -0.946555;0.063514;-0.316228;,
  -0.948683;-0.000171;-0.316228;,
  -0.946870;-0.058630;-0.316228;,
  -0.913835;-0.254765;-0.316228;,
  -0.684503;-0.656853;-0.316228;,
  -0.189732;-0.929517;-0.316228;,
  -0.009497;-0.948636;-0.316228;,
  -0.012686;-0.948598;-0.316228;,
  -0.008598;-0.832006;-0.554700;,
  -0.000662;-0.948683;-0.316228;,
  0.036973;-0.947963;-0.316228;,
  0.170147;-0.933301;-0.316228;,
  0.378306;-0.869991;-0.316228;,
  0.443020;-0.838888;-0.316228;,
  0.229642;-0.799732;-0.554700;,
  0.055828;-0.947039;-0.316228;,
  -0.007340;-0.948655;-0.316228;,
  -0.012333;-0.948603;-0.316228;,
  -0.013286;-0.948590;-0.316228;,
  -0.010267;-0.948628;-0.316228;,
  -0.006038;-0.948664;-0.316228;,
  0.045028;-0.947614;-0.316228;,
  0.273686;-0.908348;-0.316228;,
  0.642953;-0.697575;-0.316228;,
  0.889717;-0.329246;-0.316228;,
  0.948166;-0.031317;-0.316228;,
  0.806207;0.205761;-0.554700;,
  0.750162;0.580738;-0.316228;,
  0.422781;0.849268;-0.316228;,
  0.137654;0.938643;-0.316228;,
  0.014929;0.948566;-0.316228;,
  0.002317;0.948680;-0.316228;,
  0.006732;0.948659;-0.316228;,
  0.008133;0.948648;-0.316228;,
  0.006088;0.948664;-0.316228;,
  0.002121;0.948681;-0.316228;,
  0.319177;0.768397;0.554700;,
  0.283055;0.905472;0.316228;,
  0.055329;0.947068;0.316228;,
  -0.095709;0.826527;0.554700;,
  -0.504854;0.803195;0.316228;,
  -0.795325;0.244469;0.554700;,
  -0.930865;0.183004;0.316228;,
  -0.747188;0.584559;0.316228;,
  -0.706259;0.633402;0.316228;,
  -0.910608;0.266069;0.316228;,
  -0.948003;0.035934;0.316228;,
  -0.948644;-0.008689;0.316228;,
  -0.943396;-0.100021;0.316228;,
  -0.875146;-0.366222;0.316228;,
  -0.490523;-0.812027;0.316228;,
  -0.098771;-0.943528;0.316228;,
  -0.011257;-0.948617;0.316228;,
  -0.012355;-0.948603;0.316228;,
  -0.006650;-0.832024;0.554700;,
  0.004037;-0.948675;0.316228;,
  0.065202;-0.946440;0.316228;,
  0.216032;-0.803516;0.554700;,
  0.434899;-0.843127;0.316228;,
  0.346552;-0.756445;0.554700;,
  0.152985;-0.817865;0.554700;,
  0.025308;-0.948346;0.316228;,
  -0.009473;-0.948636;0.316228;,
  -0.013060;-0.948593;0.316228;,
  -0.012786;-0.948597;0.316228;,
  -0.008248;-0.948647;0.316228;,
  -0.005848;-0.948665;0.316228;,
  0.095729;-0.943841;0.316228;,
  0.398497;-0.860930;0.316228;,
  0.756604;-0.572320;0.316228;,
  0.923153;-0.218605;0.316228;,
  0.947642;0.044438;0.316228;,
  0.774081;0.305134;0.554700;,
  0.645354;0.695355;0.316228;,
  0.310311;0.896497;0.316228;,
  0.079931;0.945310;0.316228;,
  0.007731;0.948652;0.316228;,
  0.004101;0.948674;0.316228;,
  0.007581;0.948653;0.316228;,
  0.007837;0.948651;0.316228;,
  0.004635;0.948672;0.316228;,
  0.001061;0.948683;0.316228;;

  106;
  3;95,49,4;,
  3;50,95,4;,
  3;94,48,49;,
  3;95,94,49;,
  3;93,47,48;,
  3;94,93,48;,
  3;92,46,47;,
  3;93,92,47;,
  3;91,45,46;,
  3;92,91,46;,
  3;90,44,45;,
  3;91,90,45;,
  3;89,43,44;,
  3;90,89,44;,
  3;88,42,43;,
  3;89,88,43;,
  3;87,41,42;,
  3;88,87,42;,
  3;86,40,41;,
  3;87,86,41;,
  3;85,39,40;,
  3;86,85,40;,
  3;84,38,39;,
  3;85,84,39;,
  3;83,37,38;,
  3;84,83,38;,
  3;82,36,37;,
  3;83,82,37;,
  3;81,35,36;,
  3;82,81,36;,
  3;80,34,35;,
  3;81,80,35;,
  3;79,33,34;,
  3;80,79,34;,
  3;78,32,33;,
  3;79,78,33;,
  3;77,31,32;,
  3;78,77,32;,
  3;76,30,31;,
  3;77,76,31;,
  3;75,29,30;,
  3;76,75,30;,
  3;74,28,29;,
  3;75,74,29;,
  3;73,27,28;,
  3;74,73,28;,
  3;72,26,27;,
  3;73,72,27;,
  3;71,25,26;,
  3;72,71,26;,
  3;70,24,25;,
  3;71,70,25;,
  3;69,23,24;,
  3;70,69,24;,
  3;68,22,23;,
  3;69,68,23;,
  3;67,21,22;,
  3;68,67,22;,
  3;66,20,21;,
  3;67,66,21;,
  3;65,19,20;,
  3;66,65,20;,
  3;64,18,19;,
  3;65,64,19;,
  3;63,17,18;,
  3;64,63,18;,
  3;62,16,17;,
  3;63,62,17;,
  3;61,15,16;,
  3;62,61,16;,
  3;60,14,15;,
  3;61,60,15;,
  3;59,13,14;,
  3;60,59,14;,
  3;58,12,13;,
  3;59,58,13;,
  3;57,11,12;,
  3;58,57,12;,
  3;56,10,11;,
  3;57,56,11;,
  3;55,9,10;,
  3;56,55,10;,
  3;54,8,9;,
  3;55,54,9;,
  3;53,7,8;,
  3;54,53,8;,
  3;52,6,7;,
  3;53,52,7;,
  3;51,5,6;,
  3;52,51,6;,
  3;50,4,5;,
  3;51,50,5;,
  6;0,2,50,51,52,53;,
  3;71,72,73;,
  3;13,12,11;,
  9;1,3,28,27,26,25,24,23,22;,
  12;3,4,49,48,47,46,45,44,43,42,41,40;,
  14;2,74,75,76,77,78,79,80,81,82,83,84,85,86;,
  4;1,9,8,7;,
  15;0,55,56,57,58,59,60,61,62,63,64,65,66,67,68;,
  12;86,87,88,89,90,91,92,93,94,95,50,2;,
  14;40,39,38,37,36,35,34,33,32,31,30,29,28,3;,
  6;7,6,5,4,3,1;,
  4;53,54,55,0;,
  14;22,21,20,19,18,17,16,15,14,13,11,10,9,1;,
  8;68,69,70,71,73,74,2,0;;
 }
 MeshTextureCoords { 
 96;
 0.323980;0.503385;,
 0.323980;0.503385;,
 0.579428;0.608415;,
 0.579428;0.608415;,
 0.550051;0.383229;,
 0.496947;0.334884;,
 0.377135;0.307975;,
 0.235722;0.306750;,
 0.117818;0.335461;,
 0.068532;0.398356;,
 0.064917;0.505773;,
 0.056297;0.548769;,
 0.046008;0.560950;,
 0.037388;0.575919;,
 0.033773;0.627280;,
 0.033267;0.706017;,
 0.034180;0.774927;,
 0.040157;0.829331;,
 0.054844;0.864550;,
 0.081886;0.875904;,
 0.157308;0.876746;,
 0.241798;0.878334;,
 0.329920;0.879864;,
 0.416236;0.880532;,
 0.495311;0.879535;,
 0.542460;0.873150;,
 0.568464;0.860376;,
 0.586265;0.845698;,
 0.608805;0.833602;,
 0.649026;0.828573;,
 0.688170;0.828867;,
 0.730192;0.829571;,
 0.772701;0.830417;,
 0.813309;0.831137;,
 0.849626;0.831464;,
 0.884993;0.831753;,
 0.921961;0.823867;,
 0.955094;0.794679;,
 0.978959;0.731061;,
 0.988122;0.619885;,
 0.977286;0.502955;,
 0.949426;0.432976;,
 0.911073;0.397924;,
 0.868757;0.385776;,
 0.829006;0.384506;,
 0.790599;0.384476;,
 0.754819;0.384173;,
 0.720558;0.383756;,
 0.686711;0.383387;,
 0.652168;0.383229;,
 0.550051;0.383229;,
 0.496947;0.334884;,
 0.377135;0.307975;,
 0.235722;0.306750;,
 0.117818;0.335461;,
 0.068532;0.398356;,
 0.064917;0.505773;,
 0.056297;0.548769;,
 0.046008;0.560950;,
 0.037388;0.575919;,
 0.033773;0.627280;,
 0.033267;0.706017;,
 0.034180;0.774927;,
 0.040157;0.829331;,
 0.054844;0.864550;,
 0.081886;0.875904;,
 0.157308;0.876746;,
 0.241798;0.878334;,
 0.329920;0.879864;,
 0.416236;0.880532;,
 0.495311;0.879535;,
 0.542460;0.873150;,
 0.568464;0.860376;,
 0.586265;0.845698;,
 0.608805;0.833602;,
 0.649026;0.828573;,
 0.688170;0.828867;,
 0.730192;0.829571;,
 0.772701;0.830417;,
 0.813309;0.831137;,
 0.849626;0.831464;,
 0.884993;0.831753;,
 0.921961;0.823867;,
 0.955094;0.794679;,
 0.978959;0.731061;,
 0.988122;0.619885;,
 0.977286;0.502955;,
 0.949426;0.432976;,
 0.911073;0.397924;,
 0.868757;0.385776;,
 0.829006;0.384506;,
 0.790599;0.384476;,
 0.754819;0.384173;,
 0.720558;0.383756;,
 0.686711;0.383387;,
 0.652168;0.383229;;
 }
}
}
