xof 0302txt 0032
template Header {
 <3D82AB43-62DA-11cf-AB39-0020AF71E433>
 WORD major;
 WORD minor;
 DWORD flags;
}

template Vector {
 <3D82AB5E-62DA-11cf-AB39-0020AF71E433>
 FLOAT x;
 FLOAT y;
 FLOAT z;
}

template Coords2d {
 <F6F23F44-7686-11cf-8F52-0040333594A3>
 FLOAT u;
 FLOAT v;
}

template Matrix4x4 {
 <F6F23F45-7686-11cf-8F52-0040333594A3>
 array FLOAT matrix[16];
}

template ColorRGBA {
 <35FF44E0-6C7C-11cf-8F52-0040333594A3>
 FLOAT red;
 FLOAT green;
 FLOAT blue;
 FLOAT alpha;
}

template ColorRGB {
 <D3E16E81-7835-11cf-8F52-0040333594A3>
 FLOAT red;
 FLOAT green;
 FLOAT blue;
}

template TextureFilename {
 <A42790E1-7810-11cf-8F52-0040333594A3>
 STRING filename;
}

template Material {
 <3D82AB4D-62DA-11cf-AB39-0020AF71E433>
 ColorRGBA faceColor;
 FLOAT power;
 ColorRGB specularColor;
 ColorRGB emissiveColor;
 [...]
}

template MeshFace {
 <3D82AB5F-62DA-11cf-AB39-0020AF71E433>
 DWORD nFaceVertexIndices;
 array DWORD faceVertexIndices[nFaceVertexIndices];
}

template MeshTextureCoords {
 <F6F23F40-7686-11cf-8F52-0040333594A3>
 DWORD nTextureCoords;
 array Coords2d textureCoords[nTextureCoords];
}

template MeshMaterialList {
 <F6F23F42-7686-11cf-8F52-0040333594A3>
 DWORD nMaterials;
 DWORD nFaceIndexes;
 array DWORD faceIndexes[nFaceIndexes];
 [Material]
}

template MeshNormals {
 <F6F23F43-7686-11cf-8F52-0040333594A3>
 DWORD nNormals;
 array Vector normals[nNormals];
 DWORD nFaceNormals;
 array MeshFace faceNormals[nFaceNormals];
}

template Mesh {
 <3D82AB44-62DA-11cf-AB39-0020AF71E433>
 DWORD nVertices;
 array Vector vertices[nVertices];
 DWORD nFaces;
 array MeshFace faces[nFaces];
 [...]
}

template FrameTransformMatrix {
 <F6F23F41-7686-11cf-8F52-0040333594A3>
 Matrix4x4 frameMatrix;
}

template Frame {
 <3D82AB46-62DA-11cf-AB39-0020AF71E433>
 [...]
}
template FloatKeys {
 <10DD46A9-775B-11cf-8F52-0040333594A3>
 DWORD nValues;
 array FLOAT values[nValues];
}

template TimedFloatKeys {
 <F406B180-7B3B-11cf-8F52-0040333594A3>
 DWORD time;
 FloatKeys tfkeys;
}

template AnimationKey {
 <10DD46A8-775B-11cf-8F52-0040333594A3>
 DWORD keyType;
 DWORD nKeys;
 array TimedFloatKeys keys[nKeys];
}

template AnimationOptions {
 <E2BF56C0-840F-11cf-8F52-0040333594A3>
 DWORD openclosed;
 DWORD positionquality;
}

template Animation {
 <3D82AB4F-62DA-11cf-AB39-0020AF71E433>
 [...]
}

template AnimationSet {
 <3D82AB50-62DA-11cf-AB39-0020AF71E433>
 [Animation]
}

Header {
 1;
 0;
 1;
}

Frame frm-extru3 {
  FrameTransformMatrix {
1.000000,0.000000,0.000000,0.000000,
0.000000,1.000000,0.000000,0.000000,
0.000000,0.000000,1.000000,0.000000,
0.000000,0.000000,0.000000,1.000000;;
 }
Mesh extru3 {
 400;
 5.209699;4.782627;0.000000;,
 5.209699;4.782627;0.000000;,
 5.209699;4.782627;0.000000;,
 6.089200;4.779677;0.000000;,
 6.089200;4.779677;0.000000;,
 6.089200;4.779677;0.000000;,
 6.950999;4.772826;0.000000;,
 6.950999;4.772826;0.000000;,
 6.950999;4.772826;0.000000;,
 7.823298;4.765076;0.000000;,
 7.823298;4.765076;0.000000;,
 7.823298;4.765076;0.000000;,
 8.734298;4.759425;0.000000;,
 8.734298;4.759425;0.000000;,
 8.734298;4.759425;0.000000;,
 9.712197;4.758875;0.000000;,
 9.712197;4.758875;0.000000;,
 9.712197;4.758875;0.000000;,
 10.724286;4.735265;0.000000;,
 10.724286;4.735265;0.000000;,
 10.724286;4.735265;0.000000;,
 11.801716;4.509396;0.000000;,
 11.801716;4.509396;0.000000;,
 11.801716;4.509396;0.000000;,
 12.778227;3.857707;0.000000;,
 12.778227;3.857707;0.000000;,
 12.778227;3.857707;0.000000;,
 13.487558;2.556638;0.000000;,
 13.487558;2.556638;0.000000;,
 13.487558;2.556638;0.000000;,
 13.487558;2.556638;0.000000;,
 13.763450;0.382628;0.000000;,
 13.763450;0.382628;0.000000;,
 13.763450;0.382628;0.000000;,
 13.530158;-1.684402;0.000000;,
 13.530158;-1.684402;0.000000;,
 13.530158;-1.684402;0.000000;,
 12.922527;-2.867213;0.000000;,
 12.922527;-2.867213;0.000000;,
 12.922527;-2.867213;0.000000;,
 12.078917;-3.409884;0.000000;,
 12.078917;-3.409884;0.000000;,
 12.078917;-3.409884;0.000000;,
 11.137687;-3.556494;0.000000;,
 11.137687;-3.556494;0.000000;,
 11.137687;-3.556494;0.000000;,
 10.237197;-3.551124;0.000000;,
 10.237197;-3.551124;0.000000;,
 10.237197;-3.551124;0.000000;,
 9.312537;-3.545053;0.000000;,
 9.312537;-3.545053;0.000000;,
 9.312537;-3.545053;0.000000;,
 8.278618;-3.531662;0.000000;,
 8.278618;-3.531662;0.000000;,
 8.278618;-3.531662;0.000000;,
 7.196278;-3.515932;0.000000;,
 7.196278;-3.515932;0.000000;,
 7.196278;-3.515932;0.000000;,
 6.126358;-3.502842;0.000000;,
 6.126358;-3.502842;0.000000;,
 6.126358;-3.502842;0.000000;,
 5.129698;-3.497372;0.000000;,
 5.129698;-3.497372;0.000000;,
 5.129698;-3.497372;0.000000;,
 4.105627;-3.590872;0.000000;,
 4.105627;-3.590872;0.000000;,
 4.105627;-3.590872;0.000000;,
 4.105627;-3.590872;0.000000;,
 3.531738;-3.815772;0.000000;,
 3.531738;-3.815772;0.000000;,
 3.531738;-3.815772;0.000000;,
 3.531738;-3.815772;0.000000;,
 3.078508;-4.088672;0.000000;,
 3.078508;-4.088672;0.000000;,
 3.078508;-4.088672;0.000000;,
 2.416419;-4.326172;0.000000;,
 2.416419;-4.326172;0.000000;,
 2.416419;-4.326172;0.000000;,
 2.416419;-4.326172;0.000000;,
 1.215949;-4.444872;0.000000;,
 1.215949;-4.444872;0.000000;,
 1.215949;-4.444872;0.000000;,
 -0.797381;-4.463412;0.000000;,
 -0.797381;-4.463412;0.000000;,
 -0.797381;-4.463412;0.000000;,
 -2.995091;-4.450993;0.000000;,
 -2.995091;-4.450993;0.000000;,
 -2.995091;-4.450993;0.000000;,
 -2.995091;-4.450993;0.000000;,
 -5.238761;-4.422554;0.000000;,
 -5.238761;-4.422554;0.000000;,
 -5.238761;-4.422554;0.000000;,
 -7.389973;-4.393034;0.000000;,
 -7.389973;-4.393034;0.000000;,
 -7.389973;-4.393034;0.000000;,
 -9.310305;-4.377373;0.000000;,
 -9.310305;-4.377373;0.000000;,
 -9.310305;-4.377373;0.000000;,
 -9.998822;-4.166274;0.000000;,
 -9.998822;-4.166274;0.000000;,
 -9.998822;-4.166274;0.000000;,
 -10.372762;-3.511474;0.000000;,
 -10.372762;-3.511474;0.000000;,
 -10.372762;-3.511474;0.000000;,
 -10.524942;-2.499974;0.000000;,
 -10.524942;-2.499974;0.000000;,
 -10.524942;-2.499974;0.000000;,
 -10.548182;-1.218774;0.000000;,
 -10.548182;-1.218774;0.000000;,
 -10.548182;-1.218774;0.000000;,
 -10.535303;0.245128;0.000000;,
 -10.535303;0.245128;0.000000;,
 -10.535303;0.245128;0.000000;,
 -10.443262;1.200058;0.000000;,
 -10.443262;1.200058;0.000000;,
 -10.443262;1.200058;0.000000;,
 -10.223783;1.478367;0.000000;,
 -10.223783;1.478367;0.000000;,
 -10.223783;1.478367;0.000000;,
 -9.961823;1.704837;0.000000;,
 -9.961823;1.704837;0.000000;,
 -9.961823;1.704837;0.000000;,
 -9.742343;2.504246;0.000000;,
 -9.742343;2.504246;0.000000;,
 -9.742343;2.504246;0.000000;,
 -9.650303;4.501375;0.000000;,
 -9.650303;4.501375;0.000000;,
 -9.650303;4.501375;0.000000;,
 -9.650303;4.501375;0.000000;,
 -8.395420;5.670745;0.000000;,
 -8.395420;5.670745;0.000000;,
 -8.395420;5.670745;0.000000;,
 -5.393459;6.204535;0.000000;,
 -5.393459;6.204535;0.000000;,
 -5.393459;6.204535;0.000000;,
 -5.393459;6.204535;0.000000;,
 -1.792939;6.181766;0.000000;,
 -1.792939;6.181766;0.000000;,
 -1.792939;6.181766;0.000000;,
 1.257622;5.681457;0.000000;,
 1.257622;5.681457;0.000000;,
 1.257622;5.681457;0.000000;,
 2.609701;4.782627;0.000000;,
 2.609701;4.782627;0.000000;,
 2.609701;4.782627;0.000000;,
 2.609701;4.782627;0.000000;,
 5.209699;4.782627;-1.000000;,
 5.209699;4.782627;-1.000000;,
 5.209699;4.782627;-1.000000;,
 6.089200;4.779677;-1.000000;,
 6.089200;4.779677;-1.000000;,
 6.089200;4.779677;-1.000000;,
 6.950999;4.772826;-1.000000;,
 6.950999;4.772826;-1.000000;,
 6.950999;4.772826;-1.000000;,
 7.823298;4.765076;-1.000000;,
 7.823298;4.765076;-1.000000;,
 7.823298;4.765076;-1.000000;,
 8.734298;4.759425;-1.000000;,
 8.734298;4.759425;-1.000000;,
 8.734298;4.759425;-1.000000;,
 9.712197;4.758875;-1.000000;,
 9.712197;4.758875;-1.000000;,
 9.712197;4.758875;-1.000000;,
 10.724286;4.735265;-1.000000;,
 10.724286;4.735265;-1.000000;,
 10.724286;4.735265;-1.000000;,
 11.801716;4.509396;-1.000000;,
 11.801716;4.509396;-1.000000;,
 11.801716;4.509396;-1.000000;,
 12.778227;3.857707;-1.000000;,
 12.778227;3.857707;-1.000000;,
 12.778227;3.857707;-1.000000;,
 13.487558;2.556638;-1.000000;,
 13.487558;2.556638;-1.000000;,
 13.487558;2.556638;-1.000000;,
 13.487558;2.556638;-1.000000;,
 13.763450;0.382628;-1.000000;,
 13.763450;0.382628;-1.000000;,
 13.763450;0.382628;-1.000000;,
 13.530158;-1.684402;-1.000000;,
 13.530158;-1.684402;-1.000000;,
 13.530158;-1.684402;-1.000000;,
 12.922527;-2.867213;-1.000000;,
 12.922527;-2.867213;-1.000000;,
 12.922527;-2.867213;-1.000000;,
 12.078917;-3.409884;-1.000000;,
 12.078917;-3.409884;-1.000000;,
 12.078917;-3.409884;-1.000000;,
 11.137687;-3.556494;-1.000000;,
 11.137687;-3.556494;-1.000000;,
 11.137687;-3.556494;-1.000000;,
 10.237197;-3.551124;-1.000000;,
 10.237197;-3.551124;-1.000000;,
 10.237197;-3.551124;-1.000000;,
 9.312537;-3.545053;-1.000000;,
 9.312537;-3.545053;-1.000000;,
 9.312537;-3.545053;-1.000000;,
 8.278618;-3.531662;-1.000000;,
 8.278618;-3.531662;-1.000000;,
 8.278618;-3.531662;-1.000000;,
 7.196278;-3.515932;-1.000000;,
 7.196278;-3.515932;-1.000000;,
 7.196278;-3.515932;-1.000000;,
 6.126358;-3.502842;-1.000000;,
 6.126358;-3.502842;-1.000000;,
 6.126358;-3.502842;-1.000000;,
 5.129698;-3.497372;-1.000000;,
 5.129698;-3.497372;-1.000000;,
 5.129698;-3.497372;-1.000000;,
 4.105627;-3.590872;-1.000000;,
 4.105627;-3.590872;-1.000000;,
 4.105627;-3.590872;-1.000000;,
 4.105627;-3.590872;-1.000000;,
 3.531738;-3.815772;-1.000000;,
 3.531738;-3.815772;-1.000000;,
 3.531738;-3.815772;-1.000000;,
 3.078508;-4.088672;-1.000000;,
 3.078508;-4.088672;-1.000000;,
 3.078508;-4.088672;-1.000000;,
 2.416419;-4.326172;-1.000000;,
 2.416419;-4.326172;-1.000000;,
 2.416419;-4.326172;-1.000000;,
 1.215949;-4.444872;-1.000000;,
 1.215949;-4.444872;-1.000000;,
 1.215949;-4.444872;-1.000000;,
 -0.797381;-4.463412;-1.000000;,
 -0.797381;-4.463412;-1.000000;,
 -0.797381;-4.463412;-1.000000;,
 -2.995091;-4.450993;-1.000000;,
 -2.995091;-4.450993;-1.000000;,
 -2.995091;-4.450993;-1.000000;,
 -2.995091;-4.450993;-1.000000;,
 -5.238761;-4.422554;-1.000000;,
 -5.238761;-4.422554;-1.000000;,
 -5.238761;-4.422554;-1.000000;,
 -7.389973;-4.393034;-1.000000;,
 -7.389973;-4.393034;-1.000000;,
 -7.389973;-4.393034;-1.000000;,
 -9.310305;-4.377373;-1.000000;,
 -9.310305;-4.377373;-1.000000;,
 -9.310305;-4.377373;-1.000000;,
 -9.998822;-4.166274;-1.000000;,
 -9.998822;-4.166274;-1.000000;,
 -9.998822;-4.166274;-1.000000;,
 -10.372762;-3.511474;-1.000000;,
 -10.372762;-3.511474;-1.000000;,
 -10.372762;-3.511474;-1.000000;,
 -10.524942;-2.499974;-1.000000;,
 -10.524942;-2.499974;-1.000000;,
 -10.524942;-2.499974;-1.000000;,
 -10.548182;-1.218774;-1.000000;,
 -10.548182;-1.218774;-1.000000;,
 -10.548182;-1.218774;-1.000000;,
 -10.535303;0.245128;-1.000000;,
 -10.535303;0.245128;-1.000000;,
 -10.535303;0.245128;-1.000000;,
 -10.443262;1.200058;-1.000000;,
 -10.443262;1.200058;-1.000000;,
 -10.443262;1.200058;-1.000000;,
 -10.443262;1.200058;-1.000000;,
 -10.223783;1.478367;-1.000000;,
 -10.223783;1.478367;-1.000000;,
 -10.223783;1.478367;-1.000000;,
 -9.961823;1.704837;-1.000000;,
 -9.961823;1.704837;-1.000000;,
 -9.961823;1.704837;-1.000000;,
 -9.961823;1.704837;-1.000000;,
 -9.742343;2.504246;-1.000000;,
 -9.742343;2.504246;-1.000000;,
 -9.742343;2.504246;-1.000000;,
 -9.650303;4.501375;-1.000000;,
 -9.650303;4.501375;-1.000000;,
 -9.650303;4.501375;-1.000000;,
 -9.650303;4.501375;-1.000000;,
 -8.395420;5.670745;-1.000000;,
 -8.395420;5.670745;-1.000000;,
 -8.395420;5.670745;-1.000000;,
 -5.393459;6.204535;-1.000000;,
 -5.393459;6.204535;-1.000000;,
 -5.393459;6.204535;-1.000000;,
 -5.393459;6.204535;-1.000000;,
 -1.792939;6.181766;-1.000000;,
 -1.792939;6.181766;-1.000000;,
 -1.792939;6.181766;-1.000000;,
 1.257622;5.681457;-1.000000;,
 1.257622;5.681457;-1.000000;,
 1.257622;5.681457;-1.000000;,
 2.609701;4.782627;-1.000000;,
 2.609701;4.782627;-1.000000;,
 2.609701;4.782627;-1.000000;,
 2.609701;4.782627;-1.000000;,
 3.357664;0.595878;-1.000000;,
 3.357664;0.595878;-1.000000;,
 3.357664;0.595878;-1.000000;,
 3.357664;0.595878;0.000000;,
 3.357664;0.595878;0.000000;,
 3.357664;0.595878;0.000000;,
 -3.146319;2.548626;-1.000000;,
 -3.146319;2.548626;-1.000000;,
 -3.146319;2.548626;-1.000000;,
 -3.146319;2.548626;0.000000;,
 -3.146319;2.548626;0.000000;,
 -3.146319;2.548626;0.000000;,
 -3.146319;2.548626;0.000000;,
 -3.146319;2.548626;-1.000000;,
 3.357664;0.595878;0.000000;,
 3.357664;0.595878;-1.000000;,
 2.609701;4.782627;-1.000000;,
 1.257622;5.681457;-1.000000;,
 -1.792939;6.181766;-1.000000;,
 -5.393459;6.204535;-1.000000;,
 -8.395420;5.670745;-1.000000;,
 -9.650303;4.501375;-1.000000;,
 -9.742343;2.504246;-1.000000;,
 -9.961823;1.704837;-1.000000;,
 -10.223783;1.478367;-1.000000;,
 -10.443262;1.200058;-1.000000;,
 -10.535303;0.245128;-1.000000;,
 -10.548182;-1.218774;-1.000000;,
 -10.524942;-2.499974;-1.000000;,
 -10.372762;-3.511474;-1.000000;,
 -9.998822;-4.166274;-1.000000;,
 -9.310305;-4.377373;-1.000000;,
 -7.389973;-4.393034;-1.000000;,
 -5.238761;-4.422554;-1.000000;,
 -2.995091;-4.450993;-1.000000;,
 -0.797381;-4.463412;-1.000000;,
 1.215949;-4.444872;-1.000000;,
 2.416419;-4.326172;-1.000000;,
 3.078508;-4.088672;-1.000000;,
 3.531738;-3.815772;-1.000000;,
 4.105627;-3.590872;-1.000000;,
 5.129698;-3.497372;-1.000000;,
 6.126358;-3.502842;-1.000000;,
 7.196278;-3.515932;-1.000000;,
 8.278618;-3.531662;-1.000000;,
 9.312537;-3.545053;-1.000000;,
 10.237197;-3.551124;-1.000000;,
 11.137687;-3.556494;-1.000000;,
 12.078917;-3.409884;-1.000000;,
 12.922527;-2.867213;-1.000000;,
 13.530158;-1.684402;-1.000000;,
 13.763450;0.382628;-1.000000;,
 13.487558;2.556638;-1.000000;,
 12.778227;3.857707;-1.000000;,
 11.801716;4.509396;-1.000000;,
 10.724286;4.735265;-1.000000;,
 9.712197;4.758875;-1.000000;,
 8.734298;4.759425;-1.000000;,
 7.823298;4.765076;-1.000000;,
 6.950999;4.772826;-1.000000;,
 6.089200;4.779677;-1.000000;,
 5.209699;4.782627;-1.000000;,
 2.609701;4.782627;0.000000;,
 1.257622;5.681457;0.000000;,
 -1.792939;6.181766;0.000000;,
 -5.393459;6.204535;0.000000;,
 -8.395420;5.670745;0.000000;,
 -9.650303;4.501375;0.000000;,
 -9.742343;2.504246;0.000000;,
 -9.961823;1.704837;0.000000;,
 -10.223783;1.478367;0.000000;,
 -10.443262;1.200058;0.000000;,
 -10.535303;0.245128;0.000000;,
 -10.548182;-1.218774;0.000000;,
 -10.524942;-2.499974;0.000000;,
 -10.372762;-3.511474;0.000000;,
 -9.998822;-4.166274;0.000000;,
 -9.310305;-4.377373;0.000000;,
 -7.389973;-4.393034;0.000000;,
 -5.238761;-4.422554;0.000000;,
 -2.995091;-4.450993;0.000000;,
 -0.797381;-4.463412;0.000000;,
 1.215949;-4.444872;0.000000;,
 2.416419;-4.326172;0.000000;,
 3.078508;-4.088672;0.000000;,
 3.531738;-3.815772;0.000000;,
 4.105627;-3.590872;0.000000;,
 5.129698;-3.497372;0.000000;,
 6.126358;-3.502842;0.000000;,
 7.196278;-3.515932;0.000000;,
 8.278618;-3.531662;0.000000;,
 9.312537;-3.545053;0.000000;,
 10.237197;-3.551124;0.000000;,
 11.137687;-3.556494;0.000000;,
 12.078917;-3.409884;0.000000;,
 12.922527;-2.867213;0.000000;,
 13.530158;-1.684402;0.000000;,
 13.763450;0.382628;0.000000;,
 13.487558;2.556638;0.000000;,
 12.778227;3.857707;0.000000;,
 11.801716;4.509396;0.000000;,
 10.724286;4.735265;0.000000;,
 9.712197;4.758875;0.000000;,
 8.734298;4.759425;0.000000;,
 7.823298;4.765076;0.000000;,
 6.950999;4.772826;0.000000;,
 6.089200;4.779677;0.000000;,
 5.209699;4.782627;0.000000;;

 106;
 3;2,148,291;,
 3;145,1,290;,
 3;5,151,147;,
 3;0,4,146;,
 3;8,154,150;,
 3;3,7,149;,
 3;11,157,153;,
 3;6,10,152;,
 3;14,160,156;,
 3;9,13,155;,
 3;17,163,159;,
 3;12,16,158;,
 3;20,166,162;,
 3;15,19,161;,
 3;23,169,165;,
 3;18,22,164;,
 3;26,172,168;,
 3;21,25,167;,
 3;30,176,171;,
 3;24,29,170;,
 3;33,179,175;,
 3;28,32,174;,
 3;36,182,178;,
 3;31,35,177;,
 3;39,185,181;,
 3;34,38,180;,
 3;42,188,184;,
 3;37,41,183;,
 3;45,191,187;,
 3;40,44,186;,
 3;48,194,190;,
 3;43,47,189;,
 3;51,197,193;,
 3;46,50,192;,
 3;54,200,196;,
 3;49,53,195;,
 3;57,203,199;,
 3;52,56,198;,
 3;60,206,202;,
 3;55,59,201;,
 3;63,209,205;,
 3;58,62,204;,
 3;67,213,208;,
 3;61,66,207;,
 3;71,216,212;,
 3;65,70,211;,
 3;74,219,215;,
 3;69,73,214;,
 3;78,222,218;,
 3;72,77,217;,
 3;81,225,221;,
 3;76,80,220;,
 3;84,228,224;,
 3;79,83,223;,
 3;88,232,227;,
 3;82,87,226;,
 3;91,235,231;,
 3;86,90,230;,
 3;94,238,234;,
 3;89,93,233;,
 3;97,241,237;,
 3;92,96,236;,
 3;100,244,240;,
 3;95,99,239;,
 3;103,247,243;,
 3;98,102,242;,
 3;106,250,246;,
 3;101,105,245;,
 3;109,253,249;,
 3;104,108,248;,
 3;112,256,252;,
 3;107,111,251;,
 3;115,260,255;,
 3;110,114,254;,
 3;118,263,259;,
 3;113,117,258;,
 3;121,267,262;,
 3;116,120,261;,
 3;124,270,266;,
 3;119,123,265;,
 3;128,274,269;,
 3;122,127,268;,
 3;131,277,273;,
 3;126,130,272;,
 3;135,281,276;,
 3;129,134,275;,
 3;138,284,280;,
 3;133,137,279;,
 3;141,287,283;,
 3;136,140,282;,
 3;144,289,286;,
 3;139,143,285;,
 6;303,297,142,355,356,132;,
 3;75,376,68;,
 3;257,316,264;,
 9;300,294,210,331,330,329,328,327,229;,
 12;293,288,353,352,351,350,349,348,347,346,345,173;,
 14;296,64,379,380,381,382,383,384,385,386,387,388,389,27;,
 4;299,271,312,278;,
 15;302,125,360,361,362,363,364,365,366,367,368,369,370,371,85;,
 12;390,391,392,393,394,395,396,397,398,399,354,295;,
 14;344,343,342,341,340,339,338,337,336,335,334,333,332,292;,
 6;311,310,309,308,307,298;,
 4;357,358,359,301;,
 14;326,325,324,323,322,321,320,319,318,317,315,314,313,305;,
 8;372,373,374,375,377,378,306,304;;

 MeshMaterialList {
  2;
  106;
  0,
  0,
  0,
  0,
  0,
  0,
  0,
  0,
  0,
  0,
  0,
  0,
  0,
  0,
  0,
  0,
  0,
  0,
  0,
  0,
  0,
  0,
  0,
  0,
  0,
  0,
  0,
  0,
  0,
  0,
  0,
  0,
  0,
  0,
  0,
  0,
  0,
  0,
  0,
  0,
  0,
  0,
  0,
  0,
  0,
  0,
  0,
  0,
  0,
  0,
  0,
  0,
  0,
  0,
  0,
  0,
  0,
  0,
  0,
  0,
  0,
  0,
  0,
  0,
  0,
  0,
  0,
  0,
  0,
  0,
  0,
  0,
  0,
  0,
  0,
  0,
  0,
  0,
  0,
  0,
  0,
  0,
  0,
  0,
  0,
  0,
  0,
  0,
  0,
  0,
  0,
  0,
  1,
  0,
  0,
  1,
  1,
  1,
  1,
  1,
  1,
  1,
  1,
  1,
  1,
  1;
Material {
 0.000000;0.000000;0.000000;1.000000;;
 50.000000;
 1.000000;1.000000;1.000000;;
 0.0; 0.0; 0.0;;
 TextureFilename {
  "loadout.ppm";
 }
 }
Material {
 1.000000;1.000000;1.000000;1.000000;;
 50.000000;
 1.000000;1.000000;1.000000;;
 0.0; 0.0; 0.0;;
 TextureFilename {
  "loadout.ppm";
 }
 }
}
 MeshNormals {
  400;
  0.001061;0.948683;0.316228;,
  0.001061;0.948683;0.316228;,
  0.001061;0.948683;0.316228;,
  0.004635;0.948672;0.316228;,
  0.004635;0.948672;0.316228;,
  0.004635;0.948672;0.316228;,
  0.007837;0.948651;0.316228;,
  0.007837;0.948651;0.316228;,
  0.007837;0.948651;0.316228;,
  0.007581;0.948653;0.316228;,
  0.007581;0.948653;0.316228;,
  0.007581;0.948653;0.316228;,
  0.004101;0.948674;0.316228;,
  0.004101;0.948674;0.316228;,
  0.004101;0.948674;0.316228;,
  0.007731;0.948652;0.316228;,
  0.007731;0.948652;0.316228;,
  0.007731;0.948652;0.316228;,
  0.079931;0.945310;0.316228;,
  0.079931;0.945310;0.316228;,
  0.079931;0.945310;0.316228;,
  0.310311;0.896497;0.316228;,
  0.310311;0.896497;0.316228;,
  0.310311;0.896497;0.316228;,
  0.645354;0.695355;0.316228;,
  0.645354;0.695355;0.316228;,
  0.645354;0.695355;0.316228;,
  0.774081;0.305134;0.554700;,
  0.774081;0.305134;0.554700;,
  0.774081;0.305134;0.554700;,
  0.774081;0.305134;0.554700;,
  0.947642;0.044438;0.316228;,
  0.947642;0.044438;0.316228;,
  0.947642;0.044438;0.316228;,
  0.923153;-0.218605;0.316228;,
  0.923153;-0.218605;0.316228;,
  0.923153;-0.218605;0.316228;,
  0.756604;-0.572320;0.316228;,
  0.756604;-0.572320;0.316228;,
  0.756604;-0.572320;0.316228;,
  0.398497;-0.860930;0.316228;,
  0.398497;-0.860930;0.316228;,
  0.398497;-0.860930;0.316228;,
  0.095729;-0.943841;0.316228;,
  0.095729;-0.943841;0.316228;,
  0.095729;-0.943841;0.316228;,
  -0.005848;-0.948665;0.316228;,
  -0.005848;-0.948665;0.316228;,
  -0.005848;-0.948665;0.316228;,
  -0.008248;-0.948647;0.316228;,
  -0.008248;-0.948647;0.316228;,
  -0.008248;-0.948647;0.316228;,
  -0.012786;-0.948597;0.316228;,
  -0.012786;-0.948597;0.316228;,
  -0.012786;-0.948597;0.316228;,
  -0.013060;-0.948593;0.316228;,
  -0.013060;-0.948593;0.316228;,
  -0.013060;-0.948593;0.316228;,
  -0.009473;-0.948636;0.316228;,
  -0.009473;-0.948636;0.316228;,
  -0.009473;-0.948636;0.316228;,
  0.025308;-0.948346;0.316228;,
  0.025308;-0.948346;0.316228;,
  0.025308;-0.948346;0.316228;,
  0.152985;-0.817865;0.554700;,
  0.152985;-0.817865;0.554700;,
  0.152985;-0.817865;0.554700;,
  0.152985;-0.817865;0.554700;,
  0.346552;-0.756445;0.554700;,
  0.346552;-0.756445;0.554700;,
  0.346552;-0.756445;0.554700;,
  0.346552;-0.756445;0.554700;,
  0.434899;-0.843127;0.316228;,
  0.434899;-0.843127;0.316228;,
  0.434899;-0.843127;0.316228;,
  0.216032;-0.803516;0.554700;,
  0.216032;-0.803516;0.554700;,
  0.216032;-0.803516;0.554700;,
  0.216032;-0.803516;0.554700;,
  0.065202;-0.946440;0.316228;,
  0.065202;-0.946440;0.316228;,
  0.065202;-0.946440;0.316228;,
  0.004037;-0.948675;0.316228;,
  0.004037;-0.948675;0.316228;,
  0.004037;-0.948675;0.316228;,
  -0.006650;-0.832024;0.554700;,
  -0.006650;-0.832024;0.554700;,
  -0.006650;-0.832024;0.554700;,
  -0.006650;-0.832024;0.554700;,
  -0.012355;-0.948603;0.316228;,
  -0.012355;-0.948603;0.316228;,
  -0.012355;-0.948603;0.316228;,
  -0.011257;-0.948617;0.316228;,
  -0.011257;-0.948617;0.316228;,
  -0.011257;-0.948617;0.316228;,
  -0.098771;-0.943528;0.316228;,
  -0.098771;-0.943528;0.316228;,
  -0.098771;-0.943528;0.316228;,
  -0.490523;-0.812027;0.316228;,
  -0.490523;-0.812027;0.316228;,
  -0.490523;-0.812027;0.316228;,
  -0.875146;-0.366222;0.316228;,
  -0.875146;-0.366222;0.316228;,
  -0.875146;-0.366222;0.316228;,
  -0.943396;-0.100021;0.316228;,
  -0.943396;-0.100021;0.316228;,
  -0.943396;-0.100021;0.316228;,
  -0.948644;-0.008689;0.316228;,
  -0.948644;-0.008689;0.316228;,
  -0.948644;-0.008689;0.316228;,
  -0.948003;0.035934;0.316228;,
  -0.948003;0.035934;0.316228;,
  -0.948003;0.035934;0.316228;,
  -0.910608;0.266069;0.316228;,
  -0.910608;0.266069;0.316228;,
  -0.910608;0.266069;0.316228;,
  -0.706259;0.633402;0.316228;,
  -0.706259;0.633402;0.316228;,
  -0.706259;0.633402;0.316228;,
  -0.747188;0.584559;0.316228;,
  -0.747188;0.584559;0.316228;,
  -0.747188;0.584559;0.316228;,
  -0.930865;0.183004;0.316228;,
  -0.930865;0.183004;0.316228;,
  -0.930865;0.183004;0.316228;,
  -0.795325;0.244469;0.554700;,
  -0.795325;0.244469;0.554700;,
  -0.795325;0.244469;0.554700;,
  -0.795325;0.244469;0.554700;,
  -0.504854;0.803195;0.316228;,
  -0.504854;0.803195;0.316228;,
  -0.504854;0.803195;0.316228;,
  -0.095709;0.826527;0.554700;,
  -0.095709;0.826527;0.554700;,
  -0.095709;0.826527;0.554700;,
  -0.095709;0.826527;0.554700;,
  0.055329;0.947068;0.316228;,
  0.055329;0.947068;0.316228;,
  0.055329;0.947068;0.316228;,
  0.283055;0.905472;0.316228;,
  0.283055;0.905472;0.316228;,
  0.283055;0.905472;0.316228;,
  0.319177;0.768397;0.554700;,
  0.319177;0.768397;0.554700;,
  0.319177;0.768397;0.554700;,
  0.319177;0.768397;0.554700;,
  0.002121;0.948681;-0.316228;,
  0.002121;0.948681;-0.316228;,
  0.002121;0.948681;-0.316228;,
  0.006088;0.948664;-0.316228;,
  0.006088;0.948664;-0.316228;,
  0.006088;0.948664;-0.316228;,
  0.008133;0.948648;-0.316228;,
  0.008133;0.948648;-0.316228;,
  0.008133;0.948648;-0.316228;,
  0.006732;0.948659;-0.316228;,
  0.006732;0.948659;-0.316228;,
  0.006732;0.948659;-0.316228;,
  0.002317;0.948680;-0.316228;,
  0.002317;0.948680;-0.316228;,
  0.002317;0.948680;-0.316228;,
  0.014929;0.948566;-0.316228;,
  0.014929;0.948566;-0.316228;,
  0.014929;0.948566;-0.316228;,
  0.137654;0.938643;-0.316228;,
  0.137654;0.938643;-0.316228;,
  0.137654;0.938643;-0.316228;,
  0.422781;0.849268;-0.316228;,
  0.422781;0.849268;-0.316228;,
  0.422781;0.849268;-0.316228;,
  0.750162;0.580738;-0.316228;,
  0.750162;0.580738;-0.316228;,
  0.750162;0.580738;-0.316228;,
  0.806207;0.205761;-0.554700;,
  0.806207;0.205761;-0.554700;,
  0.806207;0.205761;-0.554700;,
  0.806207;0.205761;-0.554700;,
  0.948166;-0.031317;-0.316228;,
  0.948166;-0.031317;-0.316228;,
  0.948166;-0.031317;-0.316228;,
  0.889717;-0.329246;-0.316228;,
  0.889717;-0.329246;-0.316228;,
  0.889717;-0.329246;-0.316228;,
  0.642953;-0.697575;-0.316228;,
  0.642953;-0.697575;-0.316228;,
  0.642953;-0.697575;-0.316228;,
  0.273686;-0.908348;-0.316228;,
  0.273686;-0.908348;-0.316228;,
  0.273686;-0.908348;-0.316228;,
  0.045028;-0.947614;-0.316228;,
  0.045028;-0.947614;-0.316228;,
  0.045028;-0.947614;-0.316228;,
  -0.006038;-0.948664;-0.316228;,
  -0.006038;-0.948664;-0.316228;,
  -0.006038;-0.948664;-0.316228;,
  -0.010267;-0.948628;-0.316228;,
  -0.010267;-0.948628;-0.316228;,
  -0.010267;-0.948628;-0.316228;,
  -0.013286;-0.948590;-0.316228;,
  -0.013286;-0.948590;-0.316228;,
  -0.013286;-0.948590;-0.316228;,
  -0.012333;-0.948603;-0.316228;,
  -0.012333;-0.948603;-0.316228;,
  -0.012333;-0.948603;-0.316228;,
  -0.007340;-0.948655;-0.316228;,
  -0.007340;-0.948655;-0.316228;,
  -0.007340;-0.948655;-0.316228;,
  0.055828;-0.947039;-0.316228;,
  0.055828;-0.947039;-0.316228;,
  0.055828;-0.947039;-0.316228;,
  0.229642;-0.799732;-0.554700;,
  0.229642;-0.799732;-0.554700;,
  0.229642;-0.799732;-0.554700;,
  0.229642;-0.799732;-0.554700;,
  0.443020;-0.838888;-0.316228;,
  0.443020;-0.838888;-0.316228;,
  0.443020;-0.838888;-0.316228;,
  0.378306;-0.869991;-0.316228;,
  0.378306;-0.869991;-0.316228;,
  0.378306;-0.869991;-0.316228;,
  0.170147;-0.933301;-0.316228;,
  0.170147;-0.933301;-0.316228;,
  0.170147;-0.933301;-0.316228;,
  0.036973;-0.947963;-0.316228;,
  0.036973;-0.947963;-0.316228;,
  0.036973;-0.947963;-0.316228;,
  -0.000662;-0.948683;-0.316228;,
  -0.000662;-0.948683;-0.316228;,
  -0.000662;-0.948683;-0.316228;,
  -0.008598;-0.832006;-0.554700;,
  -0.008598;-0.832006;-0.554700;,
  -0.008598;-0.832006;-0.554700;,
  -0.008598;-0.832006;-0.554700;,
  -0.012686;-0.948598;-0.316228;,
  -0.012686;-0.948598;-0.316228;,
  -0.012686;-0.948598;-0.316228;,
  -0.009497;-0.948636;-0.316228;,
  -0.009497;-0.948636;-0.316228;,
  -0.009497;-0.948636;-0.316228;,
  -0.189732;-0.929517;-0.316228;,
  -0.189732;-0.929517;-0.316228;,
  -0.189732;-0.929517;-0.316228;,
  -0.684503;-0.656853;-0.316228;,
  -0.684503;-0.656853;-0.316228;,
  -0.684503;-0.656853;-0.316228;,
  -0.913835;-0.254765;-0.316228;,
  -0.913835;-0.254765;-0.316228;,
  -0.913835;-0.254765;-0.316228;,
  -0.946870;-0.058630;-0.316228;,
  -0.946870;-0.058630;-0.316228;,
  -0.946870;-0.058630;-0.316228;,
  -0.948683;-0.000171;-0.316228;,
  -0.948683;-0.000171;-0.316228;,
  -0.948683;-0.000171;-0.316228;,
  -0.946555;0.063514;-0.316228;,
  -0.946555;0.063514;-0.316228;,
  -0.946555;0.063514;-0.316228;,
  -0.738188;0.383909;-0.554700;,
  -0.738188;0.383909;-0.554700;,
  -0.738188;0.383909;-0.554700;,
  -0.738188;0.383909;-0.554700;,
  -0.664601;0.676983;-0.316228;,
  -0.664601;0.676983;-0.316228;,
  -0.664601;0.676983;-0.316228;,
  -0.744820;0.370878;-0.554700;,
  -0.744820;0.370878;-0.554700;,
  -0.744820;0.370878;-0.554700;,
  -0.744820;0.370878;-0.554700;,
  -0.941874;0.113459;-0.316228;,
  -0.941874;0.113459;-0.316228;,
  -0.941874;0.113459;-0.316228;,
  -0.701179;0.447946;-0.554700;,
  -0.701179;0.447946;-0.554700;,
  -0.701179;0.447946;-0.554700;,
  -0.701179;0.447946;-0.554700;,
  -0.338596;0.886201;-0.316228;,
  -0.338596;0.886201;-0.316228;,
  -0.338596;0.886201;-0.316228;,
  -0.045214;0.830821;-0.554700;,
  -0.045214;0.830821;-0.554700;,
  -0.045214;0.830821;-0.554700;,
  -0.045214;0.830821;-0.554700;,
  0.104642;0.942894;-0.316228;,
  0.104642;0.942894;-0.316228;,
  0.104642;0.942894;-0.316228;,
  0.409456;0.855772;-0.316228;,
  0.409456;0.855772;-0.316228;,
  0.409456;0.855772;-0.316228;,
  0.159589;0.816602;-0.554700;,
  0.159589;0.816602;-0.554700;,
  0.159589;0.816602;-0.554700;,
  0.159589;0.816602;-0.554700;,
  0.000000;0.000000;-1.000000;,
  0.000000;0.000000;-1.000000;,
  0.000000;0.000000;-1.000000;,
  0.000000;0.000000;1.000000;,
  0.000000;0.000000;1.000000;,
  0.000000;0.000000;1.000000;,
  0.000000;0.000000;-1.000000;,
  0.000000;0.000000;-1.000000;,
  0.000000;0.000000;-1.000000;,
  0.000000;0.000000;1.000000;,
  0.000000;0.000000;1.000000;,
  0.000000;0.000000;1.000000;,
  0.000000;0.000000;1.000000;,
  0.000000;0.000000;-1.000000;,
  0.000000;0.000000;1.000000;,
  0.000000;0.000000;-1.000000;,
  0.159589;0.816602;-0.554700;,
  0.409456;0.855772;-0.316228;,
  0.104642;0.942894;-0.316228;,
  -0.045214;0.830821;-0.554700;,
  -0.338596;0.886201;-0.316228;,
  -0.701179;0.447946;-0.554700;,
  -0.941874;0.113459;-0.316228;,
  -0.744820;0.370878;-0.554700;,
  -0.664601;0.676983;-0.316228;,
  -0.738188;0.383909;-0.554700;,
  -0.946555;0.063514;-0.316228;,
  -0.948683;-0.000171;-0.316228;,
  -0.946870;-0.058630;-0.316228;,
  -0.913835;-0.254765;-0.316228;,
  -0.684503;-0.656853;-0.316228;,
  -0.189732;-0.929517;-0.316228;,
  -0.009497;-0.948636;-0.316228;,
  -0.012686;-0.948598;-0.316228;,
  -0.008598;-0.832006;-0.554700;,
  -0.000662;-0.948683;-0.316228;,
  0.036973;-0.947963;-0.316228;,
  0.170147;-0.933301;-0.316228;,
  0.378306;-0.869991;-0.316228;,
  0.443020;-0.838888;-0.316228;,
  0.229642;-0.799732;-0.554700;,
  0.055828;-0.947039;-0.316228;,
  -0.007340;-0.948655;-0.316228;,
  -0.012333;-0.948603;-0.316228;,
  -0.013286;-0.948590;-0.316228;,
  -0.010267;-0.948628;-0.316228;,
  -0.006038;-0.948664;-0.316228;,
  0.045028;-0.947614;-0.316228;,
  0.273686;-0.908348;-0.316228;,
  0.642953;-0.697575;-0.316228;,
  0.889717;-0.329246;-0.316228;,
  0.948166;-0.031317;-0.316228;,
  0.806207;0.205761;-0.554700;,
  0.750162;0.580738;-0.316228;,
  0.422781;0.849268;-0.316228;,
  0.137654;0.938643;-0.316228;,
  0.014929;0.948566;-0.316228;,
  0.002317;0.948680;-0.316228;,
  0.006732;0.948659;-0.316228;,
  0.008133;0.948648;-0.316228;,
  0.006088;0.948664;-0.316228;,
  0.002121;0.948681;-0.316228;,
  0.319177;0.768397;0.554700;,
  0.283055;0.905472;0.316228;,
  0.055329;0.947068;0.316228;,
  -0.095709;0.826527;0.554700;,
  -0.504854;0.803195;0.316228;,
  -0.795325;0.244469;0.554700;,
  -0.930865;0.183004;0.316228;,
  -0.747188;0.584559;0.316228;,
  -0.706259;0.633402;0.316228;,
  -0.910608;0.266069;0.316228;,
  -0.948003;0.035934;0.316228;,
  -0.948644;-0.008689;0.316228;,
  -0.943396;-0.100021;0.316228;,
  -0.875146;-0.366222;0.316228;,
  -0.490523;-0.812027;0.316228;,
  -0.098771;-0.943528;0.316228;,
  -0.011257;-0.948617;0.316228;,
  -0.012355;-0.948603;0.316228;,
  -0.006650;-0.832024;0.554700;,
  0.004037;-0.948675;0.316228;,
  0.065202;-0.946440;0.316228;,
  0.216032;-0.803516;0.554700;,
  0.434899;-0.843127;0.316228;,
  0.346552;-0.756445;0.554700;,
  0.152985;-0.817865;0.554700;,
  0.025308;-0.948346;0.316228;,
  -0.009473;-0.948636;0.316228;,
  -0.013060;-0.948593;0.316228;,
  -0.012786;-0.948597;0.316228;,
  -0.008248;-0.948647;0.316228;,
  -0.005848;-0.948665;0.316228;,
  0.095729;-0.943841;0.316228;,
  0.398497;-0.860930;0.316228;,
  0.756604;-0.572320;0.316228;,
  0.923153;-0.218605;0.316228;,
  0.947642;0.044438;0.316228;,
  0.774081;0.305134;0.554700;,
  0.645354;0.695355;0.316228;,
  0.310311;0.896497;0.316228;,
  0.079931;0.945310;0.316228;,
  0.007731;0.948652;0.316228;,
  0.004101;0.948674;0.316228;,
  0.007581;0.948653;0.316228;,
  0.007837;0.948651;0.316228;,
  0.004635;0.948672;0.316228;,
  0.001061;0.948683;0.316228;;

  106;
  3;2,148,291;,
  3;145,1,290;,
  3;5,151,147;,
  3;0,4,146;,
  3;8,154,150;,
  3;3,7,149;,
  3;11,157,153;,
  3;6,10,152;,
  3;14,160,156;,
  3;9,13,155;,
  3;17,163,159;,
  3;12,16,158;,
  3;20,166,162;,
  3;15,19,161;,
  3;23,169,165;,
  3;18,22,164;,
  3;26,172,168;,
  3;21,25,167;,
  3;30,176,171;,
  3;24,29,170;,
  3;33,179,175;,
  3;28,32,174;,
  3;36,182,178;,
  3;31,35,177;,
  3;39,185,181;,
  3;34,38,180;,
  3;42,188,184;,
  3;37,41,183;,
  3;45,191,187;,
  3;40,44,186;,
  3;48,194,190;,
  3;43,47,189;,
  3;51,197,193;,
  3;46,50,192;,
  3;54,200,196;,
  3;49,53,195;,
  3;57,203,199;,
  3;52,56,198;,
  3;60,206,202;,
  3;55,59,201;,
  3;63,209,205;,
  3;58,62,204;,
  3;67,213,208;,
  3;61,66,207;,
  3;71,216,212;,
  3;65,70,211;,
  3;74,219,215;,
  3;69,73,214;,
  3;78,222,218;,
  3;72,77,217;,
  3;81,225,221;,
  3;76,80,220;,
  3;84,228,224;,
  3;79,83,223;,
  3;88,232,227;,
  3;82,87,226;,
  3;91,235,231;,
  3;86,90,230;,
  3;94,238,234;,
  3;89,93,233;,
  3;97,241,237;,
  3;92,96,236;,
  3;100,244,240;,
  3;95,99,239;,
  3;103,247,243;,
  3;98,102,242;,
  3;106,250,246;,
  3;101,105,245;,
  3;109,253,249;,
  3;104,108,248;,
  3;112,256,252;,
  3;107,111,251;,
  3;115,260,255;,
  3;110,114,254;,
  3;118,263,259;,
  3;113,117,258;,
  3;121,267,262;,
  3;116,120,261;,
  3;124,270,266;,
  3;119,123,265;,
  3;128,274,269;,
  3;122,127,268;,
  3;131,277,273;,
  3;126,130,272;,
  3;135,281,276;,
  3;129,134,275;,
  3;138,284,280;,
  3;133,137,279;,
  3;141,287,283;,
  3;136,140,282;,
  3;144,289,286;,
  3;139,143,285;,
  6;303,297,142,355,356,132;,
  3;75,376,68;,
  3;257,316,264;,
  9;300,294,210,331,330,329,328,327,229;,
  12;293,288,353,352,351,350,349,348,347,346,345,173;,
  14;296,64,379,380,381,382,383,384,385,386,387,388,389,27;,
  4;299,271,312,278;,
  15;302,125,360,361,362,363,364,365,366,367,368,369,370,371,85;,
  12;390,391,392,393,394,395,396,397,398,399,354,295;,
  14;344,343,342,341,340,339,338,337,336,335,334,333,332,292;,
  6;311,310,309,308,307,298;,
  4;357,358,359,301;,
  14;326,325,324,323,322,321,320,319,318,317,315,314,313,305;,
  8;372,373,374,375,377,378,306,304;;
 }
 MeshTextureCoords { 
 400;
 0.259848;0.205673;,
 0.259848;0.205673;,
 0.259848;0.205673;,
 0.273611;0.205758;,
 0.273611;0.205758;,
 0.273611;0.205758;,
 0.287097;0.205954;,
 0.287097;0.205954;,
 0.287097;0.205954;,
 0.300748;0.206175;,
 0.300748;0.206175;,
 0.300748;0.206175;,
 0.315004;0.206336;,
 0.315004;0.206336;,
 0.315004;0.206336;,
 0.330307;0.206352;,
 0.330307;0.206352;,
 0.330307;0.206352;,
 0.346145;0.207027;,
 0.346145;0.207027;,
 0.346145;0.207027;,
 0.363006;0.213481;,
 0.363006;0.213481;,
 0.363006;0.213481;,
 0.378287;0.232102;,
 0.378287;0.232102;,
 0.378287;0.232102;,
 0.389387;0.269278;,
 0.389387;0.269278;,
 0.389387;0.269278;,
 0.389387;0.269278;,
 0.393705;0.331397;,
 0.393705;0.331397;,
 0.393705;0.331397;,
 0.390054;0.390460;,
 0.390054;0.390460;,
 0.390054;0.390460;,
 0.380545;0.424257;,
 0.380545;0.424257;,
 0.380545;0.424257;,
 0.367344;0.439763;,
 0.367344;0.439763;,
 0.367344;0.439763;,
 0.352614;0.443952;,
 0.352614;0.443952;,
 0.352614;0.443952;,
 0.338523;0.443799;,
 0.338523;0.443799;,
 0.338523;0.443799;,
 0.324053;0.443625;,
 0.324053;0.443625;,
 0.324053;0.443625;,
 0.307873;0.443242;,
 0.307873;0.443242;,
 0.307873;0.443242;,
 0.290936;0.442793;,
 0.290936;0.442793;,
 0.290936;0.442793;,
 0.274193;0.442419;,
 0.274193;0.442419;,
 0.274193;0.442419;,
 0.258596;0.442263;,
 0.258596;0.442263;,
 0.258596;0.442263;,
 0.242571;0.444934;,
 0.242571;0.444934;,
 0.242571;0.444934;,
 0.242571;0.444934;,
 0.233590;0.451360;,
 0.233590;0.451360;,
 0.233590;0.451360;,
 0.233590;0.451360;,
 0.226497;0.459158;,
 0.226497;0.459158;,
 0.226497;0.459158;,
 0.216136;0.465944;,
 0.216136;0.465944;,
 0.216136;0.465944;,
 0.216136;0.465944;,
 0.197350;0.469336;,
 0.197350;0.469336;,
 0.197350;0.469336;,
 0.165844;0.469866;,
 0.165844;0.469866;,
 0.165844;0.469866;,
 0.131452;0.469511;,
 0.131452;0.469511;,
 0.131452;0.469511;,
 0.131452;0.469511;,
 0.096341;0.468698;,
 0.096341;0.468698;,
 0.096341;0.468698;,
 0.062677;0.467855;,
 0.062677;0.467855;,
 0.062677;0.467855;,
 0.032626;0.467407;,
 0.032626;0.467407;,
 0.032626;0.467407;,
 0.021852;0.461376;,
 0.021852;0.461376;,
 0.021852;0.461376;,
 0.016000;0.442666;,
 0.016000;0.442666;,
 0.016000;0.442666;,
 0.013619;0.413763;,
 0.013619;0.413763;,
 0.013619;0.413763;,
 0.013255;0.377155;,
 0.013255;0.377155;,
 0.013255;0.377155;,
 0.013456;0.335326;,
 0.013456;0.335326;,
 0.013456;0.335326;,
 0.014897;0.308040;,
 0.014897;0.308040;,
 0.014897;0.308040;,
 0.018331;0.300088;,
 0.018331;0.300088;,
 0.018331;0.300088;,
 0.022431;0.293617;,
 0.022431;0.293617;,
 0.022431;0.293617;,
 0.025865;0.270775;,
 0.025865;0.270775;,
 0.025865;0.270775;,
 0.027306;0.213710;,
 0.027306;0.213710;,
 0.027306;0.213710;,
 0.027306;0.213710;,
 0.046943;0.180297;,
 0.046943;0.180297;,
 0.046943;0.180297;,
 0.093921;0.165044;,
 0.093921;0.165044;,
 0.093921;0.165044;,
 0.093921;0.165044;,
 0.150265;0.165695;,
 0.150265;0.165695;,
 0.150265;0.165695;,
 0.198003;0.179991;,
 0.198003;0.179991;,
 0.198003;0.179991;,
 0.219161;0.205673;,
 0.219161;0.205673;,
 0.219161;0.205673;,
 0.219161;0.205673;,
 0.259848;0.205673;,
 0.259848;0.205673;,
 0.259848;0.205673;,
 0.273611;0.205758;,
 0.273611;0.205758;,
 0.273611;0.205758;,
 0.287097;0.205954;,
 0.287097;0.205954;,
 0.287097;0.205954;,
 0.300748;0.206175;,
 0.300748;0.206175;,
 0.300748;0.206175;,
 0.315004;0.206336;,
 0.315004;0.206336;,
 0.315004;0.206336;,
 0.330307;0.206352;,
 0.330307;0.206352;,
 0.330307;0.206352;,
 0.346145;0.207027;,
 0.346145;0.207027;,
 0.346145;0.207027;,
 0.363006;0.213481;,
 0.363006;0.213481;,
 0.363006;0.213481;,
 0.378287;0.232102;,
 0.378287;0.232102;,
 0.378287;0.232102;,
 0.389387;0.269278;,
 0.389387;0.269278;,
 0.389387;0.269278;,
 0.389387;0.269278;,
 0.393705;0.331397;,
 0.393705;0.331397;,
 0.393705;0.331397;,
 0.390054;0.390460;,
 0.390054;0.390460;,
 0.390054;0.390460;,
 0.380545;0.424257;,
 0.380545;0.424257;,
 0.380545;0.424257;,
 0.367344;0.439763;,
 0.367344;0.439763;,
 0.367344;0.439763;,
 0.352614;0.443952;,
 0.352614;0.443952;,
 0.352614;0.443952;,
 0.338523;0.443799;,
 0.338523;0.443799;,
 0.338523;0.443799;,
 0.324053;0.443625;,
 0.324053;0.443625;,
 0.324053;0.443625;,
 0.307873;0.443242;,
 0.307873;0.443242;,
 0.307873;0.443242;,
 0.290936;0.442793;,
 0.290936;0.442793;,
 0.290936;0.442793;,
 0.274193;0.442419;,
 0.274193;0.442419;,
 0.274193;0.442419;,
 0.258596;0.442263;,
 0.258596;0.442263;,
 0.258596;0.442263;,
 0.242571;0.444934;,
 0.242571;0.444934;,
 0.242571;0.444934;,
 0.242571;0.444934;,
 0.233590;0.451360;,
 0.233590;0.451360;,
 0.233590;0.451360;,
 0.226497;0.459158;,
 0.226497;0.459158;,
 0.226497;0.459158;,
 0.216136;0.465944;,
 0.216136;0.465944;,
 0.216136;0.465944;,
 0.197350;0.469336;,
 0.197350;0.469336;,
 0.197350;0.469336;,
 0.165844;0.469866;,
 0.165844;0.469866;,
 0.165844;0.469866;,
 0.131452;0.469511;,
 0.131452;0.469511;,
 0.131452;0.469511;,
 0.131452;0.469511;,
 0.096341;0.468698;,
 0.096341;0.468698;,
 0.096341;0.468698;,
 0.062677;0.467855;,
 0.062677;0.467855;,
 0.062677;0.467855;,
 0.032626;0.467407;,
 0.032626;0.467407;,
 0.032626;0.467407;,
 0.021852;0.461376;,
 0.021852;0.461376;,
 0.021852;0.461376;,
 0.016000;0.442666;,
 0.016000;0.442666;,
 0.016000;0.442666;,
 0.013619;0.413763;,
 0.013619;0.413763;,
 0.013619;0.413763;,
 0.013255;0.377155;,
 0.013255;0.377155;,
 0.013255;0.377155;,
 0.013456;0.335326;,
 0.013456;0.335326;,
 0.013456;0.335326;,
 0.014897;0.308040;,
 0.014897;0.308040;,
 0.014897;0.308040;,
 0.014897;0.308040;,
 0.018331;0.300088;,
 0.018331;0.300088;,
 0.018331;0.300088;,
 0.022431;0.293617;,
 0.022431;0.293617;,
 0.022431;0.293617;,
 0.022431;0.293617;,
 0.025865;0.270775;,
 0.025865;0.270775;,
 0.025865;0.270775;,
 0.027306;0.213710;,
 0.027306;0.213710;,
 0.027306;0.213710;,
 0.027306;0.213710;,
 0.046943;0.180297;,
 0.046943;0.180297;,
 0.046943;0.180297;,
 0.093921;0.165044;,
 0.093921;0.165044;,
 0.093921;0.165044;,
 0.093921;0.165044;,
 0.150265;0.165695;,
 0.150265;0.165695;,
 0.150265;0.165695;,
 0.198003;0.179991;,
 0.198003;0.179991;,
 0.198003;0.179991;,
 0.219161;0.205673;,
 0.219161;0.205673;,
 0.219161;0.205673;,
 0.219161;0.205673;,
 0.230866;0.325304;,
 0.230866;0.325304;,
 0.230866;0.325304;,
 0.230866;0.325304;,
 0.230866;0.325304;,
 0.230866;0.325304;,
 0.129086;0.269507;,
 0.129086;0.269507;,
 0.129086;0.269507;,
 0.129086;0.269507;,
 0.129086;0.269507;,
 0.129086;0.269507;,
 0.129086;0.269507;,
 0.129086;0.269507;,
 0.230866;0.325304;,
 0.230866;0.325304;,
 0.219161;0.205673;,
 0.198003;0.179991;,
 0.150265;0.165695;,
 0.093921;0.165044;,
 0.046943;0.180297;,
 0.027306;0.213710;,
 0.025865;0.270775;,
 0.022431;0.293617;,
 0.018331;0.300088;,
 0.014897;0.308040;,
 0.013456;0.335326;,
 0.013255;0.377155;,
 0.013619;0.413763;,
 0.016000;0.442666;,
 0.021852;0.461376;,
 0.032626;0.467407;,
 0.062677;0.467855;,
 0.096341;0.468698;,
 0.131452;0.469511;,
 0.165844;0.469866;,
 0.197350;0.469336;,
 0.216136;0.465944;,
 0.226497;0.459158;,
 0.233590;0.451360;,
 0.242571;0.444934;,
 0.258596;0.442263;,
 0.274193;0.442419;,
 0.290936;0.442793;,
 0.307873;0.443242;,
 0.324053;0.443625;,
 0.338523;0.443799;,
 0.352614;0.443952;,
 0.367344;0.439763;,
 0.380545;0.424257;,
 0.390054;0.390460;,
 0.393705;0.331397;,
 0.389387;0.269278;,
 0.378287;0.232102;,
 0.363006;0.213481;,
 0.346145;0.207027;,
 0.330307;0.206352;,
 0.315004;0.206336;,
 0.300748;0.206175;,
 0.287097;0.205954;,
 0.273611;0.205758;,
 0.259848;0.205673;,
 0.219161;0.205673;,
 0.198003;0.179991;,
 0.150265;0.165695;,
 0.093921;0.165044;,
 0.046943;0.180297;,
 0.027306;0.213710;,
 0.025865;0.270775;,
 0.022431;0.293617;,
 0.018331;0.300088;,
 0.014897;0.308040;,
 0.013456;0.335326;,
 0.013255;0.377155;,
 0.013619;0.413763;,
 0.016000;0.442666;,
 0.021852;0.461376;,
 0.032626;0.467407;,
 0.062677;0.467855;,
 0.096341;0.468698;,
 0.131452;0.469511;,
 0.165844;0.469866;,
 0.197350;0.469336;,
 0.216136;0.465944;,
 0.226497;0.459158;,
 0.233590;0.451360;,
 0.242571;0.444934;,
 0.258596;0.442263;,
 0.274193;0.442419;,
 0.290936;0.442793;,
 0.307873;0.443242;,
 0.324053;0.443625;,
 0.338523;0.443799;,
 0.352614;0.443952;,
 0.367344;0.439763;,
 0.380545;0.424257;,
 0.390054;0.390460;,
 0.393705;0.331397;,
 0.389387;0.269278;,
 0.378287;0.232102;,
 0.363006;0.213481;,
 0.346145;0.207027;,
 0.330307;0.206352;,
 0.315004;0.206336;,
 0.300748;0.206175;,
 0.287097;0.205954;,
 0.273611;0.205758;,
 0.259848;0.205673;;
 }
}
}
