xof 0302txt 0032
template Header {
 <3D82AB43-62DA-11cf-AB39-0020AF71E433>
 WORD major;
 WORD minor;
 DWORD flags;
}

template Vector {
 <3D82AB5E-62DA-11cf-AB39-0020AF71E433>
 FLOAT x;
 FLOAT y;
 FLOAT z;
}

template Coords2d {
 <F6F23F44-7686-11cf-8F52-0040333594A3>
 FLOAT u;
 FLOAT v;
}

template Matrix4x4 {
 <F6F23F45-7686-11cf-8F52-0040333594A3>
 array FLOAT matrix[16];
}

template ColorRGBA {
 <35FF44E0-6C7C-11cf-8F52-0040333594A3>
 FLOAT red;
 FLOAT green;
 FLOAT blue;
 FLOAT alpha;
}

template ColorRGB {
 <D3E16E81-7835-11cf-8F52-0040333594A3>
 FLOAT red;
 FLOAT green;
 FLOAT blue;
}

template TextureFilename {
 <A42790E1-7810-11cf-8F52-0040333594A3>
 STRING filename;
}

template Material {
 <3D82AB4D-62DA-11cf-AB39-0020AF71E433>
 ColorRGBA faceColor;
 FLOAT power;
 ColorRGB specularColor;
 ColorRGB emissiveColor;
 [...]
}

template MeshFace {
 <3D82AB5F-62DA-11cf-AB39-0020AF71E433>
 DWORD nFaceVertexIndices;
 array DWORD faceVertexIndices[nFaceVertexIndices];
}

template MeshTextureCoords {
 <F6F23F40-7686-11cf-8F52-0040333594A3>
 DWORD nTextureCoords;
 array Coords2d textureCoords[nTextureCoords];
}

template MeshMaterialList {
 <F6F23F42-7686-11cf-8F52-0040333594A3>
 DWORD nMaterials;
 DWORD nFaceIndexes;
 array DWORD faceIndexes[nFaceIndexes];
 [Material]
}

template MeshNormals {
 <F6F23F43-7686-11cf-8F52-0040333594A3>
 DWORD nNormals;
 array Vector normals[nNormals];
 DWORD nFaceNormals;
 array MeshFace faceNormals[nFaceNormals];
}

template Mesh {
 <3D82AB44-62DA-11cf-AB39-0020AF71E433>
 DWORD nVertices;
 array Vector vertices[nVertices];
 DWORD nFaces;
 array MeshFace faces[nFaces];
 [...]
}

template FrameTransformMatrix {
 <F6F23F41-7686-11cf-8F52-0040333594A3>
 Matrix4x4 frameMatrix;
}

template Frame {
 <3D82AB46-62DA-11cf-AB39-0020AF71E433>
 [...]
}
template FloatKeys {
 <10DD46A9-775B-11cf-8F52-0040333594A3>
 DWORD nValues;
 array FLOAT values[nValues];
}

template TimedFloatKeys {
 <F406B180-7B3B-11cf-8F52-0040333594A3>
 DWORD time;
 FloatKeys tfkeys;
}

template AnimationKey {
 <10DD46A8-775B-11cf-8F52-0040333594A3>
 DWORD keyType;
 DWORD nKeys;
 array TimedFloatKeys keys[nKeys];
}

template AnimationOptions {
 <E2BF56C0-840F-11cf-8F52-0040333594A3>
 DWORD openclosed;
 DWORD positionquality;
}

template Animation {
 <3D82AB4F-62DA-11cf-AB39-0020AF71E433>
 [...]
}

template AnimationSet {
 <3D82AB50-62DA-11cf-AB39-0020AF71E433>
 [Animation]
}

Header {
 1;
 0;
 1;
}

Frame frm-Base {
  FrameTransformMatrix {
1.000000,0.000000,0.000000,0.000000,
0.000000,1.000000,0.000000,0.000000,
0.000000,0.000000,1.000000,0.000000,
0.000000,0.000000,0.000000,1.000000;;
 }
Mesh Base {
 16;
 -5.000000;-5.000000;5.000000;,
 -5.000000;-5.000000;5.000000;,
 -2.130000;8.276573;2.130000;,
 -2.130000;8.276573;2.130000;,
 5.000000;-5.000000;5.000000;,
 5.000000;-5.000000;5.000000;,
 2.130000;8.276573;2.130000;,
 2.130000;8.276573;2.130000;,
 2.130000;8.276573;-2.130000;,
 2.130000;8.276573;2.130000;,
 5.000000;-5.000000;-5.000000;,
 5.000000;-5.000000;5.000000;,
 -2.130000;8.276573;-2.130000;,
 -2.130000;8.276573;2.130000;,
 -5.000000;-5.000000;-5.000000;,
 -5.000000;-5.000000;5.000000;;

 6;
 4;3,12,14,1;,
 4;12,8,10,14;,
 4;8,7,5,10;,
 4;6,2,0,4;,
 4;15,14,10,11;,
 4;9,8,12,13;;

 MeshMaterialList {
  1;
  6;
  0,
  0,
  0,
  0,
  0,
  0;
Material {
 1.000000;1.000000;1.000000;1.000000;;
 50.000000;
 1.000000;1.000000;1.000000;;
 0.0; 0.0; 0.0;;
 TextureFilename {
  "tower.ppm";
 }
 }
}
 MeshNormals {
  16;
  -0.652468;-0.385450;0.652468;,
  -0.652468;-0.385450;0.652468;,
  -0.492766;0.717191;0.492766;,
  -0.492766;0.717191;0.492766;,
  0.652468;-0.385450;0.652468;,
  0.652468;-0.385450;0.652468;,
  0.492766;0.717191;0.492766;,
  0.492766;0.717191;0.492766;,
  0.492766;0.717191;-0.492766;,
  0.492766;0.717191;0.492766;,
  0.652468;-0.385450;-0.652468;,
  0.652468;-0.385450;0.652468;,
  -0.492766;0.717191;-0.492766;,
  -0.492766;0.717191;0.492766;,
  -0.652468;-0.385450;-0.652468;,
  -0.652468;-0.385450;0.652468;;

  6;
  4;3,12,14,1;,
  4;12,8,10,14;,
  4;8,7,5,10;,
  4;6,2,0,4;,
  4;15,14,10,11;,
  4;9,8,12,13;;
 }
 MeshTextureCoords { 
 16;
 0.362108;1.000000;,
 0.362108;1.000000;,
 0.259641;0.023438;,
 0.259641;0.023438;,
 0.005079;1.000000;,
 0.005079;1.000000;,
 0.107547;0.023438;,
 0.107547;0.023438;,
 0.259641;0.023438;,
 0.259641;0.023438;,
 0.362108;1.000000;,
 0.362108;1.000000;,
 0.107547;0.023438;,
 0.107547;0.023438;,
 0.005079;1.000000;,
 0.005079;1.000000;;
 }
}
Frame frm-top {
  FrameTransformMatrix {
1.000000,0.000000,0.000000,0.000000,
0.000000,0.240000,0.000000,0.000000,
0.000000,0.000000,1.000000,0.000000,
0.000000,14.930754,0.000000,1.000000;;
 }
Mesh top {
 75;
 -5.000000;-18.789522;5.000000;,
 -5.000000;-18.789522;5.000000;,
 -5.000000;-18.789522;5.000000;,
 -5.000000;-18.789522;-5.000000;,
 -5.000000;-18.789522;-5.000000;,
 -5.000000;-18.789522;-5.000000;,
 -5.000000;-8.789523;5.000000;,
 -5.000000;-8.789523;5.000000;,
 -5.000000;-8.789523;5.000000;,
 -5.000000;-8.789523;-5.000000;,
 -5.000000;-8.789523;-5.000000;,
 -5.000000;-8.789523;-5.000000;,
 5.000000;-18.789522;5.000000;,
 5.000000;-18.789522;5.000000;,
 5.000000;-18.789522;5.000000;,
 5.000000;-18.789522;-5.000000;,
 5.000000;-18.789522;-5.000000;,
 5.000000;-18.789522;-5.000000;,
 5.000000;-8.789523;5.000000;,
 5.000000;-8.789523;5.000000;,
 5.000000;-8.789523;5.000000;,
 5.000000;-8.789523;-5.000000;,
 5.000000;-8.789523;-5.000000;,
 5.000000;-8.789523;-5.000000;,
 0.000000;-8.810209;6.029655;,
 0.000000;-8.810209;6.029655;,
 0.000000;-8.810209;6.029655;,
 0.000000;-18.768835;6.029655;,
 0.000000;-18.768835;6.029655;,
 0.000000;-18.768835;6.029655;,
 -6.029655;-8.810209;0.000000;,
 -6.029655;-8.810209;0.000000;,
 -6.029655;-18.768835;0.000000;,
 -6.029655;-18.768835;0.000000;,
 -6.029655;-18.768835;0.000000;,
 6.029655;-8.810209;0.000000;,
 6.029655;-8.810209;0.000000;,
 6.029655;-8.810209;0.000000;,
 6.029655;-18.768835;0.000000;,
 6.029655;-18.768835;0.000000;,
 6.029655;-18.768835;0.000000;,
 0.000000;-18.768835;-6.029655;,
 0.000000;-18.768835;-6.029655;,
 0.000000;-32.818535;0.000000;,
 0.000000;-32.818535;0.000000;,
 0.000000;-32.818535;0.000000;,
 0.000000;-32.818535;0.000000;,
 0.000000;-32.818535;0.000000;,
 0.000000;-32.818535;0.000000;,
 0.000000;-32.818535;0.000000;,
 0.000000;-4.126976;0.000000;,
 0.000000;-4.126976;0.000000;,
 0.000000;-4.126976;0.000000;,
 0.000000;-4.126976;0.000000;,
 0.000000;-4.126976;0.000000;,
 0.000000;-4.126976;0.000000;,
 0.000000;-4.126976;0.000000;,
 0.000000;-4.126976;0.000000;,
 0.000000;-32.818535;0.000000;,
 0.000000;-18.768835;-6.029655;,
 0.000000;-8.810209;-6.029655;,
 6.029655;-18.768835;0.000000;,
 6.029655;-8.810209;0.000000;,
 -6.029655;-18.768835;0.000000;,
 -6.029655;-8.810209;0.000000;,
 0.000000;-18.768835;6.029655;,
 0.000000;-8.810209;6.029655;,
 5.000000;-8.789523;-5.000000;,
 5.000000;-8.789523;5.000000;,
 5.000000;-18.789522;-5.000000;,
 5.000000;-18.789522;5.000000;,
 -5.000000;-8.789523;-5.000000;,
 -5.000000;-8.789523;5.000000;,
 -5.000000;-18.789522;-5.000000;,
 -5.000000;-18.789522;5.000000;;

 24;
 4;31,11,5,34;,
 4;60,23,17,42;,
 4;37,20,14,40;,
 4;26,8,2,29;,
 3;49,28,1;,
 3;56,36,22;,
 4;33,0,7,30;,
 4;27,13,19,25;,
 4;39,16,21,35;,
 4;41,4,10,60;,
 3;48,59,15;,
 3;3,59,47;,
 3;32,73,46;,
 3;74,63,45;,
 3;12,65,44;,
 3;43,69,38;,
 3;61,70,58;,
 3;55,64,6;,
 3;18,62,54;,
 3;53,72,24;,
 3;9,64,52;,
 3;60,71,51;,
 3;67,60,50;,
 3;57,66,68;;

 MeshMaterialList {
  1;
  24;
  0,
  0,
  0,
  0,
  0,
  0,
  0,
  0,
  0,
  0,
  0,
  0,
  0,
  0,
  0,
  0,
  0,
  0,
  0,
  0,
  0,
  0,
  0,
  0;
Material {
 0.700000;0.700000;0.700000;1.000000;;
 50.000000;
 1.000000;1.000000;1.000000;;
 0.0; 0.0; 0.0;;
 TextureFilename {
  "tower.ppm";
 }
 }
}
 MeshNormals {
  75;
  -0.687328;-0.234864;0.687328;,
  -0.687328;-0.234864;0.687328;,
  -0.687328;-0.234864;0.687328;,
  -0.687328;-0.234864;-0.687328;,
  -0.687328;-0.234864;-0.687328;,
  -0.687328;-0.234864;-0.687328;,
  -0.611736;0.501555;0.611736;,
  -0.611736;0.501555;0.611736;,
  -0.611736;0.501555;0.611736;,
  -0.611736;0.501555;-0.611736;,
  -0.611736;0.501555;-0.611736;,
  -0.611736;0.501555;-0.611736;,
  0.687328;-0.234864;0.687328;,
  0.687328;-0.234864;0.687328;,
  0.687328;-0.234864;0.687328;,
  0.687328;-0.234864;-0.687328;,
  0.687328;-0.234864;-0.687328;,
  0.687328;-0.234864;-0.687328;,
  0.611736;0.501555;0.611736;,
  0.611736;0.501555;0.611736;,
  0.611736;0.501555;0.611736;,
  0.611736;0.501555;-0.611736;,
  0.611736;0.501555;-0.611736;,
  0.611736;0.501555;-0.611736;,
  0.000000;0.442564;0.896737;,
  0.000000;0.442564;0.896737;,
  0.000000;0.442564;0.896737;,
  0.000000;-0.201661;0.979455;,
  0.000000;-0.201661;0.979455;,
  0.000000;-0.201661;0.979455;,
  -0.896737;0.442564;0.000000;,
  -0.896737;0.442564;0.000000;,
  -0.979455;-0.201661;0.000000;,
  -0.979455;-0.201661;0.000000;,
  -0.979455;-0.201661;0.000000;,
  0.896737;0.442564;0.000000;,
  0.896737;0.442564;0.000000;,
  0.896737;0.442564;0.000000;,
  0.979455;-0.201661;0.000000;,
  0.979455;-0.201661;0.000000;,
  0.979455;-0.201661;0.000000;,
  0.000000;-0.201661;-0.979455;,
  0.000000;-0.201661;-0.979455;,
  0.000000;-1.000000;0.000000;,
  0.000000;-1.000000;0.000000;,
  0.000000;-1.000000;0.000000;,
  0.000000;-1.000000;0.000000;,
  0.000000;-1.000000;0.000000;,
  0.000000;-1.000000;0.000000;,
  0.000000;-1.000000;0.000000;,
  0.000000;1.000000;0.000000;,
  0.000000;1.000000;0.000000;,
  0.000000;1.000000;0.000000;,
  0.000000;1.000000;0.000000;,
  0.000000;1.000000;0.000000;,
  0.000000;1.000000;0.000000;,
  0.000000;1.000000;0.000000;,
  0.000000;1.000000;0.000000;,
  0.000000;-1.000000;0.000000;,
  0.000000;-0.201661;-0.979455;,
  0.000000;0.442564;-0.896737;,
  0.979455;-0.201661;0.000000;,
  0.896737;0.442564;0.000000;,
  -0.979455;-0.201661;0.000000;,
  -0.896737;0.442564;0.000000;,
  0.000000;-0.201661;0.979455;,
  0.000000;0.442564;0.896737;,
  0.611736;0.501555;-0.611736;,
  0.611736;0.501555;0.611736;,
  0.687328;-0.234864;-0.687328;,
  0.687328;-0.234864;0.687328;,
  -0.611736;0.501555;-0.611736;,
  -0.611736;0.501555;0.611736;,
  -0.687328;-0.234864;-0.687328;,
  -0.687328;-0.234864;0.687328;;

  24;
  4;31,11,5,34;,
  4;60,23,17,42;,
  4;37,20,14,40;,
  4;26,8,2,29;,
  3;49,28,1;,
  3;56,36,22;,
  4;33,0,7,30;,
  4;27,13,19,25;,
  4;39,16,21,35;,
  4;41,4,10,60;,
  3;48,59,15;,
  3;3,59,47;,
  3;32,73,46;,
  3;74,63,45;,
  3;12,65,44;,
  3;43,69,38;,
  3;61,70,58;,
  3;55,64,6;,
  3;18,62,54;,
  3;53,72,24;,
  3;9,64,52;,
  3;60,71,51;,
  3;67,60,50;,
  3;57,66,68;;
 }
 MeshTextureCoords { 
 75;
 0.468569;0.346513;,
 0.695313;0.104967;,
 0.922056;0.346513;,
 0.695313;0.182117;,
 0.468569;0.346513;,
 0.922056;0.346513;,
 0.695313;0.104967;,
 0.468569;0.181776;,
 0.922056;0.181776;,
 0.695313;0.182117;,
 0.468569;0.181776;,
 0.922056;0.181776;,
 0.695313;0.182117;,
 0.468569;0.346513;,
 0.922056;0.346513;,
 0.695313;0.104967;,
 0.468569;0.346513;,
 0.922056;0.346513;,
 0.695313;0.182117;,
 0.468569;0.181776;,
 0.922056;0.181776;,
 0.468569;0.181776;,
 0.695313;0.104967;,
 0.922056;0.181776;,
 0.695313;0.104967;,
 0.695313;0.182117;,
 0.695313;0.182117;,
 0.695313;0.346173;,
 0.468569;0.181776;,
 0.695313;0.346173;,
 0.695313;0.182117;,
 0.695313;0.182117;,
 0.695313;0.182117;,
 0.695313;0.346173;,
 0.695313;0.346173;,
 0.695313;0.182117;,
 0.468569;0.181776;,
 0.695313;0.182117;,
 0.695313;0.104967;,
 0.695313;0.346173;,
 0.695313;0.346173;,
 0.695313;0.346173;,
 0.695313;0.346173;,
 0.695313;0.182117;,
 0.695313;0.104967;,
 0.695313;0.104967;,
 0.695313;0.104967;,
 0.695313;0.104967;,
 0.695313;0.182117;,
 0.695313;0.182117;,
 0.695313;0.104967;,
 0.695313;0.104967;,
 0.695313;0.104967;,
 0.695313;0.182117;,
 0.695313;0.104967;,
 0.695313;0.182117;,
 0.695313;0.182117;,
 0.695313;0.182117;,
 0.695313;0.104967;,
 0.468569;0.181776;,
 0.695313;0.182117;,
 0.695313;0.182117;,
 0.468569;0.181776;,
 0.468569;0.181776;,
 0.468569;0.181776;,
 0.468569;0.181776;,
 0.468569;0.181776;,
 0.922056;0.181776;,
 0.695313;0.104967;,
 0.468569;0.181776;,
 0.468569;0.181776;,
 0.468569;0.181776;,
 0.468569;0.181776;,
 0.468569;0.181776;,
 0.695313;0.182117;;
 }
}
}
Frame frm-aim {
  FrameTransformMatrix {
0.256000,0.000000,0.000000,0.000000,
0.000000,0.256000,0.000000,0.000000,
0.000000,0.000000,0.256000,0.000000,
0.000000,3.546099,-4.018912,1.000000;;
 }
Mesh aim {
 22;
 -5.000000;-5.000000;5.000000;,
 -5.000000;-5.000000;5.000000;,
 -5.000000;-5.000000;-5.000000;,
 -5.000000;-5.000000;-5.000000;,
 -5.000000;5.000000;5.000000;,
 -5.000000;5.000000;5.000000;,
 -5.000000;5.000000;-5.000000;,
 -5.000000;5.000000;-5.000000;,
 5.000000;-5.000000;5.000000;,
 5.000000;-5.000000;-5.000000;,
 5.000000;-5.000000;-5.000000;,
 5.000000;5.000000;5.000000;,
 5.000000;5.000000;-5.000000;,
 5.000000;5.000000;-5.000000;,
 5.000000;5.000000;-5.000000;,
 5.000000;5.000000;5.000000;,
 5.000000;-5.000000;-5.000000;,
 5.000000;-5.000000;5.000000;,
 -5.000000;5.000000;-5.000000;,
 -5.000000;5.000000;5.000000;,
 -5.000000;-5.000000;-5.000000;,
 -5.000000;-5.000000;5.000000;;

 6;
 4;5,7,3,1;,
 4;6,13,10,2;,
 4;12,11,8,9;,
 4;15,4,0,17;,
 4;21,20,16,17;,
 4;15,14,18,19;;

 MeshMaterialList {
  1;
  6;
  0,
  0,
  0,
  0,
  0,
  0;
Material {
 0.700000;0.700000;0.700000;1.000000;;
 50.000000;
 1.000000;1.000000;1.000000;;
 0.0; 0.0; 0.0;;
 TextureFilename {
  "tower.ppm";
 }
 }
}
 MeshNormals {
  22;
  -0.577350;-0.577350;0.577350;,
  -0.577350;-0.577350;0.577350;,
  -0.577350;-0.577350;-0.577350;,
  -0.577350;-0.577350;-0.577350;,
  -0.577350;0.577350;0.577350;,
  -0.577350;0.577350;0.577350;,
  -0.577350;0.577350;-0.577350;,
  -0.577350;0.577350;-0.577350;,
  0.577350;-0.577350;0.577350;,
  0.577350;-0.577350;-0.577350;,
  0.577350;-0.577350;-0.577350;,
  0.577350;0.577350;0.577350;,
  0.577350;0.577350;-0.577350;,
  0.577350;0.577350;-0.577350;,
  0.577350;0.577350;-0.577350;,
  0.577350;0.577350;0.577350;,
  0.577350;-0.577350;-0.577350;,
  0.577350;-0.577350;0.577350;,
  -0.577350;0.577350;-0.577350;,
  -0.577350;0.577350;0.577350;,
  -0.577350;-0.577350;-0.577350;,
  -0.577350;-0.577350;0.577350;;

  6;
  4;5,7,3,1;,
  4;6,13,10,2;,
  4;12,11,8,9;,
  4;15,4,0,17;,
  4;21,20,16,17;,
  4;15,14,18,19;;
 }
 MeshTextureCoords { 
 22;
 0.286787;0.868976;,
 0.076494;0.868976;,
 0.564775;0.974444;,
 0.286787;0.868976;,
 0.286787;0.443524;,
 0.076494;0.443524;,
 0.564775;0.548993;,
 0.286787;0.443524;,
 0.286787;0.868976;,
 0.076494;0.868976;,
 0.775069;0.974444;,
 0.286787;0.443524;,
 0.076494;0.443524;,
 0.775069;0.548993;,
 0.286787;0.443524;,
 0.076494;0.443524;,
 0.286787;0.868976;,
 0.076494;0.868976;,
 0.286787;0.868976;,
 0.076494;0.868976;,
 0.286787;0.443524;,
 0.076494;0.443524;;
 }
}
}
Frame frm-lower {
  FrameTransformMatrix {
0.256000,0.000000,0.000000,0.000000,
0.000000,0.256000,0.000000,0.000000,
0.000000,0.000000,0.256000,0.000000,
4.879751,-3.072872,-0.059101,1.000000;;
 }
Mesh lower {
 8;
 5.000000;5.000000;-5.000000;,
 5.000000;5.000000;5.000000;,
 5.000000;-5.000000;-5.000000;,
 5.000000;-5.000000;5.000000;,
 -5.000000;5.000000;-5.000000;,
 -5.000000;5.000000;5.000000;,
 -5.000000;-5.000000;-5.000000;,
 -5.000000;-5.000000;5.000000;;

 6;
 4;5,4,6,7;,
 4;4,0,2,6;,
 4;0,1,3,2;,
 4;1,5,7,3;,
 4;7,6,2,3;,
 4;1,0,4,5;;

 MeshMaterialList {
  1;
  6;
  0,
  0,
  0,
  0,
  0,
  0;
Material {
 1.000000;1.000000;1.000000;1.000000;;
 50.000000;
 1.000000;1.000000;1.000000;;
 0.000000;0.000000;0.000000;;
 TextureFilename {
  "tower.ppm";
 }
 }
}
 MeshNormals {
  8;
  0.577350;0.577350;-0.577350;,
  0.577350;0.577350;0.577350;,
  0.577350;-0.577350;-0.577350;,
  0.577350;-0.577350;0.577350;,
  -0.577350;0.577350;-0.577350;,
  -0.577350;0.577350;0.577350;,
  -0.577350;-0.577350;-0.577350;,
  -0.577350;-0.577350;0.577350;;

  6;
  4;5,4,6,7;,
  4;4,0,2,6;,
  4;0,1,3,2;,
  4;1,5,7,3;,
  4;7,6,2,3;,
  4;1,0,4,5;;
 }
 MeshTextureCoords { 
 8;
 0.000000;1.000000;,
 0.000000;1.000000;,
 0.000000;1.000000;,
 0.000000;1.000000;,
 0.000000;1.000000;,
 0.000000;1.000000;,
 0.000000;1.000000;,
 0.000000;1.000000;;
 }
}
}
Frame frm-upper {
  FrameTransformMatrix {
0.256000,0.000000,0.000000,0.000000,
0.000000,0.256000,0.000000,0.000000,
0.000000,0.000000,0.256000,0.000000,
4.879751,6.668256,-0.059101,1.000000;;
 }
Mesh upper {
 8;
 5.000000;5.000000;-5.000000;,
 5.000000;5.000000;5.000000;,
 5.000000;-5.000000;-5.000000;,
 5.000000;-5.000000;5.000000;,
 -13.537145;5.000000;-5.000000;,
 -13.537145;5.000000;5.000000;,
 -13.537145;-5.000000;-5.000000;,
 -13.537145;-5.000000;5.000000;;

 6;
 4;5,4,6,7;,
 4;4,0,2,6;,
 4;0,1,3,2;,
 4;1,5,7,3;,
 4;7,6,2,3;,
 4;1,0,4,5;;

 MeshMaterialList {
  1;
  6;
  0,
  0,
  0,
  0,
  0,
  0;
Material {
 1.000000;1.000000;1.000000;1.000000;;
 50.000000;
 1.000000;1.000000;1.000000;;
 0.000000;0.000000;0.000000;;
 TextureFilename {
  "tower.ppm";
 }
 }
}
 MeshNormals {
  8;
  0.577350;0.577350;-0.577350;,
  0.577350;0.577350;0.577350;,
  0.577350;-0.577350;-0.577350;,
  0.577350;-0.577350;0.577350;,
  -0.577350;0.577350;-0.577350;,
  -0.577350;0.577350;0.577350;,
  -0.577350;-0.577350;-0.577350;,
  -0.577350;-0.577350;0.577350;;

  6;
  4;5,4,6,7;,
  4;4,0,2,6;,
  4;0,1,3,2;,
  4;1,5,7,3;,
  4;7,6,2,3;,
  4;1,0,4,5;;
 }
 MeshTextureCoords { 
 8;
 0.000000;1.000000;,
 0.000000;1.000000;,
 0.000000;1.000000;,
 0.000000;1.000000;,
 0.000000;1.000000;,
 0.000000;1.000000;,
 0.000000;1.000000;,
 0.000000;1.000000;;
 }
}
}
Frame frm-target {
  FrameTransformMatrix {
1.000000,0.000000,0.000000,0.000000,
0.000000,1.000000,0.000000,0.000000,
0.000000,0.000000,1.000000,0.000000,
0.000000,3.414176,-5.373129,1.000000;;
 }
Mesh target {
 4;
 -0.000943;-0.000333;0.000000;,
 0.000000;0.001000;0.000000;,
 0.000471;-0.000333;0.000816;,
 0.000471;-0.000333;-0.000816;;

 4;
 3;2,1,0;,
 3;3,0,1;,
 3;0,3,2;,
 3;1,2,3;;

 MeshMaterialList {
  1;
  4;
  0,
  0,
  0,
  0;
Material {
 1.000000;1.000000;1.000000;1.000000;;
 50.000000;
 1.000000;1.000000;1.000000;;
 0.000000;0.000000;0.000000;;
 TextureFilename {
  "tower.ppm";
 }
 }
}
 MeshNormals {
  4;
  -0.942809;-0.333333;0.000000;,
  0.000000;1.000000;-0.000000;,
  0.471404;-0.333333;0.816497;,
  0.471404;-0.333333;-0.816497;;

  4;
  3;2,1,0;,
  3;3,0,1;,
  3;0,3,2;,
  3;1,2,3;;
 }
 MeshTextureCoords { 
 4;
 0.000000;1.000000;,
 0.000000;1.000000;,
 0.000000;1.000000;,
 0.000000;1.000000;;
 }
}
}
Frame frm-top_emitter {
  FrameTransformMatrix {
1.000000,0.000000,0.000000,0.000000,
0.000000,1.000000,0.000000,0.000000,
0.000000,0.000000,1.000000,0.000000,
6.119426,6.436561,0.000000,1.000000;;
 }
Mesh top_emitter {
 4;
 -0.000943;-0.000333;0.000000;,
 0.000000;0.001000;0.000000;,
 0.000471;-0.000333;0.000816;,
 0.000471;-0.000333;-0.000816;;

 4;
 3;2,1,0;,
 3;3,0,1;,
 3;0,3,2;,
 3;1,2,3;;

 MeshMaterialList {
  1;
  4;
  0,
  0,
  0,
  0;
Material {
 1.000000;1.000000;1.000000;1.000000;;
 50.000000;
 1.000000;1.000000;1.000000;;
 0.000000;0.000000;0.000000;;
 TextureFilename {
  "tower.ppm";
 }
 }
}
 MeshNormals {
  4;
  -0.942809;-0.333333;0.000000;,
  0.000000;1.000000;-0.000000;,
  0.471404;-0.333333;0.816497;,
  0.471404;-0.333333;-0.816497;;

  4;
  3;2,1,0;,
  3;3,0,1;,
  3;0,3,2;,
  3;1,2,3;;
 }
 MeshTextureCoords { 
 4;
 0.000000;1.000000;,
 0.000000;1.000000;,
 0.000000;1.000000;,
 0.000000;1.000000;;
 }
}
}
Frame frm-bottom_emitter {
  FrameTransformMatrix {
1.000000,0.000000,0.000000,0.000000,
0.000000,1.000000,0.000000,0.000000,
0.000000,0.000000,1.000000,0.000000,
6.181869,-3.371929,0.000000,1.000000;;
 }
Mesh bottom_emitter {
 4;
 -0.000943;-0.000333;0.000000;,
 0.000000;0.001000;0.000000;,
 0.000471;-0.000333;0.000816;,
 0.000471;-0.000333;-0.000816;;

 4;
 3;2,1,0;,
 3;3,0,1;,
 3;0,3,2;,
 3;1,2,3;;

 MeshMaterialList {
  1;
  4;
  0,
  0,
  0,
  0;
Material {
 1.000000;1.000000;1.000000;1.000000;;
 50.000000;
 1.000000;1.000000;1.000000;;
 0.000000;0.000000;0.000000;;
 TextureFilename {
  "tower.ppm";
 }
 }
}
 MeshNormals {
  4;
  -0.942809;-0.333333;0.000000;,
  0.000000;1.000000;-0.000000;,
  0.471404;-0.333333;0.816497;,
  0.471404;-0.333333;-0.816497;;

  4;
  3;2,1,0;,
  3;3,0,1;,
  3;0,3,2;,
  3;1,2,3;;
 }
 MeshTextureCoords { 
 4;
 0.000000;1.000000;,
 0.000000;1.000000;,
 0.000000;1.000000;,
 0.000000;1.000000;;
 }
}
}
}
AnimationSet {
 Animation anim-top {
  {frm-top}
  AnimationKey {
  1;
  2;
  1; 3; 1.000000, 0.240000, 1.000000;;,
  100; 3; 1.000000, 0.240000, 1.000000;;;
  }
  AnimationKey {
  2;
  2;
  1; 3; 0.000000, 14.930754, 0.000000;;,
  100; 3; 0.000000, 14.930754, 0.000000;;;
  }
 }
 Animation anim-aim {
  {frm-aim}
  AnimationKey {
  1;
  2;
  1; 3; 0.256000, 0.256000, 0.256000;;,
  100; 3; 0.256000, 0.256000, 0.256000;;;
  }
  AnimationKey {
  2;
  2;
  1; 3; 0.000000, 3.546099, -4.018912;;,
  100; 3; 0.000000, 3.546099, -4.018912;;;
  }
 }
 Animation anim-lower {
  {frm-lower}
  AnimationKey {
  1;
  2;
  1; 3; 0.256000, 0.256000, 0.256000;;,
  100; 3; 0.256000, 0.256000, 0.256000;;;
  }
  AnimationKey {
  2;
  2;
  1; 3; 4.879751, -3.072872, -0.059101;;,
  100; 3; 4.879751, -3.072872, -0.059101;;;
  }
 }
 Animation anim-upper {
  {frm-upper}
  AnimationKey {
  1;
  2;
  1; 3; 0.256000, 0.256000, 0.256000;;,
  100; 3; 0.256000, 0.256000, 0.256000;;;
  }
  AnimationKey {
  2;
  2;
  1; 3; 4.879751, 6.668256, -0.059101;;,
  100; 3; 4.879751, 6.668256, -0.059101;;;
  }
 }
 Animation anim-target {
  {frm-target}
  AnimationKey {
  2;
  2;
  1; 3; 0.000000, 3.414176, -5.373129;;,
  100; 3; 0.000000, 3.414176, -5.373129;;;
  }
 }
 Animation anim-top_emitter {
  {frm-top_emitter}
  AnimationKey {
  2;
  2;
  1; 3; 6.119426, 6.436561, 0.000000;;,
  100; 3; 6.119426, 6.436561, 0.000000;;;
  }
 }
 Animation anim-bottom_emitter {
  {frm-bottom_emitter}
  AnimationKey {
  2;
  2;
  1; 3; 6.181869, -3.371929, 0.000000;;,
  100; 3; 6.181869, -3.371929, 0.000000;;;
  }
 }
}
