xof 0302txt 0032
template Header {
 <3D82AB43-62DA-11cf-AB39-0020AF71E433>
 WORD major;
 WORD minor;
 DWORD flags;
}

template Vector {
 <3D82AB5E-62DA-11cf-AB39-0020AF71E433>
 FLOAT x;
 FLOAT y;
 FLOAT z;
}

template Coords2d {
 <F6F23F44-7686-11cf-8F52-0040333594A3>
 FLOAT u;
 FLOAT v;
}

template Matrix4x4 {
 <F6F23F45-7686-11cf-8F52-0040333594A3>
 array FLOAT matrix[16];
}

template ColorRGBA {
 <35FF44E0-6C7C-11cf-8F52-0040333594A3>
 FLOAT red;
 FLOAT green;
 FLOAT blue;
 FLOAT alpha;
}

template ColorRGB {
 <D3E16E81-7835-11cf-8F52-0040333594A3>
 FLOAT red;
 FLOAT green;
 FLOAT blue;
}

template TextureFilename {
 <A42790E1-7810-11cf-8F52-0040333594A3>
 STRING filename;
}

template Material {
 <3D82AB4D-62DA-11cf-AB39-0020AF71E433>
 ColorRGBA faceColor;
 FLOAT power;
 ColorRGB specularColor;
 ColorRGB emissiveColor;
 [...]
}

template MeshFace {
 <3D82AB5F-62DA-11cf-AB39-0020AF71E433>
 DWORD nFaceVertexIndices;
 array DWORD faceVertexIndices[nFaceVertexIndices];
}

template MeshTextureCoords {
 <F6F23F40-7686-11cf-8F52-0040333594A3>
 DWORD nTextureCoords;
 array Coords2d textureCoords[nTextureCoords];
}

template MeshMaterialList {
 <F6F23F42-7686-11cf-8F52-0040333594A3>
 DWORD nMaterials;
 DWORD nFaceIndexes;
 array DWORD faceIndexes[nFaceIndexes];
 [Material]
}

template MeshNormals {
 <F6F23F43-7686-11cf-8F52-0040333594A3>
 DWORD nNormals;
 array Vector normals[nNormals];
 DWORD nFaceNormals;
 array MeshFace faceNormals[nFaceNormals];
}

template Mesh {
 <3D82AB44-62DA-11cf-AB39-0020AF71E433>
 DWORD nVertices;
 array Vector vertices[nVertices];
 DWORD nFaces;
 array MeshFace faces[nFaces];
 [...]
}

template FrameTransformMatrix {
 <F6F23F41-7686-11cf-8F52-0040333594A3>
 Matrix4x4 frameMatrix;
}

template Frame {
 <3D82AB46-62DA-11cf-AB39-0020AF71E433>
 [...]
}
template FloatKeys {
 <10DD46A9-775B-11cf-8F52-0040333594A3>
 DWORD nValues;
 array FLOAT values[nValues];
}

template TimedFloatKeys {
 <F406B180-7B3B-11cf-8F52-0040333594A3>
 DWORD time;
 FloatKeys tfkeys;
}

template AnimationKey {
 <10DD46A8-775B-11cf-8F52-0040333594A3>
 DWORD keyType;
 DWORD nKeys;
 array TimedFloatKeys keys[nKeys];
}

template AnimationOptions {
 <E2BF56C0-840F-11cf-8F52-0040333594A3>
 DWORD openclosed;
 DWORD positionquality;
}

template Animation {
 <3D82AB4F-62DA-11cf-AB39-0020AF71E433>
 [...]
}

template AnimationSet {
 <3D82AB50-62DA-11cf-AB39-0020AF71E433>
 [Animation]
}

Header {
 1;
 0;
 1;
}

Frame frm-Base2 {
  FrameTransformMatrix {
1.000000,0.000000,0.000000,0.000000,
0.000000,1.000000,0.000000,0.000000,
0.000000,0.000000,1.000000,0.000000,
0.000000,0.000000,0.000000,1.000000;;
 }
Mesh Base2 {
 16;
 5.000001;-5.000000;4.999999;,
 5.000001;-5.000000;4.999999;,
 2.130001;8.276573;2.130000;,
 2.130001;8.276573;2.130000;,
 -4.999999;-5.000000;5.000001;,
 -4.999999;-5.000000;5.000001;,
 -2.130000;8.276573;2.130001;,
 -2.130000;8.276573;2.130001;,
 -2.130001;8.276573;-2.130000;,
 -2.130000;8.276573;2.130001;,
 -5.000001;-5.000000;-4.999999;,
 -4.999999;-5.000000;5.000001;,
 2.130000;8.276573;-2.130001;,
 2.130001;8.276573;2.130000;,
 4.999999;-5.000000;-5.000001;,
 5.000001;-5.000000;4.999999;;

 6;
 4;1,14,12,3;,
 4;14,10,8,12;,
 4;10,5,7,8;,
 4;4,0,2,6;,
 4;11,10,14,15;,
 4;13,12,8,9;;

 MeshMaterialList {
  1;
  6;
  0,
  0,
  0,
  0,
  0,
  0;
Material {
 1.000000;1.000000;1.000000;1.000000;;
 50.000000;
 1.000000;1.000000;1.000000;;
 0.0; 0.0; 0.0;;
 TextureFilename {
  "tower.ppm";
 }
 }
}
 MeshNormals {
  16;
  0.652468;-0.385450;0.652468;,
  0.652468;-0.385450;0.652468;,
  0.492766;0.717191;0.492766;,
  0.492766;0.717191;0.492766;,
  -0.652468;-0.385450;0.652468;,
  -0.652468;-0.385450;0.652468;,
  -0.492766;0.717191;0.492766;,
  -0.492766;0.717191;0.492766;,
  -0.492766;0.717191;-0.492766;,
  -0.492766;0.717191;0.492766;,
  -0.652468;-0.385450;-0.652468;,
  -0.652468;-0.385450;0.652468;,
  0.492766;0.717191;-0.492766;,
  0.492766;0.717191;0.492766;,
  0.652468;-0.385450;-0.652468;,
  0.652468;-0.385450;0.652468;;

  6;
  4;1,14,12,3;,
  4;14,10,8,12;,
  4;10,5,7,8;,
  4;4,0,2,6;,
  4;11,10,14,15;,
  4;13,12,8,9;;
 }
 MeshTextureCoords { 
 16;
 0.362108;1.000000;,
 0.362108;1.000000;,
 0.259641;0.023438;,
 0.259641;0.023438;,
 0.005079;1.000000;,
 0.005079;1.000000;,
 0.107547;0.023438;,
 0.107547;0.023438;,
 0.259641;0.023438;,
 0.259641;0.023438;,
 0.362108;1.000000;,
 0.362108;1.000000;,
 0.107547;0.023438;,
 0.107547;0.023438;,
 0.005079;1.000000;,
 0.005079;1.000000;;
 }
}
Frame frm-top2 {
  FrameTransformMatrix {
-1.000000,0.000000,-0.000000,0.000000,
0.000000,0.240000,0.000000,0.000000,
0.000000,0.000000,-1.000000,0.000000,
0.000000,14.930754,0.000000,1.000000;;
 }
Mesh top2 {
 75;
 -5.000000;-18.789522;-5.000000;,
 -5.000000;-18.789522;-5.000000;,
 -5.000000;-18.789522;-5.000000;,
 -5.000000;-18.789522;5.000000;,
 -5.000000;-18.789522;5.000000;,
 -5.000000;-18.789522;5.000000;,
 -5.000000;-8.789523;-5.000000;,
 -5.000000;-8.789523;-5.000000;,
 -5.000000;-8.789523;-5.000000;,
 -5.000000;-8.789523;5.000000;,
 -5.000000;-8.789523;5.000000;,
 -5.000000;-8.789523;5.000000;,
 5.000000;-18.789522;-5.000000;,
 5.000000;-18.789522;-5.000000;,
 5.000000;-18.789522;-5.000000;,
 5.000000;-18.789522;5.000000;,
 5.000000;-18.789522;5.000000;,
 5.000000;-18.789522;5.000000;,
 5.000000;-8.789523;-5.000000;,
 5.000000;-8.789523;-5.000000;,
 5.000000;-8.789523;-5.000000;,
 5.000000;-8.789523;5.000000;,
 5.000000;-8.789523;5.000000;,
 5.000000;-8.789523;5.000000;,
 0.000000;-8.810209;-6.029655;,
 0.000000;-8.810209;-6.029655;,
 0.000000;-8.810209;-6.029655;,
 0.000000;-18.768835;-6.029655;,
 0.000000;-18.768835;-6.029655;,
 0.000000;-18.768835;-6.029655;,
 -6.029655;-8.810209;0.000000;,
 -6.029655;-8.810209;0.000000;,
 -6.029655;-18.768835;0.000000;,
 -6.029655;-18.768835;0.000000;,
 -6.029655;-18.768835;0.000000;,
 6.029655;-8.810209;0.000000;,
 6.029655;-8.810209;0.000000;,
 6.029655;-8.810209;0.000000;,
 6.029655;-18.768835;0.000000;,
 6.029655;-18.768835;0.000000;,
 6.029655;-18.768835;0.000000;,
 0.000000;-18.768835;6.029655;,
 0.000000;-18.768835;6.029655;,
 0.000000;-32.818535;0.000000;,
 0.000000;-32.818535;0.000000;,
 0.000000;-32.818535;0.000000;,
 0.000000;-32.818535;0.000000;,
 0.000000;-32.818535;0.000000;,
 0.000000;-32.818535;0.000000;,
 0.000000;-32.818535;0.000000;,
 0.000000;-4.126976;0.000000;,
 0.000000;-4.126976;0.000000;,
 0.000000;-4.126976;0.000000;,
 0.000000;-4.126976;0.000000;,
 0.000000;-4.126976;0.000000;,
 0.000000;-4.126976;0.000000;,
 0.000000;-4.126976;0.000000;,
 0.000000;-4.126976;0.000000;,
 0.000000;-32.818535;0.000000;,
 0.000000;-18.768835;6.029655;,
 0.000000;-8.810209;6.029655;,
 6.029655;-18.768835;0.000000;,
 6.029655;-8.810209;0.000000;,
 -6.029655;-18.768835;0.000000;,
 -6.029655;-8.810209;0.000000;,
 0.000000;-18.768835;-6.029655;,
 0.000000;-8.810209;-6.029655;,
 5.000000;-8.789523;5.000000;,
 5.000000;-8.789523;-5.000000;,
 5.000000;-18.789522;5.000000;,
 5.000000;-18.789522;-5.000000;,
 -5.000000;-8.789523;5.000000;,
 -5.000000;-8.789523;-5.000000;,
 -5.000000;-18.789522;5.000000;,
 -5.000000;-18.789522;-5.000000;;

 24;
 4;34,5,11,31;,
 4;42,17,23,60;,
 4;40,14,20,37;,
 4;29,2,8,26;,
 3;1,28,49;,
 3;22,36,56;,
 4;30,7,0,33;,
 4;25,19,13,27;,
 4;35,21,16,39;,
 4;60,10,4,41;,
 3;15,59,48;,
 3;47,59,3;,
 3;46,73,32;,
 3;45,63,74;,
 3;44,65,12;,
 3;38,69,43;,
 3;58,70,61;,
 3;6,64,55;,
 3;54,62,18;,
 3;24,72,53;,
 3;52,64,9;,
 3;51,71,60;,
 3;50,60,67;,
 3;68,66,57;;

 MeshMaterialList {
  1;
  24;
  0,
  0,
  0,
  0,
  0,
  0,
  0,
  0,
  0,
  0,
  0,
  0,
  0,
  0,
  0,
  0,
  0,
  0,
  0,
  0,
  0,
  0,
  0,
  0;
Material {
 0.700000;0.700000;0.700000;1.000000;;
 50.000000;
 1.000000;1.000000;1.000000;;
 0.0; 0.0; 0.0;;
 TextureFilename {
  "tower.ppm";
 }
 }
}
 MeshNormals {
  75;
  -0.687328;-0.234864;-0.687328;,
  -0.687328;-0.234864;-0.687328;,
  -0.687328;-0.234864;-0.687328;,
  -0.687328;-0.234864;0.687328;,
  -0.687328;-0.234864;0.687328;,
  -0.687328;-0.234864;0.687328;,
  -0.611736;0.501555;-0.611736;,
  -0.611736;0.501555;-0.611736;,
  -0.611736;0.501555;-0.611736;,
  -0.611736;0.501555;0.611736;,
  -0.611736;0.501555;0.611736;,
  -0.611736;0.501555;0.611736;,
  0.687328;-0.234864;-0.687328;,
  0.687328;-0.234864;-0.687328;,
  0.687328;-0.234864;-0.687328;,
  0.687328;-0.234864;0.687328;,
  0.687328;-0.234864;0.687328;,
  0.687328;-0.234864;0.687328;,
  0.611736;0.501555;-0.611736;,
  0.611736;0.501555;-0.611736;,
  0.611736;0.501555;-0.611736;,
  0.611736;0.501555;0.611736;,
  0.611736;0.501555;0.611736;,
  0.611736;0.501555;0.611736;,
  0.000000;0.442564;-0.896737;,
  0.000000;0.442564;-0.896737;,
  0.000000;0.442564;-0.896737;,
  0.000000;-0.201661;-0.979455;,
  0.000000;-0.201661;-0.979455;,
  0.000000;-0.201661;-0.979455;,
  -0.896737;0.442564;0.000000;,
  -0.896737;0.442564;0.000000;,
  -0.979455;-0.201661;0.000000;,
  -0.979455;-0.201661;0.000000;,
  -0.979455;-0.201661;0.000000;,
  0.896737;0.442564;0.000000;,
  0.896737;0.442564;0.000000;,
  0.896737;0.442564;0.000000;,
  0.979455;-0.201661;0.000000;,
  0.979455;-0.201661;0.000000;,
  0.979455;-0.201661;0.000000;,
  0.000000;-0.201661;0.979455;,
  0.000000;-0.201661;0.979455;,
  0.000000;-1.000000;0.000000;,
  0.000000;-1.000000;0.000000;,
  0.000000;-1.000000;0.000000;,
  0.000000;-1.000000;0.000000;,
  0.000000;-1.000000;0.000000;,
  0.000000;-1.000000;0.000000;,
  0.000000;-1.000000;0.000000;,
  0.000000;1.000000;0.000000;,
  0.000000;1.000000;0.000000;,
  0.000000;1.000000;0.000000;,
  0.000000;1.000000;0.000000;,
  0.000000;1.000000;0.000000;,
  0.000000;1.000000;0.000000;,
  0.000000;1.000000;0.000000;,
  0.000000;1.000000;0.000000;,
  0.000000;-1.000000;0.000000;,
  0.000000;-0.201661;0.979455;,
  0.000000;0.442564;0.896737;,
  0.979455;-0.201661;0.000000;,
  0.896737;0.442564;0.000000;,
  -0.979455;-0.201661;0.000000;,
  -0.896737;0.442564;0.000000;,
  0.000000;-0.201661;-0.979455;,
  0.000000;0.442564;-0.896737;,
  0.611736;0.501555;0.611736;,
  0.611736;0.501555;-0.611736;,
  0.687328;-0.234864;0.687328;,
  0.687328;-0.234864;-0.687328;,
  -0.611736;0.501555;0.611736;,
  -0.611736;0.501555;-0.611736;,
  -0.687328;-0.234864;0.687328;,
  -0.687328;-0.234864;-0.687328;;

  24;
  4;34,5,11,31;,
  4;42,17,23,60;,
  4;40,14,20,37;,
  4;29,2,8,26;,
  3;1,28,49;,
  3;22,36,56;,
  4;30,7,0,33;,
  4;25,19,13,27;,
  4;35,21,16,39;,
  4;60,10,4,41;,
  3;15,59,48;,
  3;47,59,3;,
  3;46,73,32;,
  3;45,63,74;,
  3;44,65,12;,
  3;38,69,43;,
  3;58,70,61;,
  3;6,64,55;,
  3;54,62,18;,
  3;24,72,53;,
  3;52,64,9;,
  3;51,71,60;,
  3;50,60,67;,
  3;68,66,57;;
 }
 MeshTextureCoords { 
 75;
 0.468569;0.346513;,
 0.695313;0.104967;,
 0.922056;0.346513;,
 0.695313;0.182117;,
 0.468569;0.346513;,
 0.922056;0.346513;,
 0.695313;0.104967;,
 0.468569;0.181776;,
 0.922056;0.181776;,
 0.695313;0.182117;,
 0.468569;0.181776;,
 0.922056;0.181776;,
 0.695313;0.182117;,
 0.468569;0.346513;,
 0.922056;0.346513;,
 0.695313;0.104967;,
 0.468569;0.346513;,
 0.922056;0.346513;,
 0.695313;0.182117;,
 0.468569;0.181776;,
 0.922056;0.181776;,
 0.468569;0.181776;,
 0.695313;0.104967;,
 0.922056;0.181776;,
 0.695313;0.104967;,
 0.695313;0.182117;,
 0.695313;0.182117;,
 0.695313;0.346173;,
 0.468569;0.181776;,
 0.695313;0.346173;,
 0.695313;0.182117;,
 0.695313;0.182117;,
 0.695313;0.182117;,
 0.695313;0.346173;,
 0.695313;0.346173;,
 0.695313;0.182117;,
 0.468569;0.181776;,
 0.695313;0.182117;,
 0.695313;0.104967;,
 0.695313;0.346173;,
 0.695313;0.346173;,
 0.695313;0.346173;,
 0.695313;0.346173;,
 0.695313;0.182117;,
 0.695313;0.104967;,
 0.695313;0.104967;,
 0.695313;0.104967;,
 0.695313;0.104967;,
 0.695313;0.182117;,
 0.695313;0.182117;,
 0.695313;0.104967;,
 0.695313;0.104967;,
 0.695313;0.104967;,
 0.695313;0.182117;,
 0.695313;0.104967;,
 0.695313;0.182117;,
 0.695313;0.182117;,
 0.695313;0.182117;,
 0.695313;0.104967;,
 0.468569;0.181776;,
 0.695313;0.182117;,
 0.695313;0.182117;,
 0.468569;0.181776;,
 0.468569;0.181776;,
 0.468569;0.181776;,
 0.468569;0.181776;,
 0.468569;0.181776;,
 0.922056;0.181776;,
 0.695313;0.104967;,
 0.468569;0.181776;,
 0.468569;0.181776;,
 0.468569;0.181776;,
 0.468569;0.181776;,
 0.468569;0.181776;,
 0.695313;0.182117;;
 }
}
}
Frame frm-aim2 {
  FrameTransformMatrix {
-0.256000,0.000000,-0.000000,0.000000,
0.000000,0.256000,0.000000,0.000000,
0.000000,0.000000,-0.256000,0.000000,
-0.000000,3.546099,-4.018912,1.000000;;
 }
Mesh aim2 {
 22;
 -5.000000;-5.000000;-5.000000;,
 -5.000000;-5.000000;-5.000000;,
 -5.000000;-5.000000;5.000000;,
 -5.000000;-5.000000;5.000000;,
 -5.000000;5.000000;-5.000000;,
 -5.000000;5.000000;-5.000000;,
 -5.000000;5.000000;5.000000;,
 -5.000000;5.000000;5.000000;,
 5.000000;-5.000000;-5.000000;,
 5.000000;-5.000000;5.000000;,
 5.000000;-5.000000;5.000000;,
 5.000000;5.000000;-5.000000;,
 5.000000;5.000000;5.000000;,
 5.000000;5.000000;5.000000;,
 5.000000;5.000000;5.000000;,
 5.000000;5.000000;-5.000000;,
 5.000000;-5.000000;5.000000;,
 5.000000;-5.000000;-5.000000;,
 -5.000000;5.000000;5.000000;,
 -5.000000;5.000000;-5.000000;,
 -5.000000;-5.000000;5.000000;,
 -5.000000;-5.000000;-5.000000;;

 6;
 4;1,3,7,5;,
 4;2,10,13,6;,
 4;9,8,11,12;,
 4;17,0,4,15;,
 4;17,16,20,21;,
 4;19,18,14,15;;

 MeshMaterialList {
  1;
  6;
  0,
  0,
  0,
  0,
  0,
  0;
Material {
 0.700000;0.700000;0.700000;1.000000;;
 50.000000;
 1.000000;1.000000;1.000000;;
 0.0; 0.0; 0.0;;
 TextureFilename {
  "tower.ppm";
 }
 }
}
 MeshNormals {
  22;
  -0.577350;-0.577350;-0.577350;,
  -0.577350;-0.577350;-0.577350;,
  -0.577350;-0.577350;0.577350;,
  -0.577350;-0.577350;0.577350;,
  -0.577350;0.577350;-0.577350;,
  -0.577350;0.577350;-0.577350;,
  -0.577350;0.577350;0.577350;,
  -0.577350;0.577350;0.577350;,
  0.577350;-0.577350;-0.577350;,
  0.577350;-0.577350;0.577350;,
  0.577350;-0.577350;0.577350;,
  0.577350;0.577350;-0.577350;,
  0.577350;0.577350;0.577350;,
  0.577350;0.577350;0.577350;,
  0.577350;0.577350;0.577350;,
  0.577350;0.577350;-0.577350;,
  0.577350;-0.577350;0.577350;,
  0.577350;-0.577350;-0.577350;,
  -0.577350;0.577350;0.577350;,
  -0.577350;0.577350;-0.577350;,
  -0.577350;-0.577350;0.577350;,
  -0.577350;-0.577350;-0.577350;;

  6;
  4;1,3,7,5;,
  4;2,10,13,6;,
  4;9,8,11,12;,
  4;17,0,4,15;,
  4;17,16,20,21;,
  4;19,18,14,15;;
 }
 MeshTextureCoords { 
 22;
 0.286787;0.868976;,
 0.076494;0.868976;,
 0.564775;0.974444;,
 0.286787;0.868976;,
 0.286787;0.443524;,
 0.076494;0.443524;,
 0.564775;0.548993;,
 0.286787;0.443524;,
 0.286787;0.868976;,
 0.076494;0.868976;,
 0.775069;0.974444;,
 0.286787;0.443524;,
 0.076494;0.443524;,
 0.775069;0.548993;,
 0.286787;0.443524;,
 0.076494;0.443524;,
 0.286787;0.868976;,
 0.076494;0.868976;,
 0.286787;0.868976;,
 0.076494;0.868976;,
 0.286787;0.443524;,
 0.076494;0.443524;;
 }
}
}
Frame frm-lower2 {
  FrameTransformMatrix {
-0.256000,0.000000,-0.000000,0.000000,
0.000000,0.256000,0.000000,0.000000,
0.000000,0.000000,-0.256000,0.000000,
-4.879751,-3.072872,-0.059101,1.000000;;
 }
Mesh lower2 {
 8;
 5.000000;5.000000;5.000000;,
 5.000000;5.000000;-5.000000;,
 5.000000;-5.000000;5.000000;,
 5.000000;-5.000000;-5.000000;,
 -5.000000;5.000000;5.000000;,
 -5.000000;5.000000;-5.000000;,
 -5.000000;-5.000000;5.000000;,
 -5.000000;-5.000000;-5.000000;;

 6;
 4;7,6,4,5;,
 4;6,2,0,4;,
 4;2,3,1,0;,
 4;3,7,5,1;,
 4;3,2,6,7;,
 4;5,4,0,1;;

 MeshMaterialList {
  1;
  6;
  0,
  0,
  0,
  0,
  0,
  0;
Material {
 1.000000;1.000000;1.000000;1.000000;;
 50.000000;
 1.000000;1.000000;1.000000;;
 0.000000;0.000000;0.000000;;
 TextureFilename {
  "tower.ppm";
 }
 }
}
 MeshNormals {
  8;
  0.577350;0.577350;0.577350;,
  0.577350;0.577350;-0.577350;,
  0.577350;-0.577350;0.577350;,
  0.577350;-0.577350;-0.577350;,
  -0.577350;0.577350;0.577350;,
  -0.577350;0.577350;-0.577350;,
  -0.577350;-0.577350;0.577350;,
  -0.577350;-0.577350;-0.577350;;

  6;
  4;7,6,4,5;,
  4;6,2,0,4;,
  4;2,3,1,0;,
  4;3,7,5,1;,
  4;3,2,6,7;,
  4;5,4,0,1;;
 }
 MeshTextureCoords { 
 8;
 0.000000;1.000000;,
 0.000000;1.000000;,
 0.000000;1.000000;,
 0.000000;1.000000;,
 0.000000;1.000000;,
 0.000000;1.000000;,
 0.000000;1.000000;,
 0.000000;1.000000;;
 }
}
}
Frame frm-upper2 {
  FrameTransformMatrix {
-0.256000,0.000000,-0.000000,0.000000,
0.000000,0.256000,0.000000,0.000000,
0.000000,0.000000,-0.256000,0.000000,
-4.879751,6.668256,-0.059101,1.000000;;
 }
Mesh upper2 {
 8;
 5.000000;5.000000;5.000000;,
 5.000000;5.000000;-5.000000;,
 5.000000;-5.000000;5.000000;,
 5.000000;-5.000000;-5.000000;,
 -13.537145;5.000000;5.000000;,
 -13.537145;5.000000;-5.000000;,
 -13.537145;-5.000000;5.000000;,
 -13.537145;-5.000000;-5.000000;;

 6;
 4;7,6,4,5;,
 4;6,2,0,4;,
 4;2,3,1,0;,
 4;3,7,5,1;,
 4;3,2,6,7;,
 4;5,4,0,1;;

 MeshMaterialList {
  1;
  6;
  0,
  0,
  0,
  0,
  0,
  0;
Material {
 1.000000;1.000000;1.000000;1.000000;;
 50.000000;
 1.000000;1.000000;1.000000;;
 0.000000;0.000000;0.000000;;
 TextureFilename {
  "tower.ppm";
 }
 }
}
 MeshNormals {
  8;
  0.577350;0.577350;0.577350;,
  0.577350;0.577350;-0.577350;,
  0.577350;-0.577350;0.577350;,
  0.577350;-0.577350;-0.577350;,
  -0.577350;0.577350;0.577350;,
  -0.577350;0.577350;-0.577350;,
  -0.577350;-0.577350;0.577350;,
  -0.577350;-0.577350;-0.577350;;

  6;
  4;7,6,4,5;,
  4;6,2,0,4;,
  4;2,3,1,0;,
  4;3,7,5,1;,
  4;3,2,6,7;,
  4;5,4,0,1;;
 }
 MeshTextureCoords { 
 8;
 0.000000;1.000000;,
 0.000000;1.000000;,
 0.000000;1.000000;,
 0.000000;1.000000;,
 0.000000;1.000000;,
 0.000000;1.000000;,
 0.000000;1.000000;,
 0.000000;1.000000;;
 }
}
}
Frame frm-target2 {
  FrameTransformMatrix {
-1.000000,0.000000,-0.000000,0.000000,
0.000000,1.000000,0.000000,0.000000,
0.000000,0.000000,-1.000000,0.000000,
0.000000,3.414176,-5.373129,1.000000;;
 }
Mesh target2 {
 4;
 -0.000943;-0.000333;0.000000;,
 0.000000;0.001000;0.000000;,
 0.000471;-0.000333;-0.000816;,
 0.000471;-0.000333;0.000816;;

 4;
 3;0,1,2;,
 3;1,0,3;,
 3;2,3,0;,
 3;3,2,1;;

 MeshMaterialList {
  1;
  4;
  0,
  0,
  0,
  0;
Material {
 1.000000;1.000000;1.000000;1.000000;;
 50.000000;
 1.000000;1.000000;1.000000;;
 0.000000;0.000000;0.000000;;
 TextureFilename {
  "tower.ppm";
 }
 }
}
 MeshNormals {
  4;
  -0.942809;-0.333333;-0.000000;,
  0.000000;1.000000;0.000000;,
  0.471404;-0.333333;-0.816497;,
  0.471404;-0.333333;0.816497;;

  4;
  3;0,1,2;,
  3;1,0,3;,
  3;2,3,0;,
  3;3,2,1;;
 }
 MeshTextureCoords { 
 4;
 0.000000;1.000000;,
 0.000000;1.000000;,
 0.000000;1.000000;,
 0.000000;1.000000;;
 }
}
}
Frame frm-top_emitter2 {
  FrameTransformMatrix {
-1.000000,0.000000,-0.000000,0.000000,
0.000000,1.000000,0.000000,0.000000,
0.000000,0.000000,-1.000000,0.000000,
-6.119426,6.436561,-0.000000,1.000000;;
 }
Mesh top_emitter2 {
 4;
 -0.000943;-0.000333;0.000000;,
 0.000000;0.001000;0.000000;,
 0.000471;-0.000333;-0.000816;,
 0.000471;-0.000333;0.000816;;

 4;
 3;0,1,2;,
 3;1,0,3;,
 3;2,3,0;,
 3;3,2,1;;

 MeshMaterialList {
  1;
  4;
  0,
  0,
  0,
  0;
Material {
 1.000000;1.000000;1.000000;1.000000;;
 50.000000;
 1.000000;1.000000;1.000000;;
 0.000000;0.000000;0.000000;;
 TextureFilename {
  "tower.ppm";
 }
 }
}
 MeshNormals {
  4;
  -0.942809;-0.333333;-0.000000;,
  0.000000;1.000000;0.000000;,
  0.471404;-0.333333;-0.816497;,
  0.471404;-0.333333;0.816497;;

  4;
  3;0,1,2;,
  3;1,0,3;,
  3;2,3,0;,
  3;3,2,1;;
 }
 MeshTextureCoords { 
 4;
 0.000000;1.000000;,
 0.000000;1.000000;,
 0.000000;1.000000;,
 0.000000;1.000000;;
 }
}
}
Frame frm-bottom_emitter2 {
  FrameTransformMatrix {
-1.000000,0.000000,-0.000000,0.000000,
0.000000,1.000000,0.000000,0.000000,
0.000000,0.000000,-1.000000,0.000000,
-6.181869,-3.371929,-0.000000,1.000000;;
 }
Mesh bottom_emitter2 {
 4;
 -0.000943;-0.000333;0.000000;,
 0.000000;0.001000;0.000000;,
 0.000471;-0.000333;-0.000816;,
 0.000471;-0.000333;0.000816;;

 4;
 3;0,1,2;,
 3;1,0,3;,
 3;2,3,0;,
 3;3,2,1;;

 MeshMaterialList {
  1;
  4;
  0,
  0,
  0,
  0;
Material {
 1.000000;1.000000;1.000000;1.000000;;
 50.000000;
 1.000000;1.000000;1.000000;;
 0.000000;0.000000;0.000000;;
 TextureFilename {
  "tower.ppm";
 }
 }
}
 MeshNormals {
  4;
  -0.942809;-0.333333;-0.000000;,
  0.000000;1.000000;0.000000;,
  0.471404;-0.333333;-0.816497;,
  0.471404;-0.333333;0.816497;;

  4;
  3;0,1,2;,
  3;1,0,3;,
  3;2,3,0;,
  3;3,2,1;;
 }
 MeshTextureCoords { 
 4;
 0.000000;1.000000;,
 0.000000;1.000000;,
 0.000000;1.000000;,
 0.000000;1.000000;;
 }
}
}
}
AnimationSet {
 Animation anim-top2 {
  {frm-top2}
  AnimationKey {
  0;
  2;
  1; 4; 0.000000, 0.000000, 1.000000, -0.000000;;,
  100; 4; 0.000000, 0.000000, 1.000000, -0.000000;;;
  }
  AnimationKey {
  1;
  2;
  1; 3; 1.000000, 0.240000, 1.000000;;,
  100; 3; 1.000000, 0.240000, 1.000000;;;
  }
  AnimationKey {
  2;
  2;
  1; 3; 0.000000, 14.930754, 0.000000;;,
  100; 3; 0.000000, 14.930754, 0.000000;;;
  }
 }
 Animation anim-aim2 {
  {frm-aim2}
  AnimationKey {
  0;
  2;
  1; 4; 0.000000, 0.000000, 1.000000, -0.000000;;,
  100; 4; 0.000000, 0.000000, 1.000000, -0.000000;;;
  }
  AnimationKey {
  1;
  2;
  1; 3; 0.256000, 0.256000, 0.256000;;,
  100; 3; 0.256000, 0.256000, 0.256000;;;
  }
  AnimationKey {
  2;
  2;
  1; 3; -0.000000, 3.546099, -4.018912;;,
  100; 3; -0.000000, 3.546099, -4.018912;;;
  }
 }
 Animation anim-lower2 {
  {frm-lower2}
  AnimationKey {
  0;
  2;
  1; 4; 0.000000, 0.000000, 1.000000, -0.000000;;,
  100; 4; 0.000000, 0.000000, 1.000000, -0.000000;;;
  }
  AnimationKey {
  1;
  2;
  1; 3; 0.256000, 0.256000, 0.256000;;,
  100; 3; 0.256000, 0.256000, 0.256000;;;
  }
  AnimationKey {
  2;
  2;
  1; 3; -4.879751, -3.072872, -0.059101;;,
  100; 3; -4.879751, -3.072872, -0.059101;;;
  }
 }
 Animation anim-upper2 {
  {frm-upper2}
  AnimationKey {
  0;
  2;
  1; 4; 0.000000, 0.000000, 1.000000, -0.000000;;,
  100; 4; 0.000000, 0.000000, 1.000000, -0.000000;;;
  }
  AnimationKey {
  1;
  2;
  1; 3; 0.256000, 0.256000, 0.256000;;,
  100; 3; 0.256000, 0.256000, 0.256000;;;
  }
  AnimationKey {
  2;
  2;
  1; 3; -4.879751, 6.668256, -0.059101;;,
  100; 3; -4.879751, 6.668256, -0.059101;;;
  }
 }
 Animation anim-target2 {
  {frm-target2}
  AnimationKey {
  0;
  2;
  1; 4; 0.000000, 0.000000, 1.000000, -0.000000;;,
  100; 4; 0.000000, 0.000000, 1.000000, -0.000000;;;
  }
  AnimationKey {
  2;
  2;
  1; 3; 0.000000, 3.414176, -5.373129;;,
  100; 3; 0.000000, 3.414176, -5.373129;;;
  }
 }
 Animation anim-top_emitter2 {
  {frm-top_emitter2}
  AnimationKey {
  0;
  2;
  1; 4; 0.000000, 0.000000, 1.000000, -0.000000;;,
  100; 4; 0.000000, 0.000000, 1.000000, -0.000000;;;
  }
  AnimationKey {
  2;
  2;
  1; 3; -6.119426, 6.436561, -0.000000;;,
  100; 3; -6.119426, 6.436561, -0.000000;;;
  }
 }
 Animation anim-bottom_emitter2 {
  {frm-bottom_emitter2}
  AnimationKey {
  0;
  2;
  1; 4; 0.000000, 0.000000, 1.000000, -0.000000;;,
  100; 4; 0.000000, 0.000000, 1.000000, -0.000000;;;
  }
  AnimationKey {
  2;
  2;
  1; 3; -6.181869, -3.371929, -0.000000;;,
  100; 3; -6.181869, -3.371929, -0.000000;;;
  }
 }
}
